<svg width="621" height="488" viewBox="0 0 621 488" fill="none" xmlns="http://www.w3.org/2000/svg">
<path d="M601.72 432.982C551.086 432.982 25.9908 432.982 6.58301 432.982C-12.8248 432.982 21.8707 442.83 33.2552 453.949C44.6396 465.067 43.9891 469.62 72.2877 478.092C133.113 496.199 159.135 460.832 255.74 474.703C296.941 480.633 349.418 491.963 390.836 485.927C425.749 480.845 434.206 457.655 460.553 455.749C500.995 452.89 521.161 455.749 558.134 453.949C589.685 452.466 652.354 432.982 601.72 432.982Z" fill="#000F1B" fill-opacity="0.3"/>
<path d="M255.521 301.466H252.159" stroke="#2E3237" stroke-width="1.5168" stroke-miterlimit="10"/>
<path d="M245.655 301.469H69.5748C40.8426 301.469 17.5315 278.703 17.5315 250.642C17.5315 222.581 40.8426 199.814 69.5748 199.814H466.514C481.801 199.814 494.162 187.743 494.162 172.812C494.162 157.882 481.801 145.81 466.514 145.81H132.894C119.341 145.81 108.39 135.115 108.39 121.879C108.39 108.643 119.45 97.948 132.894 97.948H438.215C445.696 97.948 451.66 92.0182 451.66 84.8176C451.66 77.5112 445.588 71.6873 438.215 71.6873H356.03" stroke="#2E3237" stroke-width="2" stroke-miterlimit="10" stroke-dasharray="6.05 6.05"/>
<path d="M352.771 71.686H349.41" stroke="#2E3237" stroke-width="1.5168" stroke-miterlimit="10"/>
<path d="M328.385 29.2197C343.781 26.6784 358.418 36.8438 361.02 51.8802C362.646 61.1986 359.285 70.0934 352.888 76.235L356.683 83.8591L348.226 79.9411C345.19 81.8472 341.721 83.1178 337.926 83.7532C322.53 86.2945 307.893 76.1291 305.29 61.0927C302.58 46.0563 312.988 31.7611 328.385 29.2197Z" fill="black" fill-opacity="0.2"/>
<path d="M345.73 69.4616L348.657 66.0731C349.742 64.8025 349.633 62.7905 348.224 61.7316L344.863 58.9785C343.561 57.9196 341.501 58.0255 340.417 59.402C340.417 59.402 338.899 61.7316 337.056 61.3081C334.996 60.8845 330.442 57.6019 328.057 55.1664C326.322 53.3663 329.25 50.2955 329.25 50.2955C330.334 49.0248 330.225 47.0129 328.816 45.954L325.455 43.2009C324.154 42.142 322.094 42.2478 321.009 43.6244L318.082 47.0129C311.36 54.5311 339.983 76.2386 345.73 69.4616Z" fill="black" fill-opacity="0.2"/>
<path d="M204.998 71.1556C200.769 67.2377 199.035 63.2138 193.288 61.9431C192.095 61.7314 190.903 61.5196 189.819 60.8842C187 59.19 187.542 55.2721 187 52.2013C185.807 46.1655 177.675 42.2476 171.712 45.0007C169.218 46.1655 166.941 48.1774 164.231 47.9656C158.701 47.648 159.352 40.9769 155.557 37.1648C151.979 33.5646 144.714 33.141 140.052 35.3647C136.908 36.9531 134.089 39.0709 131.92 41.824C129.643 44.683 129.752 49.0246 128.126 52.2013C126.499 55.2721 122.813 56.5427 121.078 59.5077C119.668 62.049 119.235 64.8022 120.427 67.5553C122.813 73.0616 129.752 77.0854 135.932 77.0854C146.015 77.0854 220.611 77.0854 220.611 77.0854C220.611 77.0854 209.66 75.4971 204.998 71.1556Z" fill="#000F1B" fill-opacity="0.2"/>
<path d="M407.855 31.8691C411.432 28.5865 412.842 25.0922 417.721 24.0333C418.697 23.8215 419.781 23.7156 420.648 23.1861C423.034 21.7037 422.492 18.4211 423.034 15.8797C424.118 10.6911 430.949 7.51439 436.045 9.73808C438.105 10.6911 440.056 12.3853 442.442 12.2794C447.104 11.9618 446.562 6.3496 449.706 3.17289C452.742 0.102075 458.814 -0.215595 462.717 1.69043C465.427 2.96111 467.813 4.86713 469.548 7.09083C471.391 9.5263 471.391 13.2325 472.8 15.8797C474.101 18.4211 477.354 19.5859 478.764 22.0213C479.956 24.245 480.39 26.5746 479.306 28.7983C477.354 33.4575 471.499 36.846 466.186 36.846C457.621 36.846 394.627 36.846 394.627 36.846C394.627 36.846 403.951 35.5753 407.855 31.8691Z" fill="#000F1B" fill-opacity="0.2"/>
<path d="M477.031 123.464L517.582 133.418L529.725 106.204L480.934 93.4976L477.031 123.464Z" fill="#202123"/>
<path d="M480.934 93.498L529.724 106.205L510.642 80.2617L480.934 93.498Z" fill="#2E3237"/>
<path d="M486.529 92.3982L525.624 102.51L516.881 134.754L477.786 124.643L486.529 92.3982Z" fill="#25282C"/>
<path d="M529.725 106.206L521.268 137.126L500.776 116.477L529.725 106.206Z" fill="#40444A"/>
<path d="M480.936 93.4976L472.479 124.523L500.777 116.476L480.936 93.4976Z" fill="#40444A"/>
<path d="M472.474 124.525L521.265 137.125L503.266 106.947L472.474 124.525Z" fill="#2E3237"/>
<path d="M472.474 124.525L521.265 137.126L502.182 111.289L472.474 124.525Z" fill="#2E3237"/>
<path d="M205.431 45.9692L213.672 49.3576C214.539 49.7812 214.756 50.946 213.997 51.5813L208.034 56.5582C207.275 57.1935 206.082 56.8758 205.865 55.9228L203.48 47.5575C203.263 46.4986 204.347 45.5456 205.431 45.9692Z" stroke="black" stroke-opacity="0.2" stroke-width="1.5168" stroke-miterlimit="10"/>
<path d="M560.631 151.33L558.245 159.801C558.028 160.754 556.836 161.072 556.077 160.436L550.33 155.354C549.571 154.718 549.788 153.554 550.764 153.13L559.004 149.847C559.872 149.424 560.847 150.271 560.631 151.33Z" stroke="black" stroke-opacity="0.2" stroke-width="1.5168" stroke-miterlimit="10"/>
<path d="M34.9915 252.454L28.5946 246.312C27.944 245.677 28.1609 244.406 29.1367 244.194L36.5095 241.759C37.4853 241.441 38.3527 242.183 38.2442 243.136L37.16 251.713C37.16 252.772 35.8589 253.195 34.9915 252.454Z" stroke="black" stroke-opacity="0.2" stroke-width="1.5168" stroke-miterlimit="10"/>
<path d="M64.809 156.835L62.4237 165.306C62.2069 166.259 61.0142 166.577 60.2553 165.941L54.4004 160.859C53.6414 160.223 53.8582 159.059 54.7256 158.635L62.8574 155.247C63.9416 154.929 65.0259 155.776 64.809 156.835Z" stroke="black" stroke-opacity="0.2" stroke-width="1.5168" stroke-miterlimit="10"/>
<path d="M92.0494 139.489L96.0981 142.512L93.0034 146.466L88.9547 143.443L92.0494 139.489Z" fill="black" fill-opacity="0.2"/>
<path d="M129.008 105.264L134.099 105.486L133.872 110.458L128.782 110.236L129.008 105.264Z" fill="black" fill-opacity="0.2"/>
<path d="M457.748 169.963L462.496 171.77L460.645 176.407L455.897 174.6L457.748 169.963Z" fill="black" fill-opacity="0.2"/>
<path d="M406.887 49.9802L411.646 48.199L413.47 52.8463L408.711 54.6276L406.887 49.9802Z" fill="black" fill-opacity="0.2"/>
<path d="M608.128 297.663L613.219 297.885L612.992 302.856L607.902 302.635L608.128 297.663Z" fill="black" fill-opacity="0.2"/>
<path d="M75.3365 108.333L128.014 80.9121L117.234 42.4554L53.21 74.7163L75.3365 108.333Z" fill="#202123"/>
<path d="M52.1951 73.8515L115.691 41.7926L72.5645 33.444L52.1951 73.8515Z" fill="#2F3338"/>
<path d="M57.8317 68.4434L109.87 42.7625L129.054 82.8183L77.0159 108.499L57.8317 68.4434Z" fill="#25282C"/>
<path d="M117.203 42.9456L135.392 81.9453L94.6848 80.1535L117.203 42.9456Z" fill="#40444A"/>
<path d="M53.4899 73.9889L71.785 113.113L95.5806 78.7332L53.4899 73.9889Z" fill="#40444A"/>
<path d="M72.2114 113.643L135.833 81.3938L90.0197 67.8029L72.2114 113.643Z" fill="#2E3237"/>
<path d="M72.4406 113.675L135.839 81.5126L92.808 73.27L72.4406 113.675Z" fill="#2E3237"/>
<path d="M21.0539 191.981C84.6053 60.1332 251.796 114.254 343.173 151.103V411.459H84.3695C42.277 363.556 -35.541 309.32 21.0539 191.981Z" fill="black" fill-opacity="0.2"/>
<path d="M531.704 167.109C671.895 218.121 614.356 352.387 575.094 425.853H298.25V218.006C349.304 184.151 406.96 121.739 531.704 167.109Z" fill="black" fill-opacity="0.2"/>
<path d="M314.401 121.74C365.219 112.067 435.609 45.3948 521.562 129.455C607.516 213.4 516.61 323.485 463.081 380.369C463.081 380.369 444.098 391.769 414.386 404.896H131.175C109.716 387.048 90.8513 362.175 76.4668 328.321C-20.0983 102.279 263.584 131.413 314.401 121.74Z" fill="black" fill-opacity="0.2"/>
<path d="M473.573 145.23L480.294 138.666C480.294 138.666 481.119 139.818 480.765 140.854C480.412 141.775 480.765 142.581 480.53 143.502C480.294 144.424 480.765 146.611 480.058 147.993C479.351 149.375 476.874 149.836 476.049 151.102C475.224 152.369 473.691 155.133 473.691 155.133L468.975 152.139L471.215 148.454C471.215 148.454 470.625 143.618 473.455 141.084L473.573 145.23Z" fill="url(#paint0_linear)"/>
<path d="M438.206 112.528C438.206 112.528 423.468 116.328 420.638 134.522C417.808 152.715 417.219 169.988 417.219 169.988L445.988 159.74C445.988 159.74 460.254 130.837 455.892 121.625C451.293 112.413 438.206 112.528 438.206 112.528Z" fill="#0A1123"/>
<path d="M458.957 179.316C458.839 179.316 458.839 179.316 458.957 179.316C458.367 179.431 457.896 179.201 457.424 178.97C456.363 178.395 455.42 177.358 454.594 176.437C451.882 173.098 449.76 169.413 447.992 165.498C446.577 162.274 445.398 159.049 444.454 155.71C443.629 152.831 440.446 143.043 446.695 143.964C448.227 144.195 449.524 145.346 450.35 146.498C452.118 148.916 453.297 151.68 454.476 154.328C456.009 157.783 457.424 161.237 458.839 164.692C460.49 168.722 463.791 174.48 460.136 178.51C459.9 178.97 459.428 179.316 458.957 179.316Z" fill="white"/>
<path d="M459.43 179.775C457.661 179.89 456.246 178.048 455.657 176.666C455.067 175.169 454.832 173.211 455.539 171.714C456.129 170.448 456.954 169.296 457.661 168.26C462.26 161.581 467.212 155.133 471.338 148.108L475.819 151.333C474.286 155.133 472.635 158.933 470.867 162.733C469.452 165.842 467.919 168.836 466.268 171.83C464.971 174.133 463.557 177.011 461.434 178.739C461.081 179.084 460.373 179.545 459.902 179.66C459.784 179.775 459.666 179.775 459.43 179.775Z" fill="white"/>
<path d="M478.173 147.305L469.212 147.766L473.81 128.075L482.889 128.421L478.173 147.305Z" fill="url(#paint1_linear)"/>
<path d="M468.03 146.958L469.209 147.764L473.807 128.073L472.628 127.267L468.03 146.958Z" fill="url(#paint2_linear)"/>
<path d="M472.632 127.267L481.711 127.613L482.89 128.419L473.811 128.073L472.632 127.267Z" fill="url(#paint3_linear)"/>
<path d="M478.878 138.664L480.646 142.464L478.878 148.336L475.694 141.427C475.694 141.427 476.402 140.506 476.991 141.427L476.402 139.7C476.402 139.815 476.166 137.973 478.878 138.664Z" fill="url(#paint4_linear)"/>
<path d="M498.93 239.999C498.341 238.387 499.637 235.854 500.227 234.242C500.699 232.86 502.114 231.593 501.76 230.787C500.699 228.369 497.397 224.339 497.397 224.339L505.061 220.769C505.061 220.769 507.655 226.872 510.721 229.521C513.786 232.284 522.629 238.963 522.629 238.963C522.629 238.963 531.001 241.957 531.354 242.187C531.826 242.417 532.887 242.993 533.948 244.375C533.948 244.375 534.538 246.793 523.455 246.448C523.455 246.448 518.62 246.563 511.31 244.03C509.66 243.569 508.127 243.108 506.476 242.763C504.825 242.302 499.873 241.266 499.284 240.69C499.048 240.46 498.93 240.23 498.93 239.999Z" fill="url(#paint5_linear)"/>
<path d="M506.477 242.764C508.127 243.225 509.66 243.685 511.311 244.031C518.621 246.564 523.455 246.449 523.455 246.449C534.538 246.795 533.949 244.376 533.949 244.376C532.887 242.995 531.826 242.534 531.355 242.189C530.883 241.958 522.63 238.964 522.63 238.964C520.743 241.382 518.857 242.304 515.437 240.922C510.132 238.734 506.241 234.934 500.11 234.473C499.52 236.086 498.341 238.389 498.931 240.001C499.048 240.231 499.166 240.461 499.402 240.692C499.874 241.267 504.826 242.304 506.477 242.764Z" fill="white"/>
<path d="M468.038 256.809C468.274 255.197 470.396 253.47 471.575 252.318C472.636 251.282 474.287 250.821 474.287 249.9C474.405 247.367 473.226 242.646 473.226 242.646H481.361C481.361 242.646 481.125 248.979 482.54 252.434C484.073 256.003 488.907 265.331 488.907 265.331C488.907 265.331 494.92 271.203 495.156 271.664C495.392 272.124 496.099 272.93 496.453 274.543C496.453 274.543 495.982 276.846 486.549 272.124C486.549 272.124 482.304 270.282 477.117 265.215C475.937 264.179 474.758 263.143 473.579 262.221C472.4 261.185 468.509 258.306 468.274 257.5C468.038 257.27 468.038 257.04 468.038 256.809Z" fill="url(#paint6_linear)"/>
<path d="M473.461 262.222C474.64 263.259 475.819 264.295 476.998 265.216C482.186 270.283 486.431 272.125 486.431 272.125C495.863 276.846 496.335 274.543 496.335 274.543C495.981 272.931 495.274 272.01 495.038 271.665C494.802 271.204 488.789 265.331 488.789 265.331C486.195 266.713 484.073 266.713 481.833 264.18C478.177 260.15 476.291 255.313 471.339 252.55C470.16 253.701 468.155 255.198 468.038 256.81C468.038 257.04 468.038 257.271 468.155 257.501C468.391 258.307 472.164 261.186 473.461 262.222Z" fill="white"/>
<path d="M432.076 117.594C431.368 118.746 430.897 120.012 430.779 121.279C429.835 128.303 433.962 132.679 436.674 138.782C437.028 139.473 437.264 140.164 437.971 140.624C439.15 141.431 441.744 140.855 442.923 140.164C446.46 138.321 449.762 136.134 452.238 133.14C454.714 130.146 456.364 126.346 456.129 122.431C455.539 113.909 445.753 109.649 438.207 112.528C435.613 113.564 433.491 115.291 432.076 117.594Z" fill="#0A1123"/>
<path d="M418.163 205.799L417.337 205.339H417.219L410.263 202.69C409.909 202.575 409.673 202.575 409.32 202.806L400.712 208.102C400.595 208.218 400.477 208.333 400.359 208.448C400.005 209.024 400.359 209.83 401.066 209.945L402.127 210.06C402.363 210.06 402.481 210.06 402.717 209.945L405.665 208.563C405.9 208.448 406.136 208.448 406.372 208.448C407.669 208.793 412.267 209.945 416.158 210.175C416.63 210.175 417.101 209.83 417.219 209.369L418.163 205.799Z" fill="url(#paint7_linear)"/>
<path d="M454.008 159.853C453.654 156.629 445.165 144.077 445.165 144.077L433.846 143.502C432.785 143.617 429.248 143.732 427.597 143.962C424.06 144.423 422.409 146.726 422.409 146.726C422.409 146.726 426.536 162.041 426.89 169.871C427.126 177.702 422.409 194.974 422.409 194.974L450.471 190.253C448.467 182.423 447.995 175.974 447.995 175.974C447.17 170.102 454.598 165.726 454.008 159.853Z" fill="url(#paint8_linear)"/>
<path d="M433.841 143.502C433.841 143.502 439.854 141.429 439.029 134.06L445.985 140.853C445.985 140.853 444.57 147.302 442.92 149.029C443.038 148.914 438.675 150.296 433.841 143.502Z" fill="url(#paint9_linear)"/>
<path d="M453.885 120.012C453.885 120.012 457.54 136.364 451.998 141.661C451.998 141.661 442.566 142.927 438.203 134.291C433.723 125.77 439.736 112.527 453.885 120.012Z" fill="url(#paint10_linear)"/>
<path d="M438.676 128.414C438.676 128.414 437.143 126.111 435.374 127.148C433.606 128.184 434.785 132.56 438.676 133.481V128.414Z" fill="url(#paint11_linear)"/>
<path d="M454.008 159.854C453.654 156.63 446.344 145.805 446.344 145.805L444.811 147.302L444.34 152.83L440.921 147.533L434.082 143.387C433.021 143.502 429.13 143.963 427.479 144.078C423.942 144.539 422.291 146.842 422.291 146.842C422.291 146.842 426.418 162.157 426.772 169.987C427.008 177.817 422.291 195.09 422.291 195.09L450.353 190.369C448.349 182.539 447.877 176.09 447.877 176.09C447.17 170.102 454.598 165.727 454.008 159.854Z" fill="url(#paint12_linear)"/>
<path d="M447.99 176.09C447.636 173.557 448.815 171.254 450.23 169.066C440.444 171.024 433.487 171.599 428.653 172.521C429.007 165.381 429.243 153.751 428.299 149.375C427.946 147.878 427.356 146.381 425.941 145.575C425.47 145.345 424.998 145.115 424.644 145C423.112 145.806 422.404 146.842 422.404 146.842C422.404 146.842 426.531 162.157 426.885 169.987C427.002 173.327 426.177 178.508 425.234 183.23C430.893 182.999 440.798 179.89 448.226 177.242C447.99 176.436 447.99 176.09 447.99 176.09Z" fill="black" fill-opacity="0.2"/>
<path d="M418.634 181.386C417.455 180.811 416.63 179.544 416.394 178.277C415.922 176.55 416.276 174.708 416.276 172.865C416.276 170.562 416.394 168.259 416.63 165.841C416.984 162.386 417.691 158.932 418.634 155.593C419.46 152.714 421.582 142.696 426.534 146.496C427.713 147.417 428.185 149.029 428.421 150.526C428.774 154.326 428.067 158.356 427.595 162.156C427.006 166.532 426.298 170.908 425.591 175.283C425.355 177.011 424.883 178.853 423.822 180.235C422.761 181.617 421.11 182.077 419.342 181.617C419.224 181.617 418.87 181.502 418.634 181.386Z" fill="white"/>
<path d="M412.148 203.499C412.62 196.13 413.092 188.76 414.742 181.506C415.214 179.087 415.803 174.366 418.987 174.021C421.109 173.79 422.76 175.057 423.703 176.784C424.293 178.051 424.293 180.009 424.175 181.275C423.585 186.457 422.406 191.293 420.991 196.36C420.52 197.857 420.166 199.469 419.812 200.966C419.694 201.427 418.633 206.148 418.633 206.148L412.148 203.499Z" fill="white"/>
<path d="M451.06 117.94C451.296 118.401 451.414 118.746 451.296 119.207C451.178 120.013 450.706 120.589 450.235 121.164C447.641 124.389 444.34 127.037 440.684 129.11C440.449 129.225 440.213 129.34 439.977 129.34C439.741 129.34 439.505 129.225 439.27 129.225C437.973 128.764 436.676 128.419 435.379 127.958C435.143 127.843 434.789 127.728 434.671 127.498C434.553 127.267 434.435 127.037 434.435 126.807C434.2 125.31 434.2 123.928 434.2 122.431C434.318 120.243 434.671 118.055 436.204 116.328C437.619 114.716 439.859 114.025 441.981 114.025C444.693 114.025 448.348 115.061 450.353 116.904C450.589 117.249 450.824 117.595 451.06 117.94Z" fill="#0A1123"/>
<path d="M444.33 152.718L446.924 150.3L445.156 144.082C445.156 144.082 444.212 152.603 444.33 152.718Z" fill="url(#paint13_linear)"/>
<path d="M445.156 144.079L446.925 150.297L451.405 151.334L445.392 143.388L445.156 144.079Z" fill="url(#paint14_linear)"/>
<path d="M433.955 142.812L439.143 153.176L442.916 149.491L435.488 141.661L433.955 142.812Z" fill="url(#paint15_linear)"/>
<path d="M442.923 149.491L444.338 152.715L441.508 150.873L442.923 149.491Z" fill="url(#paint16_linear)"/>
<path fill-rule="evenodd" clip-rule="evenodd" d="M144.857 144.885C144.857 144.885 148.63 144.539 151.696 141.315C154.289 138.667 155.233 136.018 155.469 134.521C155.822 136.018 156.648 138.667 159.242 141.315C162.307 144.424 166.08 144.885 166.08 144.885L165.962 145L166.08 145.115C166.08 145.115 162.307 145.461 159.242 148.685C156.648 151.333 155.704 153.982 155.469 155.479C155.115 153.982 154.289 151.333 151.696 148.685C148.63 145.576 144.857 145.115 144.857 145.115V144.885Z" fill="url(#paint17_linear)"/>
<path fill-rule="evenodd" clip-rule="evenodd" d="M120.804 187.721C120.804 187.721 122.926 187.491 124.695 185.763C126.11 184.266 126.699 182.769 126.817 181.848C127.053 182.654 127.525 184.151 128.94 185.763C130.708 187.606 132.831 187.721 132.831 187.721C132.831 187.721 130.708 187.951 128.94 189.678C127.525 191.175 126.935 192.672 126.817 193.594C126.582 192.787 126.11 191.291 124.695 189.678C123.044 187.951 120.804 187.836 120.804 187.721Z" fill="url(#paint18_linear)"/>
<path fill-rule="evenodd" clip-rule="evenodd" d="M505.172 286.983C505.172 286.983 507.294 286.752 509.063 285.025C510.478 283.528 511.067 282.031 511.185 281.11C511.421 281.916 511.892 283.413 513.307 285.025C515.076 286.867 517.198 286.983 517.198 286.983C517.198 286.983 515.076 287.213 513.307 288.94C511.892 290.437 511.303 291.934 511.185 292.855C510.949 292.049 510.478 290.552 509.063 288.94C507.294 287.328 505.172 287.098 505.172 286.983Z" fill="url(#paint19_linear)"/>
<path fill-rule="evenodd" clip-rule="evenodd" d="M369.585 139.358C369.585 139.358 371.707 139.128 373.476 137.401C374.891 135.904 375.48 134.407 375.598 133.486C375.834 134.292 376.306 135.789 377.72 137.401C379.489 139.243 381.611 139.358 381.611 139.358C381.611 139.358 379.489 139.589 377.72 141.316C376.306 142.813 375.716 144.31 375.598 145.231C375.362 144.425 374.891 142.928 373.476 141.316C371.707 139.704 369.585 139.473 369.585 139.358Z" fill="url(#paint20_linear)"/>
<path fill-rule="evenodd" clip-rule="evenodd" d="M570.142 325.442C570.142 325.442 573.915 325.097 576.98 321.872C579.574 319.224 580.517 316.575 580.753 315.078C581.107 316.575 581.932 319.224 584.526 321.872C587.592 324.981 591.365 325.442 591.365 325.442L591.247 325.557L591.365 325.672C591.365 325.672 587.592 326.018 584.526 329.242C581.932 331.89 580.989 334.539 580.753 336.036C580.399 334.539 579.574 331.89 576.98 329.242C573.915 326.133 570.142 325.672 570.142 325.672V325.442Z" fill="url(#paint21_linear)"/>
<path d="M454.117 411.573C453.881 410.997 453.646 410.422 453.41 409.846C455.65 408.694 458.008 407.658 460.248 406.737C460.484 407.543 460.602 408.119 460.602 408.464L461.663 409.616C462.488 410.422 463.432 411.228 464.257 412.034C464.847 412.494 465.436 413.07 465.908 413.531C466.615 414.222 467.087 414.913 467.912 415.488C468.62 415.949 469.445 416.179 470.27 416.64C470.388 416.755 470.506 416.755 470.624 416.87C470.742 417.1 470.624 417.216 470.506 417.446C470.27 417.906 470.034 418.367 469.681 418.597C469.445 418.713 469.209 418.828 468.973 418.828C468.62 418.943 468.148 419.058 467.794 418.943C467.323 418.943 467.205 418.713 466.851 418.482C466.261 418.252 465.554 418.137 464.965 418.022C465.082 418.022 465.2 419.288 465.2 419.403C465.318 419.979 465.436 420.555 465.318 421.246C465.318 421.361 465.318 421.361 465.2 421.361C465.2 421.361 465.082 421.361 464.965 421.361C464.729 421.361 464.493 421.591 464.257 421.706C464.021 421.822 463.785 421.706 463.432 421.706C463.196 421.822 462.96 422.052 462.724 422.167C462.371 422.397 461.899 422.512 461.427 422.512C461.192 422.512 460.956 422.513 460.838 422.743C460.602 422.858 460.484 423.088 460.248 423.203C459.895 423.319 459.659 423.088 459.423 422.973C459.069 422.858 458.833 423.088 458.598 423.203C458.244 423.319 458.008 422.973 457.772 422.743C456.947 421.822 455.768 420.67 455.296 419.519C454.825 418.482 454.943 416.985 454.707 415.834C454.707 414.567 454.471 413.07 454.117 411.573Z" fill="url(#paint22_linear)"/>
<path d="M443.035 380.714C442.563 381.405 442.092 382.096 441.974 382.902C441.62 384.399 442.21 385.896 442.799 387.393C445.039 392.805 447.398 398.102 449.874 403.284C451.171 405.932 452.703 409.502 454.118 412.035L461.075 409.272C461.075 409.272 454.826 392.229 452.468 383.132C451.996 381.405 451.524 379.563 449.992 378.641C447.751 377.26 446.336 377.375 444.332 379.217C443.978 379.678 443.507 380.138 443.035 380.714Z" fill="url(#paint23_linear)"/>
<path d="M458.006 418.484C458.713 418.024 458.949 418.369 458.949 418.369L459.539 420.902C459.539 420.557 459.539 420.212 459.539 419.866C459.539 418.599 459.421 418.83 459.303 417.448C459.303 417.448 460.954 416.642 461.189 418.254L461.425 415.605C461.425 415.605 463.194 413.763 465.67 415.605C465.67 415.605 466.141 420.442 466.024 421.133C466.024 421.478 465.906 421.708 465.67 421.939C465.434 422.169 464.962 422.054 464.609 422.284C464.137 422.515 464.137 423.09 463.665 423.321C463.312 423.436 462.958 423.205 462.604 423.436C462.251 423.551 462.133 423.896 461.897 424.127C461.661 424.242 461.307 424.242 461.072 424.242C460.954 424.242 460.836 424.357 460.718 424.357C460.482 424.472 460.128 424.357 459.892 424.242C459.775 424.242 459.657 424.127 459.539 424.127C457.652 423.205 457.299 418.945 458.006 418.484Z" fill="url(#paint24_linear)"/>
<path d="M448.696 387.97C450.583 387.625 452.233 386.243 453.884 384.631C457.893 380.716 461.902 377.031 466.028 373.116C467.797 371.389 469.566 369.661 471.452 368.049C475.107 364.595 480.531 359.413 476.522 354.116C475.579 352.849 473.456 352.389 472.042 352.504C470.98 352.619 469.919 353.08 468.858 353.771C466.618 355.267 464.614 357.57 462.963 359.183C459.544 362.292 456.242 365.516 453.059 368.74C450.936 370.813 448.932 373.001 447.046 375.189C445.395 377.031 443.273 379.219 442.447 381.637C441.622 384.17 443.508 386.473 445.631 387.51C446.574 387.97 447.635 388.086 448.696 387.97Z" fill="url(#paint25_linear)"/>
<path d="M470.278 374.612C474.051 369.43 484.662 358.606 478.531 351.697C471.811 344.097 457.308 363.097 457.308 363.097L470.278 374.612Z" fill="url(#paint26_linear)"/>
<path d="M539.13 425.969C539.13 425.048 539.366 424.127 539.602 423.205C539.602 422.975 540.074 420.442 539.956 420.211C539.484 416.181 537.244 405.357 537.244 405.357L548.445 403.63C548.445 403.63 548.209 413.302 550.685 418.714C555.991 420.672 565.424 423.09 565.424 423.09C565.424 423.09 575.681 423.32 576.153 423.436C576.743 423.551 578.039 423.781 579.69 424.933C579.69 424.933 581.223 427.236 569.079 430.92C569.079 430.92 563.891 432.878 555.048 432.763C553.161 432.878 551.275 432.993 549.388 433.108C547.384 433.223 541.607 433.799 540.781 433.454C540.427 433.339 540.192 433.108 540.074 432.878C538.777 431.151 539.248 427.927 539.13 425.969Z" fill="url(#paint27_linear)"/>
<path d="M543.498 413.532C543.38 414.108 543.262 414.798 543.144 415.374C542.79 414.798 542.554 414.223 542.201 413.647L543.498 413.532Z" fill="#FFD9B6"/>
<path d="M539.602 423.205C539.602 423.09 539.72 422.169 539.838 421.363C540.31 421.478 540.781 421.708 541.253 421.824C546.323 423.436 551.511 422.515 556.463 420.787C556.581 420.787 556.699 420.672 556.699 420.672C561.061 421.939 565.306 422.975 565.306 422.975C565.306 422.975 575.564 423.205 576.035 423.321C576.625 423.436 577.922 423.666 579.573 424.818C579.573 424.818 581.105 427.121 568.961 430.805C568.961 430.805 563.773 432.763 554.93 432.648C553.044 432.763 551.157 432.878 549.271 432.993C547.266 433.108 541.489 433.684 540.663 433.339C540.31 433.224 540.074 432.993 539.956 432.763C538.659 431.151 539.131 427.927 539.131 426.084C539.131 425.048 539.484 424.127 539.602 423.205Z" fill="url(#paint28_linear)"/>
<path fill-rule="evenodd" clip-rule="evenodd" d="M545.971 368.278C545.381 363.326 541.137 359.641 535.949 359.757C534.776 359.811 533.604 359.891 532.457 360.01C531.116 359.791 530.171 359.872 530.171 359.872C529.894 360.062 529.62 360.254 529.346 360.448C529.148 360.484 528.951 360.523 528.756 360.563C528.756 360.664 528.758 360.765 528.76 360.866C520.185 367.049 512.933 374.809 506 382.672C503.916 384.97 499.493 391.462 495.442 397.407C492.389 401.888 489.548 406.059 488.078 407.89C482.603 415.053 484.188 415.852 492.198 419.89C493.33 420.461 494.591 421.096 495.978 421.823C497.393 422.514 498.925 422.975 500.576 423.205C518.08 424.915 526.955 404.221 532.666 390.832C534.178 397.494 536.061 404.121 538.189 410.653L549.744 408.465C548.8 398.217 547.15 380.369 545.971 368.278Z" fill="white"/>
<path d="M497.275 338.453C497.157 340.526 496.685 352.617 496.685 352.617C495.27 353.884 489.139 353.999 486.663 351.696C484.777 349.853 484.659 348.241 484.659 348.241L486.781 330.623L497.275 338.453Z" fill="url(#paint29_linear)"/>
<path d="M488.668 317.266L487.489 323.484L485.72 333.042L485.248 335.69C490.672 346.514 500.93 348.357 504.585 345.133C508.24 341.908 511.306 322.218 511.306 322.218L488.668 317.266Z" fill="url(#paint30_linear)"/>
<path d="M489.377 345.017C489.377 345.017 498.573 329.356 501.049 328.205C503.643 327.053 511.661 329.587 516.495 323.484C521.329 317.496 518.971 314.041 517.203 313.581C515.552 313.12 511.897 319.108 506.473 314.962C501.049 310.817 489.259 309.896 487.136 314.271C487.136 314.271 479.708 314.502 480.534 324.405C481.359 334.308 483.481 342.714 485.957 343.635L489.377 345.017Z" fill="#0A1123"/>
<path d="M495.51 327.745C492.798 329.588 492.444 335.345 497.16 338.8L499.872 329.473C499.754 327.976 497.278 326.479 495.51 327.745Z" fill="url(#paint31_linear)"/>
<path d="M601.975 437.483C601.032 437.368 600.089 436.907 599.263 436.562C599.028 436.447 596.552 435.641 596.198 435.641C592.071 435.411 580.752 435.756 580.752 435.756L580.87 424.701C580.87 424.701 590.656 426.544 596.434 425.162C599.381 420.326 603.272 411.689 603.272 411.689C603.272 411.689 605.159 401.902 605.394 401.326C605.63 400.865 605.984 399.599 607.517 398.102C607.517 398.102 610.111 397.065 611.761 409.386C611.761 409.386 612.823 414.798 611.172 423.204C610.936 425.047 610.7 426.889 610.464 428.732C610.229 430.574 609.875 436.332 609.285 437.023C609.05 437.253 608.814 437.483 608.578 437.598C607.045 438.75 603.862 437.714 601.975 437.483Z" fill="url(#paint32_linear)"/>
<path fill-rule="evenodd" clip-rule="evenodd" d="M531.482 435.704C548.467 439.619 574.075 437.445 586.294 435.755L586.059 424.24C570.613 422.974 537.835 420.44 532.647 420.21C532.441 420.21 532.186 420.215 531.894 420.225C523.114 415.859 513.464 412.949 503.998 410.308C500.871 409.425 492.543 408.183 485.12 407.076C479.948 406.305 475.216 405.599 472.989 405.126C464.041 403.318 463.975 405.014 463.634 413.731C463.584 415.008 463.529 416.434 463.438 418.023C463.32 419.635 463.529 421.252 464.118 422.749C469.886 438.903 492.65 437.986 507.526 437.386C508.768 437.336 509.955 437.289 511.072 437.253C517.321 437.023 524.985 436.447 531.234 435.871C531.318 435.816 531.4 435.76 531.482 435.704Z" fill="white"/>
<path d="M485.366 348.587C492.323 349.393 503.288 351.35 505.41 359.296C506.471 363.441 506.354 367.932 505.528 372.193C504.939 375.532 504.349 378.872 503.995 382.211C503.288 387.853 502.463 394.302 504.113 399.829L506.825 412.611C506.825 412.611 478.881 425.277 463.082 407.084C463.082 407.084 464.025 361.829 471.453 351.235C472.397 349.969 474.637 349.393 476.052 349.047C479.117 348.357 482.301 348.241 485.366 348.587Z" fill="url(#paint33_linear)"/>
<path d="M542.908 365.745C542.908 365.745 542.201 371.618 538.664 375.533C535.126 379.448 531.118 381.06 527.816 385.09C525.222 388.315 499.519 412.381 496.925 403.63C496.571 402.478 497.043 401.212 497.514 400.175C501.877 389.812 512.488 385.436 521.803 379.909L525.34 377.606C525.34 377.606 526.873 371.733 530.646 368.394L542.908 365.745Z" fill="url(#paint34_linear)"/>
<path d="M543.847 351.004L551.983 359.986C552.455 360.447 552.337 361.253 551.865 361.598L535.712 375.877C535.24 376.338 534.415 376.222 534.061 375.762L526.044 367.241C525.572 366.78 525.69 366.089 526.162 365.628L542.197 351.004C542.55 350.429 543.376 350.544 543.847 351.004Z" fill="url(#paint35_linear)"/>
<path d="M550.215 360.677L536.774 372.537L529.582 364.822L542.787 352.616L550.215 360.677Z" fill="url(#paint36_linear)"/>
<path d="M534.89 375.647C534.89 375.647 533.711 374.956 534.183 372.769C534.655 370.581 535.716 365.399 535.716 365.399C535.716 365.399 535.716 363.556 535.008 364.017C534.301 364.478 532.65 365.514 532.061 368.738C532.061 368.738 531.471 371.502 530.646 372.193C529.938 372.884 528.052 374.841 527.698 377.835C527.58 377.835 532.886 379.562 534.89 375.647Z" fill="url(#paint37_linear)"/>
<path d="M495.739 403.627C494.678 402.245 494.442 400.173 494.442 398.1C494.324 392.918 493.97 387.851 493.735 382.67C493.617 380.367 493.499 378.064 493.499 375.876C493.381 371.154 493.027 364.361 499.276 363.209C500.691 362.979 502.577 364.015 503.403 364.936C504.11 365.627 504.464 366.664 504.7 367.815C505.289 370.233 505.054 373.112 505.171 375.185C505.407 379.445 505.525 383.706 505.643 387.851C505.643 390.615 505.643 393.263 505.525 396.027C505.407 398.33 505.525 401.094 504.464 403.282C503.285 405.585 500.573 405.815 498.451 405.239C497.154 404.894 496.328 404.318 495.739 403.627Z" fill="url(#paint38_linear)"/>
<path d="M489.964 377.262C490.789 370.928 490.789 355.959 500.104 355.037C510.362 354.001 507.532 377.492 507.532 377.492L489.964 377.262Z" fill="url(#paint39_linear)"/>
<path d="M599.264 436.563C599.735 433.8 599.735 430.806 599.499 428.272C599.264 426.43 598.792 424.472 597.967 422.745C600.561 417.909 603.39 411.806 603.39 411.806C603.39 411.806 605.277 402.018 605.513 401.442C605.748 400.982 606.102 399.715 607.635 398.218C607.635 398.218 610.229 397.182 611.88 409.503C611.88 409.503 612.941 414.915 611.29 423.321C611.054 425.163 610.818 427.006 610.583 428.848C610.347 430.691 609.993 436.448 609.404 437.139C609.168 437.369 608.932 437.6 608.696 437.715C606.928 438.636 603.744 437.6 601.858 437.369C601.032 437.254 600.207 436.909 599.264 436.563Z" fill="url(#paint40_linear)"/>
<path d="M90.2631 209.716H453.885C461.549 209.716 467.798 215.819 467.798 223.303V422.054C467.798 429.539 461.549 435.642 453.885 435.642H349.656H90.381C82.7171 435.642 76.4681 429.539 76.4681 422.054V223.303C76.3502 215.819 82.5992 209.716 90.2631 209.716Z" fill="url(#paint41_linear)"/>
<path d="M134.359 226.181H432.426C440.09 226.181 446.339 232.284 446.339 239.769V405.702C446.339 413.187 440.09 419.29 432.426 419.29H118.56C110.896 419.29 104.647 413.187 104.647 405.702V239.769C104.647 238.617 104.765 237.466 105.119 236.43C114.315 232.975 124.102 229.521 134.359 226.181Z" fill="url(#paint42_linear)"/>
<path d="M104.647 239.77C104.647 239.195 104.647 238.619 104.765 238.158V238.043C105.708 231.364 111.486 226.298 118.56 226.298H154.404C177.867 237.007 197.086 253.588 205.693 274.431C222.082 314.158 229.51 328.552 293.179 328.552C356.848 328.552 336.451 390.273 414.151 385.552C426.767 384.746 437.378 385.321 446.457 386.818V405.588C446.457 413.073 440.208 419.176 432.544 419.176H118.678C111.014 419.176 104.765 413.073 104.765 405.588V258.54V239.77H104.647Z" fill="#3E4F64"/>
<path d="M118.563 419.175C110.899 419.175 104.65 413.072 104.65 405.587V252.091C115.851 263.606 126.581 276.272 146.507 275.121C180.818 273.278 218.901 290.206 230.22 317.727C241.539 345.248 246.727 355.266 290.824 355.266C335.039 355.266 320.772 397.987 374.655 394.763C416.394 392.229 427.123 410.654 429.717 419.175H118.563Z" fill="#1E2F41"/>
<path d="M121.626 369.66L121.743 383.593H132.591V378.066H135.656V368.048H139.311V364.594L142.967 361.254H154.168L157.941 364.594V368.048H161.949V378.181H165.133V383.593H169.26L169.142 368.048L184.705 367.933L184.823 383.478H191.426L191.19 340.757H202.509L202.391 323.139H206.046L206.164 340.757H218.309L218.426 375.072L231.396 374.957L231.514 387.854L245.427 387.739L245.309 355.842L290.231 355.612L290.349 387.854L303.673 387.739L303.79 401.672H314.638V396.145H317.703V386.127L338.691 386.012C340.341 387.278 341.992 388.545 343.996 389.581V396.145H347.18V391.193C353.901 394.187 362.626 395.799 374.77 395.109C416.509 392.575 427.238 410.999 429.832 419.521H118.56C110.896 419.521 104.647 413.418 104.647 405.933V370.006L121.626 369.66Z" fill="#12212E"/>
<path d="M456.836 344.67C459.312 344.67 461.198 342.712 461.198 340.409V294.349C461.198 291.931 459.194 290.088 456.836 290.088C454.36 290.088 452.473 292.046 452.473 294.349V340.409C452.473 342.712 454.36 344.67 456.836 344.67Z" fill="white"/>
<path d="M88.0226 336.15H93.5642C95.6865 336.15 97.4551 334.423 97.4551 332.35V285.369C97.4551 283.296 95.6865 281.569 93.5642 281.569H88.0226C85.9003 281.569 84.1317 283.296 84.1317 285.369V332.35C84.0138 334.423 85.7824 336.15 88.0226 336.15Z" fill="white"/>
<path d="M476.052 349.05C478.528 348.474 481.122 348.243 483.598 348.359C477.113 354.922 467.916 371.274 467.798 410.54C467.798 410.771 467.798 411.116 467.798 411.346C466.148 410.195 464.615 408.698 463.082 407.086C463.082 407.086 464.025 361.831 471.453 351.237C472.397 349.971 474.637 349.395 476.052 349.05Z" fill="black" fill-opacity="0.2"/>
<path d="M201.215 227.679H382.436C385.384 227.679 387.742 225.376 387.742 222.497V167.685C387.742 164.806 385.384 162.503 382.436 162.503H201.333C198.385 162.503 196.027 164.806 196.027 167.685V222.497C196.027 225.376 198.385 227.679 201.215 227.679Z" fill="black" fill-opacity="0.2"/>
<path d="M201.215 325.558H382.436C385.384 325.558 387.742 323.255 387.742 320.376V265.564C387.742 262.685 385.384 260.382 382.436 260.382H201.333C198.385 260.382 196.027 262.685 196.027 265.564V320.376C196.027 323.255 198.385 325.558 201.215 325.558Z" fill="black" fill-opacity="0.2"/>
<path d="M201.215 423.437H382.436C385.384 423.437 387.742 421.133 387.742 418.255V363.443C387.742 360.564 385.384 358.261 382.436 358.261H201.333C198.385 358.261 196.027 360.564 196.027 363.443V418.255C196.027 421.133 198.385 423.437 201.215 423.437Z" fill="black" fill-opacity="0.2"/>
<path d="M189.185 218.466H370.407C373.355 218.466 375.713 216.163 375.713 213.285V158.473C375.713 155.594 373.355 153.291 370.407 153.291H189.303C186.356 153.291 183.998 155.594 183.998 158.473V213.285C183.998 216.163 186.356 218.466 189.185 218.466Z" fill="white"/>
<path d="M189.185 316.345H370.407C373.355 316.345 375.713 314.042 375.713 311.163V256.351C375.713 253.472 373.355 251.169 370.407 251.169H189.303C186.356 251.169 183.998 253.472 183.998 256.351V311.163C183.998 314.042 186.356 316.345 189.185 316.345Z" fill="white"/>
<path d="M189.185 414.224H370.407C373.355 414.224 375.713 411.921 375.713 409.042V354.23C375.713 351.351 373.355 349.048 370.407 349.048H189.303C186.356 349.048 183.998 351.351 183.998 354.23V409.042C183.998 411.921 186.356 414.224 189.185 414.224Z" fill="white"/>
<path d="M312.626 191.79C309.394 178.421 317.87 165.025 331.559 161.868C345.247 158.711 358.964 166.99 362.196 180.358C365.429 193.727 356.952 207.123 343.264 210.28C329.575 213.437 315.858 205.159 312.626 191.79Z" fill="url(#paint43_linear)"/>
<path d="M333.74 188.986H341.404V191.519H333.74V188.986Z" fill="#333333"/>
<path d="M352.011 197.389C352.129 197.62 352.247 197.85 352.365 198.08C353.072 199.692 353.662 201.42 354.133 203.147C354.841 205.335 355.548 207.638 355.902 209.941C356.138 211.092 356.256 212.244 356.02 213.51C355.902 214.086 355.784 214.662 355.312 215.123C354.487 215.813 353.19 215.583 352.483 214.892C351.775 214.201 351.539 213.165 351.186 212.129C349.889 208.329 348.946 204.529 347.884 200.614C347.649 199.923 347.531 199.347 347.531 198.656C347.649 196.814 350.243 195.892 351.539 196.929C351.657 197.044 351.893 197.159 352.011 197.389Z" fill="url(#paint44_linear)"/>
<path d="M350.482 193.475C353.312 195.087 354.963 203.608 354.963 203.608L346.827 205.566L347.299 192.208C347.417 192.208 350.365 193.475 350.482 193.475Z" fill="#E0E0E0"/>
<path d="M337.274 190.022C337.274 190.022 337.392 190.022 337.274 190.022C342.462 190.022 347.768 192.44 347.768 192.44C347.768 192.785 347.768 193.131 347.65 193.591C347.414 196.47 347.296 199.234 347.061 202.113C346.943 203.84 346.825 205.567 346.707 207.294C346.589 209.137 346.353 210.749 346.943 212.591C347.061 213.167 347.296 213.743 347.061 214.319C346.825 214.779 346.471 215.01 345.999 215.125C345.174 215.47 344.467 215.816 343.641 216.161C339.633 217.543 335.27 217.082 331.143 216.276C329.846 216.046 328.431 215.7 327.488 214.664C327.37 214.549 327.252 214.319 327.135 214.088C327.017 213.628 327.135 213.052 327.37 212.591C327.488 212.131 327.606 211.67 327.724 211.21C328.078 209.137 327.842 207.064 327.606 204.991C327.488 203.034 327.37 201.076 327.252 199.119C327.135 196.931 326.899 194.743 326.781 192.44C326.781 192.44 332.087 190.022 337.274 190.022Z" fill="#BDBDBD"/>
<path d="M337.51 195.665L334.209 190.253H340.812L337.51 195.665Z" fill="url(#paint45_linear)"/>
<path d="M338.224 194.628L339.521 193.937L341.172 189.216C341.29 189.101 338.224 194.513 338.224 194.628Z" fill="#828282"/>
<path d="M341.29 189.1L339.521 193.936L341.879 195.318L342.115 189.215L341.408 188.985L341.29 189.1Z" fill="#828282"/>
<path d="M336.925 194.626L335.392 194.05L333.859 189.214C333.859 189.099 336.925 194.511 336.925 194.626Z" fill="#828282"/>
<path d="M333.859 189.098L335.392 193.934L333.27 195.316L333.034 189.213L333.741 188.983L333.859 189.098Z" fill="#828282"/>
<path d="M337.513 197.158L336.216 194.164H337.513H338.928L337.513 197.158V197.273V197.158V197.273V197.158Z" fill="url(#paint46_linear)"/>
<path d="M337.513 213.164L335.744 209.479L336.923 196.237L337.513 196.352L338.102 196.237L339.635 209.479L337.513 213.164V213.279V213.164Z" fill="url(#paint47_linear)"/>
<path d="M334.917 186.34H340.104V191.061H334.917V186.34Z" fill="url(#paint48_linear)"/>
<path d="M330.315 177.125C330.315 177.125 330.433 183.919 332.791 186.797H342.459C342.459 186.797 344.346 184.84 344.582 178.622C344.582 178.622 345.053 174.822 342.106 174.361C339.276 174.016 331.612 172.634 330.315 177.125Z" fill="#0A1123"/>
<path d="M337.394 176.547L343.525 177.813C343.525 177.813 342.936 186.334 341.521 187.716C341.167 188.062 338.102 189.213 337.394 189.213C336.805 189.213 333.739 188.062 333.268 187.716C331.853 186.334 331.263 177.813 331.263 177.813L337.394 176.547Z" fill="url(#paint49_linear)"/>
<path d="M332.675 177.239L331.967 182.651L331.023 177.009L332.675 177.239Z" fill="#0A1123"/>
<path d="M329.721 179.888C329.131 181.27 330.074 183.919 332.314 184.379L331.489 179.658C331.135 179.082 330.074 178.967 329.721 179.888Z" fill="url(#paint50_linear)"/>
<path d="M341.519 177.122C341.519 177.122 338.571 181.037 332.44 179.886C332.44 179.886 337.628 179.079 339.043 175.855L341.519 177.122Z" fill="#0A1123"/>
<path d="M340.694 177.124C340.694 177.124 333.03 181.96 328.903 177.124L327.606 175.166C327.606 175.166 329.61 175.627 330.2 174.706C331.143 173.209 331.615 171.712 333.03 170.56C333.855 169.985 334.798 169.754 335.742 169.754C336.685 169.754 337.51 170.1 338.335 170.445C339.279 170.906 339.868 171.597 340.576 172.288C340.576 172.288 342.58 171.597 343.877 172.979C345.174 174.36 344.231 178.966 344.231 178.966L342.58 181.845L340.694 177.124Z" fill="#0A1123"/>
<path d="M345.174 179.887C345.763 181.268 344.82 183.917 342.58 184.377L343.405 179.656C343.759 179.081 344.82 178.965 345.174 179.887Z" fill="url(#paint51_linear)"/>
<path d="M323.25 196.814C323.132 197.044 323.014 197.275 322.897 197.505C322.071 199.117 321.482 200.844 320.892 202.457C320.067 204.644 319.241 206.832 318.77 209.135C318.534 210.287 318.298 211.438 318.416 212.59C318.416 213.166 318.652 213.741 319.006 214.202C319.713 215.008 321.128 214.778 321.835 214.087C322.661 213.396 322.897 212.36 323.25 211.438C324.665 207.753 325.844 203.953 327.141 200.153C327.377 199.463 327.613 198.887 327.613 198.196C327.613 196.354 325.137 195.317 323.722 196.353C323.486 196.469 323.368 196.584 323.25 196.814Z" fill="url(#paint52_linear)"/>
<path d="M325.009 193.015C322.179 194.397 320.057 202.918 320.057 202.918L328.075 205.221L328.311 191.864C328.075 191.979 325.009 193.015 325.009 193.015Z" fill="#E0E0E0"/>
<path d="M337.397 309.438C323.331 309.438 311.929 298.302 311.929 284.565C311.929 270.828 323.331 259.692 337.397 259.692C351.462 259.692 362.864 270.828 362.864 284.565C362.864 298.302 351.462 309.438 337.397 309.438Z" fill="url(#paint53_linear)"/>
<path d="M333.74 287.445H341.404V289.978H333.74V287.445Z" fill="url(#paint54_linear)"/>
<path d="M352.011 295.853C352.129 296.083 352.247 296.313 352.365 296.544C353.072 298.156 353.662 299.883 354.133 301.61C354.841 303.798 355.548 306.101 355.902 308.404C356.138 309.556 356.256 310.707 356.02 311.974C355.902 312.55 355.784 313.125 355.312 313.586C354.487 314.277 353.19 314.047 352.483 313.356C351.775 312.665 351.539 311.628 351.186 310.592C349.889 306.792 348.946 302.992 347.884 299.077C347.649 298.386 347.531 297.81 347.531 297.119C347.649 295.277 350.243 294.356 351.539 295.392C351.657 295.507 351.893 295.738 352.011 295.853Z" fill="#FFC7B6"/>
<path d="M350.482 292.051C353.312 293.663 354.963 302.184 354.963 302.184L346.827 304.142L347.299 290.784C347.417 290.784 350.365 292.051 350.482 292.051Z" fill="url(#paint55_linear)"/>
<path d="M337.274 288.595C337.274 288.595 337.392 288.595 337.274 288.595C342.462 288.595 347.768 291.014 347.768 291.014C347.768 291.359 347.768 291.705 347.65 292.165C347.414 295.044 347.296 297.808 347.061 300.686C346.943 302.414 346.825 304.141 346.707 305.868C346.589 307.711 346.353 309.323 346.943 311.165C347.061 311.741 347.296 312.317 347.061 312.892C346.825 313.353 346.471 313.583 345.999 313.698C345.174 314.044 344.467 314.389 343.641 314.735C339.633 316.117 335.27 315.656 331.143 314.85C329.846 314.62 328.431 314.274 327.488 313.238C327.37 313.123 327.252 312.892 327.135 312.662C327.017 312.201 327.135 311.626 327.37 311.165C327.488 310.704 327.606 310.244 327.724 309.783C328.078 307.711 327.842 305.638 327.606 303.565C327.488 301.608 327.37 299.65 327.252 297.692C327.135 295.505 326.899 293.317 326.781 291.014C326.781 291.014 332.087 288.595 337.274 288.595Z" fill="url(#paint56_linear)"/>
<path d="M337.514 294.239L334.212 288.827H340.815L337.514 294.239Z" fill="url(#paint57_linear)"/>
<path d="M338.224 293.081L339.521 292.39L341.172 287.669C341.29 287.669 338.224 292.966 338.224 293.081Z" fill="url(#paint58_linear)"/>
<path d="M341.29 287.672L339.521 292.393L341.879 293.89L342.115 287.787L341.408 287.442L341.29 287.672Z" fill="url(#paint59_linear)"/>
<path d="M336.925 293.083L335.392 292.507L333.859 287.671C333.859 287.671 336.925 292.968 336.925 293.083Z" fill="url(#paint60_linear)"/>
<path d="M333.859 287.672L335.392 292.508L333.27 293.89L333.034 287.787L333.741 287.441L333.859 287.672Z" fill="url(#paint61_linear)"/>
<path d="M334.917 284.909H340.104V289.63H334.917V284.909Z" fill="url(#paint62_linear)"/>
<path d="M330.315 275.584C330.315 275.584 330.433 282.378 332.791 285.257H342.459C342.459 285.257 344.346 283.299 344.582 277.081C344.582 277.081 345.053 273.281 342.106 272.82C339.276 272.475 331.612 271.093 330.315 275.584Z" fill="#0A1123"/>
<path d="M337.394 275.007L343.525 276.274C343.525 276.274 342.936 284.795 341.521 286.177C341.167 286.522 338.102 287.674 337.394 287.674C336.805 287.674 333.739 286.522 333.268 286.177C331.853 284.795 331.263 276.274 331.263 276.274L337.394 275.007Z" fill="url(#paint63_linear)"/>
<path d="M332.675 275.813L331.967 281.225L331.023 275.582L332.675 275.813Z" fill="#0A1123"/>
<path d="M329.721 278.462C329.131 279.843 330.074 282.492 332.314 282.952L331.489 278.231C331.135 277.655 330.074 277.54 329.721 278.462Z" fill="url(#paint64_linear)"/>
<path d="M340.694 275.583C340.694 275.583 333.03 280.419 328.903 275.583C328.903 275.583 329.61 274.086 330.2 273.28C331.143 271.783 331.615 270.286 333.03 269.134C333.855 268.559 334.798 268.328 335.742 268.328C336.685 268.328 337.51 268.674 338.335 269.019C339.279 269.48 339.868 270.171 340.576 270.862C340.576 270.862 342.58 270.171 343.877 271.553C345.174 272.934 344.231 277.54 344.231 277.54L342.58 280.419L340.694 275.583Z" fill="#0A1123"/>
<path d="M345.174 278.348C345.763 279.729 344.82 282.378 342.58 282.838L343.405 278.117C343.759 277.541 344.82 277.426 345.174 278.348Z" fill="url(#paint65_linear)"/>
<path d="M323.247 295.27C323.129 295.5 323.012 295.73 322.894 295.961C322.068 297.573 321.479 299.3 320.889 300.912C320.064 303.1 319.239 305.288 318.767 307.591C318.531 308.742 318.295 309.894 318.413 311.045C318.413 311.621 318.649 312.197 319.003 312.657C319.71 313.464 321.125 313.233 321.832 312.542C322.658 311.851 322.894 310.815 323.247 309.894C324.662 306.209 325.841 302.409 327.138 298.609C327.374 297.918 327.61 297.342 327.61 296.651C327.61 294.809 325.134 293.773 323.719 294.809C323.483 294.924 323.365 295.155 323.247 295.27Z" fill="#FFC7B6"/>
<path d="M325.009 291.586C322.179 292.967 320.057 301.489 320.057 301.489L328.075 303.792L328.311 290.434C328.075 290.434 325.009 291.47 325.009 291.586Z" fill="url(#paint66_linear)"/>
<path d="M342.94 274.777C342.94 274.777 341.643 279.844 335.041 278.807C328.32 277.771 324.429 273.395 326.669 272.359C328.91 271.323 330.324 273.28 331.857 272.359C333.508 271.438 342.94 274.777 342.94 274.777Z" fill="#0A1123"/>
<path d="M337.397 406.51C323.331 406.51 311.929 395.374 311.929 381.637C311.929 367.901 323.331 356.765 337.397 356.765C351.462 356.765 362.864 367.901 362.864 381.637C362.864 395.374 351.462 406.51 337.397 406.51Z" fill="url(#paint67_linear)"/>
<path d="M333.74 384.511H341.404V387.044H333.74V384.511Z" fill="#BDBDBD"/>
<path d="M352.011 392.918C352.129 393.148 352.247 393.378 352.365 393.609C353.072 395.221 353.662 396.948 354.133 398.675C354.841 400.863 355.548 403.166 355.902 405.469C356.138 406.621 356.256 407.772 356.02 409.039C355.902 409.615 355.784 410.19 355.312 410.651C354.487 411.342 353.19 411.111 352.483 410.421C351.775 409.73 351.539 408.693 351.186 407.657C349.889 403.857 348.946 400.057 347.884 396.142C347.649 395.451 347.531 394.875 347.531 394.184C347.649 392.342 350.243 391.421 351.539 392.457C351.657 392.572 351.893 392.802 352.011 392.918Z" fill="#FFC7B6"/>
<path d="M350.482 389.117C353.312 390.73 354.963 399.251 354.963 399.251L346.827 401.208L347.299 387.851C347.417 387.851 350.365 389.117 350.482 389.117Z" fill="url(#paint68_linear)"/>
<path d="M337.274 385.663C337.274 385.663 337.392 385.663 337.274 385.663C342.462 385.663 347.768 388.081 347.768 388.081C347.768 388.426 347.768 388.772 347.65 389.233C347.414 392.111 347.296 394.875 347.061 397.754C346.943 399.481 346.825 401.208 346.707 402.936C346.589 404.778 346.353 406.39 346.943 408.232C347.061 408.808 347.296 409.384 347.061 409.96C346.825 410.42 346.471 410.651 345.999 410.766C345.174 411.111 344.467 411.457 343.641 411.802C339.633 413.184 335.27 412.723 331.143 411.917C329.846 411.687 328.431 411.342 327.488 410.305C327.37 410.19 327.252 409.96 327.135 409.729C327.017 409.269 327.135 408.693 327.37 408.232C327.488 407.772 327.606 407.311 327.724 406.851C328.078 404.778 327.842 402.705 327.606 400.632C327.488 398.675 327.37 396.717 327.252 394.76C327.135 392.572 326.899 390.384 326.781 388.081C326.781 388.081 332.087 385.663 337.274 385.663Z" fill="url(#paint69_linear)"/>
<path d="M337.51 391.304L334.209 385.892H340.812L337.51 391.304Z" fill="url(#paint70_linear)"/>
<path d="M338.224 390.154L339.521 389.463L341.172 384.742C341.29 384.742 338.224 390.154 338.224 390.154Z" fill="white"/>
<path d="M341.29 384.74L339.521 389.461L341.879 390.958L342.115 384.855L341.408 384.509L341.29 384.74Z" fill="white"/>
<path d="M336.925 390.155L335.392 389.579L333.859 384.743L336.925 390.155Z" fill="white"/>
<path d="M333.859 384.741L335.392 389.577L333.27 390.959L333.034 384.856L333.741 384.51L333.859 384.741Z" fill="white"/>
<path d="M334.917 381.979H340.104V386.7H334.917V381.979Z" fill="url(#paint71_linear)"/>
<path d="M337.398 372.191L343.529 373.457C343.529 373.457 342.94 381.978 341.525 383.36C341.171 383.706 338.106 384.857 337.398 384.857C336.809 384.857 333.743 383.706 333.271 383.36C331.857 381.978 331.267 373.457 331.267 373.457L337.398 372.191Z" fill="url(#paint72_linear)"/>
<path d="M332.678 372.88L331.97 378.292L331.026 372.65L332.678 372.88Z" fill="#0A1123"/>
<path d="M329.73 375.527C329.141 376.909 330.084 379.558 332.324 380.018L331.499 375.297C331.145 374.721 330.084 374.606 329.73 375.527Z" fill="url(#paint73_linear)"/>
<path d="M340.694 372.65C340.694 372.65 333.03 377.486 328.903 372.65C328.903 372.65 329.61 371.153 330.2 370.347C331.143 368.85 331.615 367.353 333.03 366.201C333.855 365.625 334.798 365.395 335.742 365.395C336.685 365.395 337.51 365.74 338.335 366.086C339.279 366.547 339.868 367.237 340.576 367.928C340.576 367.928 342.58 367.237 343.877 368.619C345.174 370.001 344.231 374.607 344.231 374.607L342.58 377.486L340.694 372.65Z" fill="#0A1123"/>
<path d="M345.174 375.411C345.763 376.793 344.82 379.441 342.58 379.902L343.405 375.181C343.759 374.605 344.82 374.49 345.174 375.411Z" fill="url(#paint74_linear)"/>
<path d="M323.25 392.342C323.132 392.572 323.014 392.803 322.897 393.033C322.071 394.645 321.482 396.372 320.892 397.985C320.067 400.172 319.241 402.36 318.77 404.663C318.534 405.815 318.298 406.966 318.416 408.118C318.416 408.694 318.652 409.269 319.006 409.73C319.713 410.536 321.128 410.306 321.835 409.615C322.661 408.924 322.897 407.888 323.25 406.966C324.665 403.282 325.844 399.482 327.141 395.682C327.377 394.991 327.613 394.415 327.613 393.724C327.613 391.882 325.137 390.845 323.722 391.882C323.486 391.997 323.368 392.227 323.25 392.342Z" fill="#FFC7B6"/>
<path d="M325.009 388.658C322.179 390.04 320.057 398.561 320.057 398.561L328.075 400.864L328.311 387.506C328.075 387.506 325.009 388.543 325.009 388.658Z" fill="url(#paint75_linear)"/>
<path d="M205.698 170.793H262.41C263.354 170.793 264.061 170.102 264.061 169.18V164.114C264.061 163.193 263.354 162.502 262.41 162.502H205.698C204.754 162.502 204.047 163.193 204.047 164.114V169.18C204.047 170.102 204.872 170.793 205.698 170.793Z" fill="url(#paint76_linear)"/>
<path d="M205.698 268.093H262.411C263.354 268.093 264.062 267.402 264.062 266.481V261.414C264.062 260.493 263.354 259.802 262.411 259.802H205.698C204.755 259.802 204.047 260.493 204.047 261.414V266.481C204.047 267.402 204.873 268.093 205.698 268.093Z" fill="url(#paint77_linear)"/>
<path d="M205.698 365.398H262.411C263.354 365.398 264.062 364.707 264.062 363.786V358.719C264.062 357.798 263.354 357.107 262.411 357.107H205.698C204.755 357.107 204.047 357.798 204.047 358.719V363.786C204.047 364.707 204.873 365.398 205.698 365.398Z" fill="url(#paint78_linear)"/>
<path d="M204.05 176.665H299.2V180.81H204.05V176.665Z" fill="black" fill-opacity="0.2"/>
<path d="M204.05 185.648H299.2V189.794H204.05V185.648Z" fill="black" fill-opacity="0.2"/>
<path d="M204.05 194.746H299.2V198.892H204.05V194.746Z" fill="black" fill-opacity="0.2"/>
<path d="M204.05 203.726H299.2V207.872H204.05V203.726Z" fill="black" fill-opacity="0.2"/>
<path d="M204.049 273.969H299.2V278.114H204.049V273.969Z" fill="black" fill-opacity="0.2"/>
<path d="M204.049 282.952H299.2V287.097H204.049V282.952Z" fill="black" fill-opacity="0.2"/>
<path d="M204.049 292.048H299.2V296.194H204.049V292.048Z" fill="black" fill-opacity="0.2"/>
<path d="M204.049 301.028H299.2V305.174H204.049V301.028Z" fill="black" fill-opacity="0.2"/>
<path d="M204.049 371.271H299.2V375.416H204.049V371.271Z" fill="black" fill-opacity="0.2"/>
<path d="M204.049 380.254H299.2V384.4H204.049V380.254Z" fill="black" fill-opacity="0.2"/>
<path d="M204.049 389.239H299.2V393.384H204.049V389.239Z" fill="black" fill-opacity="0.2"/>
<path d="M204.049 398.332H299.2V402.478H204.049V398.332Z" fill="black" fill-opacity="0.2"/>
<path fill-rule="evenodd" clip-rule="evenodd" d="M455.063 182.541C464.731 182.311 474.636 182.196 484.186 184.268C484.186 184.268 489.02 190.371 483.243 197.626C483.098 197.688 482.954 197.75 482.81 197.812C482.514 211.199 481.472 245.531 481.472 245.531L473.101 246.567C473.101 246.567 467.042 222.818 468.573 203.337C468.314 203.43 468.056 203.522 467.797 203.614C466.938 203.918 466.032 204.246 465.087 204.589C452.798 209.044 433.857 215.91 424.879 203.614C424.054 202.462 423.464 201.196 423.111 199.814C420.517 189.105 430.657 183.462 439.735 182.541C442.651 182.263 445.866 182.362 449.019 182.46C451.095 182.524 453.144 182.587 455.063 182.541Z" fill="url(#paint79_linear)"/>
<path fill-rule="evenodd" clip-rule="evenodd" d="M479.172 171.03C479.193 171.028 479.214 171.026 479.236 171.024C479.236 171.024 479.237 171.025 479.239 171.027C479.268 171.009 481.146 169.916 483.837 175.057C486.431 180.239 506.357 222.73 506.357 222.73L499.4 227.336C499.4 227.336 482.677 208.071 475.342 189.687C473.307 191.234 471.26 192.76 469.214 194.285C468.49 194.815 467.73 195.38 466.936 195.97C456.348 203.84 439.87 216.089 427.037 206.983C425.858 206.177 424.763 204.994 424.056 203.842C418.042 194.285 426.178 185.994 434.903 182.424C437.733 181.291 441.009 180.418 444.21 179.566C446.21 179.034 448.181 178.509 449.995 177.933C459.075 174.941 468.482 172.055 478.112 171.124C478.446 171.078 478.8 171.046 479.172 171.03Z" fill="url(#paint80_linear)"/>
<defs>
<linearGradient id="paint0_linear" x1="480.867" y1="146.927" x2="469.083" y2="146.927" gradientUnits="userSpaceOnUse">
<stop stop-color="#FFD1C1"/>
<stop offset="0.2242" stop-color="#FFCDBC"/>
<stop offset="0.4972" stop-color="#FFC0AD"/>
<stop offset="0.7945" stop-color="#FFAC94"/>
<stop offset="1" stop-color="#FF9A7F"/>
</linearGradient>
<linearGradient id="paint1_linear" x1="476.055" y1="147.769" x2="476.055" y2="128.08" gradientUnits="userSpaceOnUse">
<stop stop-color="#A92E35"/>
<stop offset="1" stop-color="#D2313B"/>
</linearGradient>
<linearGradient id="paint2_linear" x1="470.92" y1="147.767" x2="470.92" y2="127.272" gradientUnits="userSpaceOnUse">
<stop stop-color="#A92E35"/>
<stop offset="1" stop-color="#D2313B"/>
</linearGradient>
<linearGradient id="paint3_linear" x1="477.764" y1="128.419" x2="477.764" y2="127.267" gradientUnits="userSpaceOnUse">
<stop stop-color="#A92E35"/>
<stop offset="1" stop-color="#D2313B"/>
</linearGradient>
<linearGradient id="paint4_linear" x1="480.596" y1="143.452" x2="475.686" y2="143.452" gradientUnits="userSpaceOnUse">
<stop stop-color="#FFD1C1"/>
<stop offset="0.2242" stop-color="#FFCDBC"/>
<stop offset="0.4972" stop-color="#FFC0AD"/>
<stop offset="0.7945" stop-color="#FFAC94"/>
<stop offset="1" stop-color="#FF9A7F"/>
</linearGradient>
<linearGradient id="paint5_linear" x1="533.866" y1="233.676" x2="497.29" y2="233.676" gradientUnits="userSpaceOnUse">
<stop stop-color="#FFD1C1"/>
<stop offset="0.2837" stop-color="#FFC5B3"/>
<stop offset="0.8217" stop-color="#FFA68D"/>
<stop offset="1" stop-color="#FF9A7F"/>
</linearGradient>
<linearGradient id="paint6_linear" x1="496.429" y1="258.928" x2="468.045" y2="258.928" gradientUnits="userSpaceOnUse">
<stop stop-color="#FFD1C1"/>
<stop offset="0.2837" stop-color="#FFC5B3"/>
<stop offset="0.8217" stop-color="#FFA68D"/>
<stop offset="1" stop-color="#FF9A7F"/>
</linearGradient>
<linearGradient id="paint7_linear" x1="418.175" y1="206.39" x2="400.322" y2="206.39" gradientUnits="userSpaceOnUse">
<stop stop-color="#FFD1C1"/>
<stop offset="0.2242" stop-color="#FFCDBC"/>
<stop offset="0.4972" stop-color="#FFC0AD"/>
<stop offset="0.7945" stop-color="#FFAC94"/>
<stop offset="1" stop-color="#FF9A7F"/>
</linearGradient>
<linearGradient id="paint8_linear" x1="438.179" y1="143.515" x2="438.179" y2="195.051" gradientUnits="userSpaceOnUse">
<stop stop-color="#FFD1C1"/>
<stop offset="0.2187" stop-color="#FFCCBA"/>
<stop offset="0.5267" stop-color="#FFBCA8"/>
<stop offset="0.8863" stop-color="#FFA38A"/>
<stop offset="1" stop-color="#FF9A7F"/>
</linearGradient>
<linearGradient id="paint9_linear" x1="439.925" y1="149.079" x2="439.925" y2="134.028" gradientUnits="userSpaceOnUse">
<stop stop-color="#FFD1C1"/>
<stop offset="0.2187" stop-color="#FFCCBA"/>
<stop offset="0.5267" stop-color="#FFBCA8"/>
<stop offset="0.8863" stop-color="#FFA38A"/>
<stop offset="1" stop-color="#FF9A7F"/>
</linearGradient>
<linearGradient id="paint10_linear" x1="455.021" y1="129.727" x2="436.72" y2="129.727" gradientUnits="userSpaceOnUse">
<stop stop-color="#FFD1C1"/>
<stop offset="0.2242" stop-color="#FFCDBC"/>
<stop offset="0.4972" stop-color="#FFC0AD"/>
<stop offset="0.7945" stop-color="#FFAC94"/>
<stop offset="1" stop-color="#FF9A7F"/>
</linearGradient>
<linearGradient id="paint11_linear" x1="436.641" y1="126.922" x2="436.641" y2="133.49" gradientUnits="userSpaceOnUse">
<stop stop-color="#FFD1C1"/>
<stop offset="0.2242" stop-color="#FFCDBC"/>
<stop offset="0.4972" stop-color="#FFC0AD"/>
<stop offset="0.7945" stop-color="#FFAC94"/>
<stop offset="1" stop-color="#FF9A7F"/>
</linearGradient>
<linearGradient id="paint12_linear" x1="438.176" y1="195.098" x2="438.176" y2="143.399" gradientUnits="userSpaceOnUse">
<stop stop-color="#A92E35"/>
<stop offset="1" stop-color="#D2313B"/>
</linearGradient>
<linearGradient id="paint13_linear" x1="445.623" y1="152.719" x2="445.623" y2="144.084" gradientUnits="userSpaceOnUse">
<stop stop-color="#A92E35"/>
<stop offset="1" stop-color="#D2313B"/>
</linearGradient>
<linearGradient id="paint14_linear" x1="448.283" y1="151.335" x2="448.283" y2="143.39" gradientUnits="userSpaceOnUse">
<stop stop-color="white"/>
<stop offset="1" stop-color="#D2313B"/>
</linearGradient>
<linearGradient id="paint15_linear" x1="438.438" y1="153.178" x2="438.438" y2="141.663" gradientUnits="userSpaceOnUse">
<stop stop-color="#FFF9F9"/>
<stop offset="1" stop-color="#D2313B"/>
</linearGradient>
<linearGradient id="paint16_linear" x1="442.924" y1="152.715" x2="442.924" y2="149.491" gradientUnits="userSpaceOnUse">
<stop stop-color="#A92E35"/>
<stop offset="1" stop-color="#D2313B"/>
</linearGradient>
<linearGradient id="paint17_linear" x1="155.475" y1="155.482" x2="155.475" y2="134.526" gradientUnits="userSpaceOnUse">
<stop stop-color="#A92E35"/>
<stop offset="1" stop-color="#D2313B"/>
</linearGradient>
<linearGradient id="paint18_linear" x1="126.821" y1="193.595" x2="126.821" y2="181.851" gradientUnits="userSpaceOnUse">
<stop stop-color="#A92E35"/>
<stop offset="1" stop-color="#D2313B"/>
</linearGradient>
<linearGradient id="paint19_linear" x1="511.189" y1="292.857" x2="511.189" y2="281.112" gradientUnits="userSpaceOnUse">
<stop stop-color="#A92E35"/>
<stop offset="1" stop-color="#D2313B"/>
</linearGradient>
<linearGradient id="paint20_linear" x1="375.602" y1="145.233" x2="375.602" y2="133.488" gradientUnits="userSpaceOnUse">
<stop stop-color="#A92E35"/>
<stop offset="1" stop-color="#D2313B"/>
</linearGradient>
<linearGradient id="paint21_linear" x1="580.76" y1="336.039" x2="580.76" y2="315.083" gradientUnits="userSpaceOnUse">
<stop stop-color="#A92E35"/>
<stop offset="1" stop-color="#D2313B"/>
</linearGradient>
<linearGradient id="paint22_linear" x1="470.856" y1="417.332" x2="432.207" y2="409.304" gradientUnits="userSpaceOnUse">
<stop stop-color="#FFD1C1"/>
<stop offset="0.3861" stop-color="#FFCFBF"/>
<stop offset="0.5877" stop-color="#FFC9B7"/>
<stop offset="0.7467" stop-color="#FFBDA9"/>
<stop offset="0.8825" stop-color="#FFAE97"/>
<stop offset="1" stop-color="#FF9A7F"/>
</linearGradient>
<linearGradient id="paint23_linear" x1="462.355" y1="395.766" x2="441.027" y2="393.936" gradientUnits="userSpaceOnUse">
<stop stop-color="#FFD1C1"/>
<stop offset="0.3861" stop-color="#FFCFBF"/>
<stop offset="0.5877" stop-color="#FFC9B7"/>
<stop offset="0.7467" stop-color="#FFBDA9"/>
<stop offset="0.8825" stop-color="#FFAE97"/>
<stop offset="1" stop-color="#FF9A7F"/>
</linearGradient>
<linearGradient id="paint24_linear" x1="465.971" y1="421.476" x2="449.849" y2="413.125" gradientUnits="userSpaceOnUse">
<stop stop-color="#FFD1C1"/>
<stop offset="0.0428565" stop-color="#FFCCBB"/>
<stop offset="0.2701" stop-color="#FFB6A1"/>
<stop offset="0.503" stop-color="#FFA68E"/>
<stop offset="0.7427" stop-color="#FF9D83"/>
<stop offset="1" stop-color="#FF9A7F"/>
</linearGradient>
<linearGradient id="paint25_linear" x1="465.936" y1="374.862" x2="454.833" y2="365.447" gradientUnits="userSpaceOnUse">
<stop stop-color="#FFD1C1"/>
<stop offset="0.3861" stop-color="#FFCFBF"/>
<stop offset="0.5877" stop-color="#FFC9B7"/>
<stop offset="0.7467" stop-color="#FFBDA9"/>
<stop offset="0.8825" stop-color="#FFAE97"/>
<stop offset="1" stop-color="#FF9A7F"/>
</linearGradient>
<linearGradient id="paint26_linear" x1="469.784" y1="364.73" x2="452.226" y2="355.574" gradientUnits="userSpaceOnUse">
<stop stop-color="#99A7AE"/>
<stop offset="1" stop-color="#42415F"/>
</linearGradient>
<linearGradient id="paint27_linear" x1="560.089" y1="432.506" x2="556.483" y2="402.663" gradientUnits="userSpaceOnUse">
<stop stop-color="#FFD1C1"/>
<stop offset="0.3861" stop-color="#FFCFBF"/>
<stop offset="0.5877" stop-color="#FFC9B7"/>
<stop offset="0.7467" stop-color="#FFBDA9"/>
<stop offset="0.8825" stop-color="#FFAE97"/>
<stop offset="1" stop-color="#FF9A7F"/>
</linearGradient>
<linearGradient id="paint28_linear" x1="579.57" y1="423.364" x2="538.944" y2="428.512" gradientUnits="userSpaceOnUse">
<stop stop-color="#071786"/>
<stop offset="0.1509" stop-color="#05136B"/>
<stop offset="0.3236" stop-color="#041055"/>
<stop offset="0.5107" stop-color="#030E45"/>
<stop offset="0.7204" stop-color="#020C3B"/>
<stop offset="1" stop-color="#020C38"/>
</linearGradient>
<linearGradient id="paint29_linear" x1="483.14" y1="345.64" x2="497.385" y2="338.628" gradientUnits="userSpaceOnUse">
<stop stop-color="#FFD1C1"/>
<stop offset="0.3861" stop-color="#FFCFBF"/>
<stop offset="0.5877" stop-color="#FFC9B7"/>
<stop offset="0.7467" stop-color="#FFBDA9"/>
<stop offset="0.8825" stop-color="#FFAE97"/>
<stop offset="1" stop-color="#FF9A7F"/>
</linearGradient>
<linearGradient id="paint30_linear" x1="485.632" y1="336.545" x2="511.913" y2="323.608" gradientUnits="userSpaceOnUse">
<stop stop-color="#FFD1C1"/>
<stop offset="0.3861" stop-color="#FFCFBF"/>
<stop offset="0.5877" stop-color="#FFC9B7"/>
<stop offset="0.7467" stop-color="#FFBDA9"/>
<stop offset="0.8825" stop-color="#FFAE97"/>
<stop offset="1" stop-color="#FF9A7F"/>
</linearGradient>
<linearGradient id="paint31_linear" x1="493.853" y1="334.388" x2="500.739" y2="330.998" gradientUnits="userSpaceOnUse">
<stop stop-color="#FFD1C1"/>
<stop offset="0.3861" stop-color="#FFCFBF"/>
<stop offset="0.5877" stop-color="#FFC9B7"/>
<stop offset="0.7467" stop-color="#FFBDA9"/>
<stop offset="0.8825" stop-color="#FFAE97"/>
<stop offset="1" stop-color="#FF9A7F"/>
</linearGradient>
<linearGradient id="paint32_linear" x1="612.545" y1="417.872" x2="579.8" y2="419.957" gradientUnits="userSpaceOnUse">
<stop stop-color="#FFD1C1"/>
<stop offset="0.3861" stop-color="#FFCFBF"/>
<stop offset="0.5877" stop-color="#FFC9B7"/>
<stop offset="0.7467" stop-color="#FFBDA9"/>
<stop offset="0.8825" stop-color="#FFAE97"/>
<stop offset="1" stop-color="#FF9A7F"/>
</linearGradient>
<linearGradient id="paint33_linear" x1="486.717" y1="389.506" x2="449.176" y2="376.129" gradientUnits="userSpaceOnUse">
<stop stop-color="#99A7AE"/>
<stop offset="1" stop-color="#42415F"/>
</linearGradient>
<linearGradient id="paint34_linear" x1="521.348" y1="364.171" x2="518.185" y2="407.007" gradientUnits="userSpaceOnUse">
<stop stop-color="#FFD1C1"/>
<stop offset="0.3861" stop-color="#FFCFBF"/>
<stop offset="0.5877" stop-color="#FFC9B7"/>
<stop offset="0.7467" stop-color="#FFBDA9"/>
<stop offset="0.8825" stop-color="#FFAE97"/>
<stop offset="1" stop-color="#FF9A7F"/>
</linearGradient>
<linearGradient id="paint35_linear" x1="539.022" y1="376.174" x2="539.022" y2="350.62" gradientUnits="userSpaceOnUse">
<stop stop-color="#A92E35"/>
<stop offset="1" stop-color="#D2313B"/>
</linearGradient>
<linearGradient id="paint36_linear" x1="549.993" y1="363.333" x2="529.867" y2="361.775" gradientUnits="userSpaceOnUse">
<stop offset="0.0456989" stop-color="#F8F2FA"/>
<stop offset="0.2204" stop-color="#F4F1FA"/>
<stop offset="0.3885" stop-color="#E9ECFA"/>
<stop offset="0.554" stop-color="#D5E5FB"/>
<stop offset="0.7179" stop-color="#BADAFC"/>
<stop offset="0.8791" stop-color="#97CDFD"/>
<stop offset="1" stop-color="#78C1FE"/>
</linearGradient>
<linearGradient id="paint37_linear" x1="528.586" y1="378.473" x2="537.324" y2="365.369" gradientUnits="userSpaceOnUse">
<stop stop-color="#FFD1C1"/>
<stop offset="0.3861" stop-color="#FFCFBF"/>
<stop offset="0.5877" stop-color="#FFC9B7"/>
<stop offset="0.7467" stop-color="#FFBDA9"/>
<stop offset="0.8825" stop-color="#FFAE97"/>
<stop offset="1" stop-color="#FF9A7F"/>
</linearGradient>
<linearGradient id="paint38_linear" x1="501.129" y1="363.247" x2="498.021" y2="405.367" gradientUnits="userSpaceOnUse">
<stop stop-color="#FFD1C1"/>
<stop offset="0.3861" stop-color="#FFCFBF"/>
<stop offset="0.5877" stop-color="#FFC9B7"/>
<stop offset="0.7467" stop-color="#FFBDA9"/>
<stop offset="0.8825" stop-color="#FFAE97"/>
<stop offset="1" stop-color="#FF9A7F"/>
</linearGradient>
<linearGradient id="paint39_linear" x1="499.649" y1="368.499" x2="485.176" y2="362.06" gradientUnits="userSpaceOnUse">
<stop stop-color="#99A7AE"/>
<stop offset="1" stop-color="#42415F"/>
</linearGradient>
<linearGradient id="paint40_linear" x1="605.665" y1="422.136" x2="592.411" y2="419.494" gradientUnits="userSpaceOnUse">
<stop stop-color="#99A7AE"/>
<stop offset="1" stop-color="#42415F"/>
</linearGradient>
<linearGradient id="paint41_linear" x1="272.254" y1="435.675" x2="272.254" y2="209.765" gradientUnits="userSpaceOnUse">
<stop stop-color="#A92E35"/>
<stop offset="1" stop-color="#D2313B"/>
</linearGradient>
<linearGradient id="paint42_linear" x1="188.219" y1="464.659" x2="346.765" y2="172.16" gradientUnits="userSpaceOnUse">
<stop stop-color="#052743"/>
<stop offset="1" stop-color="#949EB7"/>
</linearGradient>
<linearGradient id="paint43_linear" x1="297.99" y1="182.11" x2="359.283" y2="219.105" gradientUnits="userSpaceOnUse">
<stop stop-color="#052743"/>
<stop offset="1" stop-color="#949EB7"/>
</linearGradient>
<linearGradient id="paint44_linear" x1="353.389" y1="196.9" x2="350.264" y2="214.809" gradientUnits="userSpaceOnUse">
<stop stop-color="#FFD1C1"/>
<stop offset="0.2863" stop-color="#FFCEBE"/>
<stop offset="0.5141" stop-color="#FFC6B4"/>
<stop offset="0.7217" stop-color="#FFB8A3"/>
<stop offset="0.9163" stop-color="#FFA58C"/>
<stop offset="1" stop-color="#FF9A7F"/>
</linearGradient>
<linearGradient id="paint45_linear" x1="337.663" y1="194.271" x2="337.51" y2="188.894" gradientUnits="userSpaceOnUse">
<stop stop-color="#FFD1C1"/>
<stop offset="0.3" stop-color="#FFC4B1"/>
<stop offset="0.8819" stop-color="#FFA288"/>
<stop offset="1" stop-color="#FF9A7F"/>
</linearGradient>
<linearGradient id="paint46_linear" x1="337.573" y1="197.274" x2="337.573" y2="194.165" gradientUnits="userSpaceOnUse">
<stop stop-color="#A92E35"/>
<stop offset="1" stop-color="#D2313B"/>
</linearGradient>
<linearGradient id="paint47_linear" x1="337.691" y1="213.282" x2="337.691" y2="196.241" gradientUnits="userSpaceOnUse">
<stop stop-color="#A92E35"/>
<stop offset="1" stop-color="#D2313B"/>
</linearGradient>
<linearGradient id="paint48_linear" x1="337.729" y1="194.27" x2="337.576" y2="188.894" gradientUnits="userSpaceOnUse">
<stop stop-color="#FFD1C1"/>
<stop offset="0.3" stop-color="#FFC4B1"/>
<stop offset="0.8819" stop-color="#FFA288"/>
<stop offset="1" stop-color="#FF9A7F"/>
</linearGradient>
<linearGradient id="paint49_linear" x1="343.576" y1="182.858" x2="331.302" y2="182.858" gradientUnits="userSpaceOnUse">
<stop stop-color="#FFD1C1"/>
<stop offset="0.3189" stop-color="#FFCFBE"/>
<stop offset="0.5371" stop-color="#FFC7B5"/>
<stop offset="0.7252" stop-color="#FFBAA6"/>
<stop offset="0.8952" stop-color="#FFA990"/>
<stop offset="1" stop-color="#FF9A7F"/>
</linearGradient>
<linearGradient id="paint50_linear" x1="330.882" y1="184.392" x2="330.882" y2="179.242" gradientUnits="userSpaceOnUse">
<stop stop-color="#FFD1C1"/>
<stop offset="0.4889" stop-color="#FFCFBF"/>
<stop offset="0.665" stop-color="#FFCAB8"/>
<stop offset="0.7905" stop-color="#FFC0AD"/>
<stop offset="0.892" stop-color="#FFB29C"/>
<stop offset="0.9779" stop-color="#FFA086"/>
<stop offset="1" stop-color="#FF9A7F"/>
</linearGradient>
<linearGradient id="paint51_linear" x1="343.984" y1="184.345" x2="343.984" y2="179.195" gradientUnits="userSpaceOnUse">
<stop stop-color="#FFD1C1"/>
<stop offset="0.4889" stop-color="#FFCFBF"/>
<stop offset="0.665" stop-color="#FFCAB8"/>
<stop offset="0.7905" stop-color="#FFC0AD"/>
<stop offset="0.892" stop-color="#FFB29C"/>
<stop offset="0.9779" stop-color="#FFA086"/>
<stop offset="1" stop-color="#FF9A7F"/>
</linearGradient>
<linearGradient id="paint52_linear" x1="321.829" y1="196.247" x2="324.009" y2="214.289" gradientUnits="userSpaceOnUse">
<stop stop-color="#FFD1C1"/>
<stop offset="0.2863" stop-color="#FFCEBE"/>
<stop offset="0.5141" stop-color="#FFC6B4"/>
<stop offset="0.7217" stop-color="#FFB8A3"/>
<stop offset="0.9163" stop-color="#FFA58C"/>
<stop offset="1" stop-color="#FF9A7F"/>
</linearGradient>
<linearGradient id="paint53_linear" x1="324.387" y1="321.125" x2="373.026" y2="269.198" gradientUnits="userSpaceOnUse">
<stop stop-color="#052743"/>
<stop offset="1" stop-color="#949EB7"/>
</linearGradient>
<linearGradient id="paint54_linear" x1="337.575" y1="289.979" x2="337.575" y2="287.446" gradientUnits="userSpaceOnUse">
<stop stop-color="#A92E35"/>
<stop offset="1" stop-color="#D2313B"/>
</linearGradient>
<linearGradient id="paint55_linear" x1="350.898" y1="304.144" x2="350.898" y2="290.787" gradientUnits="userSpaceOnUse">
<stop stop-color="#A92E35"/>
<stop offset="1" stop-color="#D2313B"/>
</linearGradient>
<linearGradient id="paint56_linear" x1="337.281" y1="315.622" x2="337.281" y2="288.601" gradientUnits="userSpaceOnUse">
<stop stop-color="#A92E35"/>
<stop offset="1" stop-color="#D2313B"/>
</linearGradient>
<linearGradient id="paint57_linear" x1="337.666" y1="292.792" x2="337.513" y2="287.415" gradientUnits="userSpaceOnUse">
<stop stop-color="#FFD1C1"/>
<stop offset="0.3" stop-color="#FFC4B1"/>
<stop offset="0.8819" stop-color="#FFA288"/>
<stop offset="1" stop-color="#FF9A7F"/>
</linearGradient>
<linearGradient id="paint58_linear" x1="339.701" y1="293.082" x2="339.701" y2="287.67" gradientUnits="userSpaceOnUse">
<stop stop-color="#A92E35"/>
<stop offset="1" stop-color="#D2313B"/>
</linearGradient>
<linearGradient id="paint59_linear" x1="340.819" y1="293.891" x2="340.819" y2="287.443" gradientUnits="userSpaceOnUse">
<stop stop-color="#A92E35"/>
<stop offset="1" stop-color="#D2313B"/>
</linearGradient>
<linearGradient id="paint60_linear" x1="335.393" y1="293.084" x2="335.393" y2="287.672" gradientUnits="userSpaceOnUse">
<stop stop-color="#A92E35"/>
<stop offset="1" stop-color="#D2313B"/>
</linearGradient>
<linearGradient id="paint61_linear" x1="334.214" y1="293.891" x2="334.214" y2="287.443" gradientUnits="userSpaceOnUse">
<stop stop-color="#A92E35"/>
<stop offset="1" stop-color="#D2313B"/>
</linearGradient>
<linearGradient id="paint62_linear" x1="337.729" y1="292.787" x2="337.576" y2="287.41" gradientUnits="userSpaceOnUse">
<stop stop-color="#FFD1C1"/>
<stop offset="0.3" stop-color="#FFC4B1"/>
<stop offset="0.8819" stop-color="#FFA288"/>
<stop offset="1" stop-color="#FF9A7F"/>
</linearGradient>
<linearGradient id="paint63_linear" x1="343.576" y1="281.381" x2="331.302" y2="281.381" gradientUnits="userSpaceOnUse">
<stop stop-color="#FFD1C1"/>
<stop offset="0.3189" stop-color="#FFCFBE"/>
<stop offset="0.5371" stop-color="#FFC7B5"/>
<stop offset="0.7252" stop-color="#FFBAA6"/>
<stop offset="0.8952" stop-color="#FFA990"/>
<stop offset="1" stop-color="#FF9A7F"/>
</linearGradient>
<linearGradient id="paint64_linear" x1="330.882" y1="282.912" x2="330.882" y2="277.762" gradientUnits="userSpaceOnUse">
<stop stop-color="#FFD1C1"/>
<stop offset="0.4889" stop-color="#FFCFBF"/>
<stop offset="0.665" stop-color="#FFCAB8"/>
<stop offset="0.7905" stop-color="#FFC0AD"/>
<stop offset="0.892" stop-color="#FFB29C"/>
<stop offset="0.9779" stop-color="#FFA086"/>
<stop offset="1" stop-color="#FF9A7F"/>
</linearGradient>
<linearGradient id="paint65_linear" x1="343.984" y1="282.868" x2="343.984" y2="277.718" gradientUnits="userSpaceOnUse">
<stop stop-color="#FFD1C1"/>
<stop offset="0.4889" stop-color="#FFCFBF"/>
<stop offset="0.665" stop-color="#FFCAB8"/>
<stop offset="0.7905" stop-color="#FFC0AD"/>
<stop offset="0.892" stop-color="#FFB29C"/>
<stop offset="0.9779" stop-color="#FFA086"/>
<stop offset="1" stop-color="#FF9A7F"/>
</linearGradient>
<linearGradient id="paint66_linear" x1="324.186" y1="303.794" x2="324.186" y2="290.437" gradientUnits="userSpaceOnUse">
<stop stop-color="#A92E35"/>
<stop offset="1" stop-color="#D2313B"/>
</linearGradient>
<linearGradient id="paint67_linear" x1="324.387" y1="418.197" x2="373.026" y2="366.271" gradientUnits="userSpaceOnUse">
<stop stop-color="#052743"/>
<stop offset="1" stop-color="#949EB7"/>
</linearGradient>
<linearGradient id="paint68_linear" x1="348.817" y1="404.347" x2="360.663" y2="396.824" gradientUnits="userSpaceOnUse">
<stop stop-color="#052743"/>
<stop offset="1" stop-color="#949EB7"/>
</linearGradient>
<linearGradient id="paint69_linear" x1="331.914" y1="419.034" x2="357.813" y2="398.061" gradientUnits="userSpaceOnUse">
<stop stop-color="#052743"/>
<stop offset="1" stop-color="#949EB7"/>
</linearGradient>
<linearGradient id="paint70_linear" x1="337.663" y1="389.866" x2="337.51" y2="384.489" gradientUnits="userSpaceOnUse">
<stop stop-color="#FFD1C1"/>
<stop offset="0.3" stop-color="#FFC4B1"/>
<stop offset="0.8819" stop-color="#FFA288"/>
<stop offset="1" stop-color="#FF9A7F"/>
</linearGradient>
<linearGradient id="paint71_linear" x1="337.729" y1="389.866" x2="337.576" y2="384.489" gradientUnits="userSpaceOnUse">
<stop stop-color="#FFD1C1"/>
<stop offset="0.3" stop-color="#FFC4B1"/>
<stop offset="0.8819" stop-color="#FFA288"/>
<stop offset="1" stop-color="#FF9A7F"/>
</linearGradient>
<linearGradient id="paint72_linear" x1="343.579" y1="378.458" x2="331.306" y2="378.458" gradientUnits="userSpaceOnUse">
<stop stop-color="#FFD1C1"/>
<stop offset="0.3189" stop-color="#FFCFBE"/>
<stop offset="0.5371" stop-color="#FFC7B5"/>
<stop offset="0.7252" stop-color="#FFBAA6"/>
<stop offset="0.8952" stop-color="#FFA990"/>
<stop offset="1" stop-color="#FF9A7F"/>
</linearGradient>
<linearGradient id="paint73_linear" x1="330.892" y1="379.987" x2="330.892" y2="374.837" gradientUnits="userSpaceOnUse">
<stop stop-color="#FFD1C1"/>
<stop offset="0.4889" stop-color="#FFCFBF"/>
<stop offset="0.665" stop-color="#FFCAB8"/>
<stop offset="0.7905" stop-color="#FFC0AD"/>
<stop offset="0.892" stop-color="#FFB29C"/>
<stop offset="0.9779" stop-color="#FFA086"/>
<stop offset="1" stop-color="#FF9A7F"/>
</linearGradient>
<linearGradient id="paint74_linear" x1="343.984" y1="379.94" x2="343.984" y2="374.79" gradientUnits="userSpaceOnUse">
<stop stop-color="#FFD1C1"/>
<stop offset="0.4889" stop-color="#FFCFBF"/>
<stop offset="0.665" stop-color="#FFCAB8"/>
<stop offset="0.7905" stop-color="#FFC0AD"/>
<stop offset="0.892" stop-color="#FFB29C"/>
<stop offset="0.9779" stop-color="#FFA086"/>
<stop offset="1" stop-color="#FF9A7F"/>
</linearGradient>
<linearGradient id="paint75_linear" x1="322.076" y1="404.002" x2="333.994" y2="396.324" gradientUnits="userSpaceOnUse">
<stop stop-color="#052743"/>
<stop offset="1" stop-color="#949EB7"/>
</linearGradient>
<linearGradient id="paint76_linear" x1="236.473" y1="167.477" x2="233.121" y2="153.937" gradientUnits="userSpaceOnUse">
<stop stop-color="#99A7AE"/>
<stop offset="1" stop-color="#42415F"/>
</linearGradient>
<linearGradient id="paint77_linear" x1="236.473" y1="264.777" x2="233.122" y2="251.238" gradientUnits="userSpaceOnUse">
<stop stop-color="#99A7AE"/>
<stop offset="1" stop-color="#42415F"/>
</linearGradient>
<linearGradient id="paint78_linear" x1="236.473" y1="362.082" x2="233.122" y2="348.543" gradientUnits="userSpaceOnUse">
<stop stop-color="#99A7AE"/>
<stop offset="1" stop-color="#42415F"/>
</linearGradient>
<linearGradient id="paint79_linear" x1="438.2" y1="261.652" x2="501.089" y2="196.926" gradientUnits="userSpaceOnUse">
<stop stop-color="#052743"/>
<stop offset="1" stop-color="#949EB7"/>
</linearGradient>
<linearGradient id="paint80_linear" x1="442.62" y1="240.591" x2="492.862" y2="162.249" gradientUnits="userSpaceOnUse">
<stop stop-color="#052743"/>
<stop offset="1" stop-color="#949EB7"/>
</linearGradient>
</defs>
</svg>
