<svg width="51" height="51" viewBox="0 0 51 51" fill="none" xmlns="http://www.w3.org/2000/svg">
<g clip-path="url(#clip0)">
<path fill-rule="evenodd" clip-rule="evenodd" d="M21.8216 5.89258H50.1549C50.6154 5.89258 50.9883 6.26549 50.9883 6.72591V23.3926C50.9883 23.853 50.6154 24.2259 50.1549 24.2259H21.8216C21.3612 24.2259 20.9883 23.853 20.9883 23.3926V6.72591C20.9883 6.26549 21.3612 5.89258 21.8216 5.89258ZM22.6549 22.5592H49.3216V20.5426L44.3004 17.6742L38.2672 20.7992C38.0027 20.9363 37.6845 20.9207 37.4339 20.7592L30.1383 16.0409L22.6549 20.5309V22.5592ZM44.7383 16.0026L49.3216 18.6234V7.55924H22.6549V18.5876L29.7289 14.3451C30.0016 14.1811 30.3437 14.1867 30.6108 14.3592L37.9358 19.097L43.9414 15.9859C44.1927 15.8561 44.4929 15.8617 44.7383 16.0026ZM43.4886 12.1423C43.4886 13.7531 42.1828 15.0589 40.5719 15.0589C38.9611 15.0589 37.6553 13.7531 37.6553 12.1423C37.6553 10.5314 38.9611 9.22559 40.5719 9.22559C42.1828 9.22559 43.4886 10.5314 43.4886 12.1423ZM41.8219 12.1423C41.8219 11.4518 41.2624 10.8923 40.5719 10.8923C39.8815 10.8923 39.3219 11.4518 39.3219 12.1423C39.3219 12.8327 39.8815 13.3923 40.5719 13.3923C41.2624 13.3923 41.8219 12.8327 41.8219 12.1423Z" fill="url(#paint0_linear)"/>
<path fill-rule="evenodd" clip-rule="evenodd" d="M9.32031 38.3929V28.3929C9.32031 27.9325 9.69323 27.5596 10.1536 27.5596H30.987C31.4474 27.5596 31.8203 27.9325 31.8203 28.3929V38.3929C31.8203 38.8533 31.4474 39.2263 30.987 39.2263H10.1536C9.69323 39.2263 9.32031 38.8533 9.32031 38.3929ZM30.1536 29.2262H10.987V37.5596H30.1536V29.2262ZM15.9876 30.8926H12.6543V32.5592H15.9876V30.8926ZM17.6543 30.8926H25.1543V32.5592H17.6543V30.8926ZM28.487 30.8926H26.8203V32.5592H28.487V30.8926ZM22.6543 34.2256V35.8923H12.6543V34.2256H22.6543ZM28.487 34.2256H24.3203V35.8923H28.487V34.2256Z" fill="url(#paint1_linear)"/>
<path d="M9.32227 4.22559H10.9889V5.89226H9.32227V4.22559Z" fill="url(#paint2_linear)"/>
<path d="M12.6543 4.22559H14.3209V5.89226H12.6543V4.22559Z" fill="url(#paint3_linear)"/>
<path d="M15.9883 4.22559H17.6549V5.89226H15.9883V4.22559Z" fill="url(#paint4_linear)"/>
<path fill-rule="evenodd" clip-rule="evenodd" d="M5.98828 4.22591V12.5592H7.65495V4.22591C7.65495 3.30529 8.40099 2.55924 9.32161 2.55924H42.6549C43.5756 2.55924 44.3216 3.30529 44.3216 4.22591H45.9883C45.9883 2.38508 44.4958 0.892578 42.6549 0.892578H9.32161C7.48078 0.892578 5.98828 2.38508 5.98828 4.22591ZM4.32161 50.8929H42.6549C44.4958 50.8929 45.9883 49.4004 45.9883 47.5596V44.2263H44.3216V47.5596C44.3216 48.4802 43.5756 49.2263 42.6549 49.2263C41.7343 49.2263 40.9883 48.4802 40.9883 47.5596V45.0596C40.9883 44.5992 40.6154 44.2263 40.1549 44.2263H7.65495V27.5596H5.98828V44.2263H1.82161C1.3612 44.2263 0.988281 44.5992 0.988281 45.0596V47.5596C0.988281 49.4004 2.48078 50.8929 4.32161 50.8929ZM2.65495 45.8929H39.3216V47.5596C39.3212 48.1452 39.4749 48.72 39.7693 49.2263H4.32161C3.40099 49.2263 2.65495 48.4802 2.65495 47.5596V45.8929ZM18.4883 25.8923H1.82161C1.3612 25.8923 0.988281 25.5194 0.988281 25.0589V15.0589C0.988281 14.5985 1.3612 14.2256 1.82161 14.2256H18.4883C18.9487 14.2256 19.3216 14.5985 19.3216 15.0589V25.0589C19.3216 25.5194 18.9487 25.8923 18.4883 25.8923ZM17.6549 15.8923H2.65495V24.2256H17.6549V15.8923ZM6.23284 17.8037L4.56617 19.4704C4.24096 19.796 4.24096 20.3231 4.56617 20.6487L6.23284 22.3154L7.41117 21.137L6.33367 20.0595L7.41117 18.982L6.23284 17.8037ZM12.8994 18.982L14.0777 17.8037L15.7444 19.4704C16.0696 19.796 16.0696 20.3231 15.7444 20.6487L14.0777 22.3154L12.8994 21.137L13.9769 20.0595L12.8994 18.982ZM8.53027 22.2955L10.1978 17.2949L11.7794 17.8224L10.1111 22.8226L8.53027 22.2955ZM19.3213 7.55957H9.32129V9.22624H19.3213V7.55957ZM50.1549 30.8926H34.3216C33.8612 30.8926 33.4883 31.2655 33.4883 31.7259V41.7259C33.4883 42.1863 33.8612 42.5592 34.3216 42.5592H50.1549C50.6154 42.5592 50.9883 42.1863 50.9883 41.7259V31.7259C50.9883 31.2655 50.6154 30.8926 50.1549 30.8926ZM49.3216 40.8926H35.1549V32.5592H49.3216V40.8926ZM38.488 34.2256H36.8213V35.8923H38.488V34.2256ZM36.8213 37.5596H38.488V39.2262H36.8213V37.5596ZM47.6553 34.2256H40.1553V35.8923H47.6553V34.2256ZM40.1553 37.5596H47.6553V39.2262H40.1553V37.5596ZM45.988 25.8926H44.3213V29.2259H45.988V25.8926Z" fill="url(#paint5_linear)"/>
</g>
<defs>
<linearGradient id="paint0_linear" x1="35.979" y1="24.2286" x2="35.979" y2="5.89662" gradientUnits="userSpaceOnUse">
<stop stop-color="#A92E35"/>
<stop offset="1" stop-color="#D2313B"/>
</linearGradient>
<linearGradient id="paint1_linear" x1="20.5633" y1="39.228" x2="20.5633" y2="27.5621" gradientUnits="userSpaceOnUse">
<stop stop-color="#A92E35"/>
<stop offset="1" stop-color="#D2313B"/>
</linearGradient>
<linearGradient id="paint2_linear" x1="10.1551" y1="5.8925" x2="10.1551" y2="4.22595" gradientUnits="userSpaceOnUse">
<stop stop-color="#A92E35"/>
<stop offset="1" stop-color="#D2313B"/>
</linearGradient>
<linearGradient id="paint3_linear" x1="13.4871" y1="5.8925" x2="13.4871" y2="4.22595" gradientUnits="userSpaceOnUse">
<stop stop-color="#A92E35"/>
<stop offset="1" stop-color="#D2313B"/>
</linearGradient>
<linearGradient id="paint4_linear" x1="16.8211" y1="5.8925" x2="16.8211" y2="4.22595" gradientUnits="userSpaceOnUse">
<stop stop-color="#A92E35"/>
<stop offset="1" stop-color="#D2313B"/>
</linearGradient>
<linearGradient id="paint5_linear" x1="38.7592" y1="62.6401" x2="-10.1914" y2="11.6026" gradientUnits="userSpaceOnUse">
<stop stop-color="#052743"/>
<stop offset="1" stop-color="#949EB7"/>
</linearGradient>
<clipPath id="clip0">
<rect width="50" height="50" fill="white" transform="translate(0.988281 0.892578)"/>
</clipPath>
</defs>
</svg>
