<svg width="51" height="51" viewBox="0 0 51 51" fill="none" xmlns="http://www.w3.org/2000/svg">
<g clip-path="url(#clip0)">
<path d="M6.32422 3.70508C5.13937 3.70508 4.17578 4.66867 4.17578 5.85352C4.17578 7.03798 5.13937 8.00195 6.32422 8.00195C7.50868 8.00195 8.47266 7.03798 8.47266 5.85352C8.47266 4.66867 7.50868 3.70508 6.32422 3.70508ZM6.32422 6.5394C5.9458 6.5394 5.63795 6.23155 5.63795 5.85352C5.63795 5.4751 5.9458 5.16725 6.32422 5.16725C6.70264 5.16725 7.0101 5.4751 7.0101 5.85352C7.0101 6.23155 6.70264 6.5394 6.32422 6.5394Z" fill="url(#paint0_linear)"/>
<path d="M11.7969 3.70508C10.612 3.70508 9.64844 4.66867 9.64844 5.85352C9.64844 7.03798 10.612 8.00195 11.7969 8.00195C12.9813 8.00195 13.9449 7.03798 13.9449 5.85352C13.9453 4.66867 12.9813 3.70508 11.7969 3.70508ZM11.7969 6.5394C11.4185 6.5394 11.1106 6.23155 11.1106 5.85352C11.1106 5.4751 11.4185 5.16725 11.7969 5.16725C12.1749 5.16725 12.4828 5.4751 12.4828 5.85352C12.4828 6.23155 12.1753 6.5394 11.7969 6.5394Z" fill="url(#paint1_linear)"/>
<path d="M17.2715 3.70508C16.0866 3.70508 15.123 4.66867 15.123 5.85352C15.123 7.03798 16.0866 8.00195 17.2715 8.00195C18.4559 8.00195 19.4199 7.03798 19.4199 5.85352C19.4199 4.66867 18.4559 3.70508 17.2715 3.70508ZM17.2715 6.5394C16.8931 6.5394 16.5852 6.23155 16.5852 5.85352C16.5852 5.4751 16.8931 5.16725 17.2715 5.16725C17.6495 5.16725 17.9574 5.4751 17.9574 5.85352C17.9574 6.23155 17.6499 6.5394 17.2715 6.5394Z" fill="url(#paint2_linear)"/>
<path d="M18.6877 14.3037H6.32307C5.9191 14.3037 5.5918 14.631 5.5918 15.035C5.5918 15.4386 5.9191 15.7659 6.32307 15.7659H18.6877C19.0916 15.7659 19.4189 15.4386 19.4189 15.035C19.4189 14.631 19.0916 14.3037 18.6877 14.3037Z" fill="url(#paint3_linear)"/>
<path d="M18.6877 17.7402H6.32307C5.9191 17.7402 5.5918 18.0675 5.5918 18.4711C5.5918 18.8751 5.9191 19.2024 6.32307 19.2024H18.6877C19.0916 19.2024 19.4189 18.8751 19.4189 18.4711C19.4189 18.0675 19.0916 17.7402 18.6877 17.7402Z" fill="url(#paint4_linear)"/>
<path d="M18.6877 21.1758H6.32307C5.9191 21.1758 5.5918 21.5031 5.5918 21.9071C5.5918 22.3107 5.9191 22.638 6.32307 22.638H18.6877C19.0916 22.638 19.4189 22.3107 19.4189 21.9071C19.4189 21.5031 19.0916 21.1758 18.6877 21.1758Z" fill="url(#paint5_linear)"/>
<path d="M18.6877 24.6123H6.32307C5.9191 24.6123 5.5918 24.9396 5.5918 25.3436C5.5918 25.7472 5.9191 26.0745 6.32307 26.0745H18.6877C19.0916 26.0745 19.4189 25.7472 19.4189 25.3436C19.4189 24.9396 19.0916 24.6123 18.6877 24.6123Z" fill="url(#paint6_linear)"/>
<path d="M18.6877 28.0488H6.32307C5.9191 28.0488 5.5918 28.3761 5.5918 28.7797C5.5918 29.1837 5.9191 29.511 6.32307 29.511H18.6877C19.0916 29.511 19.4189 29.1837 19.4189 28.7797C19.4189 28.3761 19.0916 28.0488 18.6877 28.0488Z" fill="url(#paint7_linear)"/>
<path d="M18.6877 31.4854H6.32307C5.9191 31.4854 5.5918 31.8127 5.5918 32.2162C5.5918 32.6198 5.9191 32.9475 6.32307 32.9475H18.6877C19.0916 32.9475 19.4189 32.6198 19.4189 32.2162C19.4189 31.8127 19.0916 31.4854 18.6877 31.4854Z" fill="url(#paint8_linear)"/>
<path d="M18.6877 34.9209H6.32307C5.9191 34.9209 5.5918 35.2482 5.5918 35.6522C5.5918 36.0558 5.9191 36.3831 6.32307 36.3831H18.6877C19.0916 36.3831 19.4189 36.0558 19.4189 35.6522C19.4189 35.2482 19.0916 34.9209 18.6877 34.9209Z" fill="url(#paint9_linear)"/>
<path d="M18.6877 38.3574H6.32307C5.9191 38.3574 5.5918 38.6847 5.5918 39.0883C5.5918 39.4923 5.9191 39.8196 6.32307 39.8196H18.6877C19.0916 39.8196 19.4189 39.4923 19.4189 39.0883C19.4189 38.6847 19.0916 38.3574 18.6877 38.3574Z" fill="url(#paint10_linear)"/>
<path d="M18.6877 41.793H6.32307C5.9191 41.793 5.5918 42.1203 5.5918 42.5239C5.5918 42.9278 5.9191 43.2551 6.32307 43.2551H18.6877C19.0916 43.2551 19.4189 42.9278 19.4189 42.5239C19.4189 42.1203 19.0916 41.793 18.6877 41.793Z" fill="url(#paint11_linear)"/>
<path d="M18.6877 45.2295H6.32307C5.9191 45.2295 5.5918 45.5568 5.5918 45.9608C5.5918 46.3644 5.9191 46.6917 6.32307 46.6917H18.6877C19.0916 46.6917 19.4189 46.3644 19.4189 45.9608C19.4189 45.5568 19.0916 45.2295 18.6877 45.2295Z" fill="url(#paint12_linear)"/>
<path d="M22.2109 13.8446V47.1511C22.2109 47.5547 22.5382 47.882 22.9422 47.882C23.3458 47.882 23.6731 47.5547 23.6731 47.1511V13.8446C23.6731 13.4406 23.3458 13.1133 22.9422 13.1133C22.5382 13.1133 22.2109 13.4406 22.2109 13.8446Z" fill="url(#paint13_linear)"/>
<path d="M47.7539 0.892578H4.19922C2.42233 0.892578 0.976562 2.33835 0.976562 4.11523V47.6699C0.976562 49.4468 2.42233 50.8926 4.19922 50.8926H25.9766C26.3805 50.8926 26.7078 50.5653 26.7078 50.1613C26.7078 49.7577 26.3805 49.4304 25.9766 49.4304H4.19922C3.22838 49.4304 2.43874 48.6408 2.43874 47.6699V10.855H49.5144V47.6699C49.5144 48.6408 48.7247 49.4304 47.7539 49.4304H30.4882C30.0842 49.4304 29.7573 49.7577 29.7573 50.1613C29.7573 50.5653 30.0846 50.8926 30.4882 50.8926H47.7539C49.5308 50.8926 50.9766 49.4468 50.9766 47.6699V4.11523C50.9766 2.33835 49.5308 0.892578 47.7539 0.892578V0.892578ZM49.5144 9.39287H2.43874V4.11523C2.43874 3.14439 3.22876 2.35475 4.19922 2.35475H47.7539C48.7247 2.35475 49.5144 3.14439 49.5144 4.11523V9.39287Z" fill="url(#paint14_linear)"/>
<path d="M44.6679 3.70508H40.4038C40.0002 3.70508 39.6729 4.03238 39.6729 4.43597C39.6729 4.83995 40.0002 5.16725 40.4038 5.16725H44.6679C45.0726 5.16725 45.4015 5.49608 45.4015 5.90082C45.4015 6.30556 45.0726 6.63477 44.6679 6.63477H25.2469C24.8422 6.63477 24.513 6.30556 24.513 5.90082C24.513 5.49608 24.8422 5.16725 25.2469 5.16725H35.8548C36.2588 5.16725 36.5857 4.83995 36.5857 4.43597C36.5857 4.03238 36.2584 3.70508 35.8548 3.70508H25.2469C24.0361 3.70508 23.0508 4.69003 23.0508 5.90082C23.0508 7.11198 24.0361 8.09694 25.2469 8.09694H44.6679C45.8787 8.09694 46.8636 7.1116 46.8636 5.90082C46.864 4.69003 45.8787 3.70508 44.6679 3.70508Z" fill="url(#paint15_linear)"/>
<path d="M46.9786 15.8159C46.9786 14.982 46.3004 14.3037 45.4665 14.3037H27.9067C27.0728 14.3037 26.3945 14.982 26.3945 15.8159V22.429C26.3945 23.2629 27.0728 23.9412 27.9067 23.9412H45.4665C46.3004 23.9412 46.9786 23.2625 46.9786 22.429V15.8159ZM30.6906 22.479L34.6209 18.5502L37.6883 22.0075C37.9565 22.3096 38.4185 22.3371 38.7206 22.0693C39.004 21.8175 39.0456 21.3949 38.8282 21.0943L40.2907 19.6321L42.8168 22.479H30.6906ZM45.5165 22.429C45.5165 22.4565 45.494 22.479 45.4665 22.479H44.7718L41.2822 18.5464C41.0426 18.2763 40.6977 18.115 40.3365 18.1043C39.9752 18.0928 39.6216 18.2336 39.366 18.4892L37.8585 19.996L35.6124 17.4646C35.3724 17.1945 35.028 17.0331 34.6663 17.0224C34.3081 17.011 33.9514 17.1518 33.6959 17.4073L28.6219 22.479H27.9067C27.8788 22.479 27.8567 22.4565 27.8567 22.429V15.8159C27.8567 15.7884 27.8788 15.7659 27.9067 15.7659H45.4665C45.494 15.7659 45.5165 15.7884 45.5165 15.8159V22.429Z" fill="url(#paint16_linear)"/>
<path d="M27.1254 28.0842H30.6308C31.0347 28.0842 31.3616 27.7569 31.3616 27.3533C31.3616 26.9494 31.0343 26.6221 30.6308 26.6221H27.1254C26.7218 26.6221 26.3945 26.9494 26.3945 27.3533C26.3945 27.7569 26.7218 28.0842 27.1254 28.0842Z" fill="url(#paint17_linear)"/>
<path d="M40.1663 27.3533C40.1663 26.9494 39.839 26.6221 39.4354 26.6221H33.0809C32.6769 26.6221 32.3496 26.9494 32.3496 27.3533C32.3496 27.7569 32.6769 28.0842 33.0809 28.0842H39.4354C39.839 28.0842 40.1663 27.7569 40.1663 27.3533Z" fill="url(#paint18_linear)"/>
<path d="M46.2471 26.6221H42.3797C41.9757 26.6221 41.6484 26.9494 41.6484 27.3533C41.6484 27.7569 41.9757 28.0842 42.3797 28.0842H46.2471C46.6507 28.0842 46.978 27.7569 46.978 27.3533C46.978 26.9494 46.6507 26.6221 46.2471 26.6221Z" fill="url(#paint19_linear)"/>
<path d="M27.1254 30.8655H31.5669C31.9709 30.8655 32.2978 30.5382 32.2978 30.1342C32.2978 29.7306 31.9705 29.4033 31.5669 29.4033H27.1254C26.7218 29.4033 26.3945 29.7306 26.3945 30.1342C26.3945 30.5378 26.7218 30.8655 27.1254 30.8655Z" fill="url(#paint20_linear)"/>
<path d="M34.4028 30.8655H41.9284C42.3324 30.8655 42.6593 30.5382 42.6593 30.1342C42.6593 29.7306 42.332 29.4033 41.9284 29.4033H34.4028C33.9988 29.4033 33.6719 29.7306 33.6719 30.1342C33.6715 30.5378 33.9988 30.8655 34.4028 30.8655Z" fill="url(#paint21_linear)"/>
<path d="M46.2473 29.4023H44.52C44.116 29.4023 43.7891 29.7296 43.7891 30.1336C43.7891 30.5372 44.1164 30.8645 44.52 30.8645H46.2473C46.6508 30.8645 46.9781 30.5372 46.9781 30.1336C46.9781 29.7296 46.6508 29.4023 46.2473 29.4023Z" fill="url(#paint22_linear)"/>
<path d="M46.9786 45.8286V34.4379C46.9786 33.604 46.3004 32.9258 45.4665 32.9258H27.9067C27.0728 32.9258 26.3945 33.604 26.3945 34.4379V45.8286C26.3945 46.6621 27.0728 47.3408 27.9067 47.3408H45.4665C46.3004 47.3408 46.9786 46.6621 46.9786 45.8286ZM27.8567 45.8286V34.4379C27.8567 34.4101 27.8792 34.388 27.9067 34.388H45.4665C45.494 34.388 45.5165 34.4101 45.5165 34.4379V45.8286C45.5165 45.8561 45.494 45.8786 45.4665 45.8786H27.9067C27.8792 45.8786 27.8567 45.8561 27.8567 45.8286Z" fill="url(#paint23_linear)"/>
<path d="M39.2349 38.9082L35.5514 36.7815C35.1085 36.5259 34.5798 36.5259 34.1369 36.7815C33.6944 37.0371 33.4297 37.4949 33.4297 38.0061V42.2598C33.4297 42.771 33.6944 43.2288 34.1369 43.4843C34.3586 43.6121 34.6012 43.6762 34.8442 43.6762C35.0868 43.6762 35.3298 43.6125 35.5514 43.4843L39.2349 41.3576C39.6778 41.1021 39.9421 40.6443 39.9421 40.1331C39.9421 39.6216 39.6778 39.1638 39.2349 38.9082ZM34.8922 42.1763V38.0892L38.4319 40.1331L34.8922 42.1763Z" fill="url(#paint24_linear)"/>
</g>
<defs>
<linearGradient id="paint0_linear" x1="6.32288" y1="8.00258" x2="6.32288" y2="3.70603" gradientUnits="userSpaceOnUse">
<stop stop-color="#A92E35"/>
<stop offset="1" stop-color="#D2313B"/>
</linearGradient>
<linearGradient id="paint1_linear" x1="11.7953" y1="8.00258" x2="11.7953" y2="3.70603" gradientUnits="userSpaceOnUse">
<stop stop-color="#A92E35"/>
<stop offset="1" stop-color="#D2313B"/>
</linearGradient>
<linearGradient id="paint2_linear" x1="17.2701" y1="8.00258" x2="17.2701" y2="3.70603" gradientUnits="userSpaceOnUse">
<stop stop-color="#A92E35"/>
<stop offset="1" stop-color="#D2313B"/>
</linearGradient>
<linearGradient id="paint3_linear" x1="16.0371" y1="16.1094" x2="15.7494" y2="13.2731" gradientUnits="userSpaceOnUse">
<stop stop-color="#052743"/>
<stop offset="1" stop-color="#949EB7"/>
</linearGradient>
<linearGradient id="paint4_linear" x1="16.0371" y1="19.5459" x2="15.7494" y2="16.7097" gradientUnits="userSpaceOnUse">
<stop stop-color="#052743"/>
<stop offset="1" stop-color="#949EB7"/>
</linearGradient>
<linearGradient id="paint5_linear" x1="16.0371" y1="22.9815" x2="15.7494" y2="20.1452" gradientUnits="userSpaceOnUse">
<stop stop-color="#052743"/>
<stop offset="1" stop-color="#949EB7"/>
</linearGradient>
<linearGradient id="paint6_linear" x1="16.0371" y1="26.418" x2="15.7494" y2="23.5817" gradientUnits="userSpaceOnUse">
<stop stop-color="#052743"/>
<stop offset="1" stop-color="#949EB7"/>
</linearGradient>
<linearGradient id="paint7_linear" x1="16.0371" y1="29.8545" x2="15.7494" y2="27.0183" gradientUnits="userSpaceOnUse">
<stop stop-color="#052743"/>
<stop offset="1" stop-color="#949EB7"/>
</linearGradient>
<linearGradient id="paint8_linear" x1="16.0371" y1="33.291" x2="15.7494" y2="30.4548" gradientUnits="userSpaceOnUse">
<stop stop-color="#052743"/>
<stop offset="1" stop-color="#949EB7"/>
</linearGradient>
<linearGradient id="paint9_linear" x1="16.0371" y1="36.7266" x2="15.7494" y2="33.8903" gradientUnits="userSpaceOnUse">
<stop stop-color="#052743"/>
<stop offset="1" stop-color="#949EB7"/>
</linearGradient>
<linearGradient id="paint10_linear" x1="16.0371" y1="40.1631" x2="15.7494" y2="37.3269" gradientUnits="userSpaceOnUse">
<stop stop-color="#052743"/>
<stop offset="1" stop-color="#949EB7"/>
</linearGradient>
<linearGradient id="paint11_linear" x1="16.0371" y1="43.5987" x2="15.7494" y2="40.7624" gradientUnits="userSpaceOnUse">
<stop stop-color="#052743"/>
<stop offset="1" stop-color="#949EB7"/>
</linearGradient>
<linearGradient id="paint12_linear" x1="16.0371" y1="47.0352" x2="15.7494" y2="44.1989" gradientUnits="userSpaceOnUse">
<stop stop-color="#052743"/>
<stop offset="1" stop-color="#949EB7"/>
</linearGradient>
<linearGradient id="paint13_linear" x1="23.3155" y1="56.0505" x2="20.3336" y2="55.9198" gradientUnits="userSpaceOnUse">
<stop stop-color="#052743"/>
<stop offset="1" stop-color="#949EB7"/>
</linearGradient>
<linearGradient id="paint14_linear" x1="38.7474" y1="62.6396" x2="-10.2027" y2="11.6022" gradientUnits="userSpaceOnUse">
<stop stop-color="#052743"/>
<stop offset="1" stop-color="#949EB7"/>
</linearGradient>
<linearGradient id="paint15_linear" x1="41.0394" y1="9.12877" x2="39.5632" y2="0.783107" gradientUnits="userSpaceOnUse">
<stop stop-color="#052743"/>
<stop offset="1" stop-color="#949EB7"/>
</linearGradient>
<linearGradient id="paint16_linear" x1="36.6802" y1="23.9426" x2="36.6802" y2="14.3058" gradientUnits="userSpaceOnUse">
<stop stop-color="#A92E35"/>
<stop offset="1" stop-color="#D2313B"/>
</linearGradient>
<linearGradient id="paint17_linear" x1="30.1468" y1="28.4278" x2="29.3975" y2="25.7739" gradientUnits="userSpaceOnUse">
<stop stop-color="#052743"/>
<stop offset="1" stop-color="#949EB7"/>
</linearGradient>
<linearGradient id="paint18_linear" x1="38.2545" y1="28.4278" x2="37.7564" y2="25.6517" gradientUnits="userSpaceOnUse">
<stop stop-color="#052743"/>
<stop offset="1" stop-color="#949EB7"/>
</linearGradient>
<linearGradient id="paint19_linear" x1="45.6744" y1="28.4278" x2="44.9693" y2="25.7479" gradientUnits="userSpaceOnUse">
<stop stop-color="#052743"/>
<stop offset="1" stop-color="#949EB7"/>
</linearGradient>
<linearGradient id="paint20_linear" x1="30.8539" y1="31.209" x2="30.2096" y2="28.4966" gradientUnits="userSpaceOnUse">
<stop stop-color="#052743"/>
<stop offset="1" stop-color="#949EB7"/>
</linearGradient>
<linearGradient id="paint21_linear" x1="40.4611" y1="31.209" x2="40.0246" y2="28.4117" gradientUnits="userSpaceOnUse">
<stop stop-color="#052743"/>
<stop offset="1" stop-color="#949EB7"/>
</linearGradient>
<linearGradient id="paint22_linear" x1="46.1982" y1="31.208" x2="45.1423" y2="28.8069" gradientUnits="userSpaceOnUse">
<stop stop-color="#052743"/>
<stop offset="1" stop-color="#949EB7"/>
</linearGradient>
<linearGradient id="paint23_linear" x1="36.6802" y1="47.3429" x2="36.6802" y2="32.929" gradientUnits="userSpaceOnUse">
<stop stop-color="#A92E35"/>
<stop offset="1" stop-color="#D2313B"/>
</linearGradient>
<linearGradient id="paint24_linear" x1="36.6839" y1="43.6772" x2="36.6839" y2="36.5914" gradientUnits="userSpaceOnUse">
<stop stop-color="#A92E35"/>
<stop offset="1" stop-color="#D2313B"/>
</linearGradient>
<clipPath id="clip0">
<rect width="50" height="50" fill="white" transform="translate(0.976562 0.892578)"/>
</clipPath>
</defs>
</svg>
