<svg width="31" height="31" viewBox="0 0 31 31" fill="none" xmlns="http://www.w3.org/2000/svg">
<path fill-rule="evenodd" clip-rule="evenodd" d="M0.902344 15.1172C0.902344 6.83423 7.61934 0.117188 15.9023 0.117188C24.1853 0.117188 30.9023 6.83423 30.9023 15.1172C30.9023 23.4001 24.1853 30.1172 15.9023 30.1172C7.61934 30.1172 0.902344 23.4001 0.902344 15.1172ZM24.0634 20.7592C24.2762 20.2112 24.422 19.5852 24.4637 18.6683C24.5058 17.7498 24.5156 17.4563 24.5156 15.1172C24.5156 12.7781 24.5058 12.4846 24.4639 11.566C24.422 10.6492 24.2764 10.0232 24.0634 9.47522C23.8473 8.90051 23.5081 8.38 23.07 7.94971C22.6397 7.51147 22.119 7.17224 21.5443 6.95593C20.9963 6.74329 20.3703 6.59778 19.4534 6.55615C18.5349 6.51392 18.2415 6.50391 15.9023 6.50391C13.5632 6.50391 13.2697 6.51392 12.3512 6.55591C11.4343 6.59778 10.8083 6.74329 10.2604 6.95618C9.68568 7.17249 9.16498 7.51147 8.73491 7.94971C8.2966 8.37988 7.9574 8.90051 7.7411 9.47522C7.52824 10.0232 7.38268 10.6492 7.34102 11.566C7.2989 12.4846 7.28906 12.7781 7.28906 15.1172C7.28906 17.4563 7.2989 17.7498 7.34125 18.6685C7.3829 19.5852 7.5287 20.2114 7.74156 20.7592C7.95786 21.3339 8.29683 21.8545 8.73491 22.2847C9.16521 22.7229 9.68568 23.0619 10.2606 23.2782C10.8083 23.4911 11.4346 23.6366 12.3512 23.6785C13.27 23.7205 13.5632 23.7305 15.9026 23.7305C18.2417 23.7305 18.5352 23.7205 19.4537 23.6785C20.3703 23.6366 20.9966 23.4911 21.5443 23.2782C22.7013 22.8307 23.6159 21.9161 24.0634 20.7592ZM22.6168 10.0376C22.4787 9.66357 22.2586 9.32507 21.9725 9.04724C21.6946 8.76111 21.3563 8.54089 20.9821 8.40295C20.6786 8.28503 20.2227 8.14478 19.3829 8.10645C18.4745 8.06506 18.2021 8.05615 15.9023 8.05615C13.6022 8.05615 13.3299 8.06482 12.4217 8.10632C11.5819 8.14478 11.1257 8.28503 10.8225 8.40295C10.4483 8.54089 10.1097 8.76111 9.83211 9.04724C9.54601 9.32507 9.32582 9.66333 9.18758 10.0376C9.0697 10.3411 8.9294 10.7972 8.89117 11.637C8.84975 12.5452 8.84082 12.8176 8.84082 15.1177C8.84082 17.4175 8.84975 17.6898 8.89117 18.5983C8.9294 19.438 9.0697 19.8939 9.18758 20.1974C9.32582 20.5717 9.54578 20.9099 9.83188 21.1877C10.1097 21.4739 10.448 21.6941 10.8223 21.832C11.1257 21.9502 11.5819 22.0905 12.4217 22.1287C13.3299 22.1702 13.602 22.1788 15.9021 22.1788C18.2023 22.1788 18.4747 22.1702 19.3827 22.1287C20.2224 22.0905 20.6786 21.9502 20.9821 21.832C21.7333 21.5424 22.327 20.9486 22.6168 20.1974C22.7346 19.8939 22.8749 19.438 22.9134 18.5983C22.9548 17.6898 22.9635 17.4175 22.9635 15.1177C22.9635 12.8176 22.9548 12.5452 22.9134 11.637C22.8752 10.7972 22.7349 10.3411 22.6168 10.0376ZM15.9023 19.5403C13.4594 19.5403 11.4791 17.5603 11.4791 15.1174C11.4791 12.6746 13.4594 10.6945 15.9023 10.6945C18.3449 10.6945 20.3252 12.6746 20.3252 15.1174C20.3252 17.5603 18.3449 19.5403 15.9023 19.5403ZM20.5001 11.5532C19.9292 11.5532 19.4664 11.0905 19.4664 10.5197C19.4664 9.94873 19.9292 9.48596 20.5001 9.48596C21.0709 9.48596 21.5337 9.94873 21.5337 10.5197C21.5335 11.0905 21.0709 11.5532 20.5001 11.5532ZM18.7734 15.1172C18.7734 16.7029 17.488 17.9883 15.9023 17.9883C14.3167 17.9883 13.0312 16.7029 13.0312 15.1172C13.0312 13.5315 14.3167 12.2461 15.9023 12.2461C17.488 12.2461 18.7734 13.5315 18.7734 15.1172Z" fill="#828282"/>
</svg>
