<svg width="31" height="31" viewBox="0 0 31 31" fill="none" xmlns="http://www.w3.org/2000/svg">
<g clip-path="url(#clip0)">
<path d="M19.457 15.7373C19.1336 15.7373 18.8711 15.9998 18.8711 16.3232C18.8711 16.6467 19.1336 16.9092 19.457 16.9092C19.7804 16.9092 20.043 16.6467 20.043 16.3232C20.043 15.9998 19.7804 15.7373 19.457 15.7373Z" fill="url(#paint0_linear)"/>
<path d="M6.9285 22.17L1.06913 29.5528C0.929283 29.7289 0.902733 29.9694 1.00047 30.1717C1.0982 30.3743 1.30328 30.5029 1.52804 30.5029H30.3562C30.5809 30.5029 30.786 30.3743 30.8837 30.1717C30.9817 29.9694 30.9549 29.7289 30.8151 29.5528L24.9557 22.17C24.8447 22.03 24.6755 21.9482 24.4968 21.9482H19.3641L23.7461 15.0754C24.774 13.5343 25.3171 11.7371 25.3171 9.87793C25.3171 4.70863 21.1116 0.50293 15.9421 0.50293C10.7726 0.50293 6.5671 4.70863 6.5671 9.87793C6.5671 11.7371 7.11024 13.5341 8.13814 15.0754L12.5201 21.9482H7.38741C7.20866 21.9482 7.03974 22.03 6.9285 22.17ZM4.74085 26.8115H8.28371L6.2842 29.3311H2.74111L4.74085 26.8115ZM13.2674 23.1201L14.8737 25.6396H10.7099L12.7096 23.1201H13.2674ZM18.617 23.1201H19.1748L21.1743 25.6396H17.0107L18.617 23.1201ZM22.1045 26.8115L24.104 29.3311H7.78017L9.77991 26.8115H22.1045ZM25.6002 29.3311L23.6005 26.8115H27.1436L29.1431 29.3311H25.6002ZM26.2134 25.6396H22.6705L20.6708 23.1201H24.2139L26.2134 25.6396ZM9.11639 14.4299C8.21528 13.0809 7.73898 11.5069 7.73898 9.87793C7.73898 5.35477 11.4189 1.6748 15.9421 1.6748C20.4653 1.6748 24.1452 5.35477 24.1452 9.87793C24.1452 11.5069 23.6689 13.0809 22.768 14.4299C22.7655 14.4334 22.7635 14.4368 22.7612 14.4402C22.3764 15.0438 16.2385 24.671 15.9421 25.1357C15.1966 23.9663 9.88223 15.6309 9.12302 14.4402C9.12096 14.4368 9.11868 14.4334 9.11639 14.4299ZM11.2134 23.1201L9.21389 25.6396H5.6708L7.67054 23.1201H11.2134Z" fill="url(#paint1_linear)"/>
<path d="M15.9414 15.7373C19.1581 15.7373 21.8008 13.1324 21.8008 9.87793C21.8008 6.64703 19.1723 4.01855 15.9414 4.01855C12.7105 4.01855 10.082 6.64703 10.082 9.87793C10.082 13.1333 12.7256 15.7373 15.9414 15.7373ZM15.9414 5.19043C18.5262 5.19043 20.6289 7.29317 20.6289 9.87793C20.6289 12.4867 18.5092 14.5654 15.9414 14.5654C13.3729 14.5654 11.2539 12.4867 11.2539 9.87793C11.2539 7.29317 13.3566 5.19043 15.9414 5.19043Z" fill="url(#paint2_linear)"/>
<path d="M18.4097 17.737C18.1327 17.57 17.7725 17.6592 17.6054 17.9364L15.4397 21.5294C15.2726 21.8066 15.3619 22.1666 15.639 22.3337C15.9174 22.5014 16.2769 22.4103 16.4433 22.1343L18.609 18.5413C18.7761 18.2642 18.6868 17.9041 18.4097 17.737Z" fill="url(#paint3_linear)"/>
</g>
<defs>
<linearGradient id="paint0_linear" x1="19.4567" y1="16.9094" x2="19.4567" y2="15.7376" gradientUnits="userSpaceOnUse">
<stop stop-color="#A92E35"/>
<stop offset="1" stop-color="#D2313B"/>
</linearGradient>
<linearGradient id="paint1_linear" x1="15.9328" y1="30.5073" x2="15.9328" y2="0.509545" gradientUnits="userSpaceOnUse">
<stop stop-color="#A92E35"/>
<stop offset="1" stop-color="#D2313B"/>
</linearGradient>
<linearGradient id="paint2_linear" x1="15.9378" y1="15.739" x2="15.9378" y2="4.02114" gradientUnits="userSpaceOnUse">
<stop stop-color="#A92E35"/>
<stop offset="1" stop-color="#D2313B"/>
</linearGradient>
<linearGradient id="paint3_linear" x1="17.0233" y1="22.4186" x2="17.0233" y2="17.6539" gradientUnits="userSpaceOnUse">
<stop stop-color="#A92E35"/>
<stop offset="1" stop-color="#D2313B"/>
</linearGradient>
<clipPath id="clip0">
<rect width="30" height="30" fill="white" transform="translate(0.941406 0.50293)"/>
</clipPath>
</defs>
</svg>
