<svg width="1261" height="214" viewBox="0 0 1261 214" fill="none" xmlns="http://www.w3.org/2000/svg">
<path d="M182.181 183.027C161.533 203.48 136.406 213.706 106.798 213.706C77.1904 213.706 52.0628 203.48 31.4153 183.027C10.9627 162.379 0.736328 137.154 0.736328 107.352C0.736328 77.5495 10.9627 52.4219 31.4153 31.9692C52.0628 11.3218 77.1904 0.998047 106.798 0.998047C136.406 0.998047 161.533 11.3218 182.181 31.9692C202.828 52.4219 213.152 77.5495 213.152 107.352C213.152 137.154 202.828 162.379 182.181 183.027ZM59.7569 155.562C72.4181 168.028 88.0985 174.261 106.798 174.261C125.498 174.261 141.178 168.028 153.839 155.562C166.5 142.901 172.831 126.831 172.831 107.352C172.831 87.8732 166.5 71.8033 153.839 59.1421C141.178 46.4809 125.498 40.1503 106.798 40.1503C88.0985 40.1503 72.4181 46.4809 59.7569 59.1421C47.0957 71.8033 40.7651 87.8732 40.7651 107.352C40.7651 126.831 47.0957 142.901 59.7569 155.562Z" fill="url(#paint0_linear)" fill-opacity="0.04"/>
<path d="M337.585 63.5248H375.276V209.615H337.585V193.253C328.43 206.888 313.918 213.706 294.05 213.706C278.077 213.706 264.831 208.349 254.313 197.636C243.989 186.923 238.827 172.119 238.827 153.224V63.5248H276.519V148.549C276.519 158.289 279.148 165.788 284.408 171.047C289.667 176.112 296.679 178.644 305.445 178.644C315.184 178.644 322.975 175.625 328.819 169.587C334.663 163.548 337.585 154.49 337.585 142.414V63.5248Z" fill="url(#paint1_linear)" fill-opacity="0.04"/>
<path d="M447.488 88.6524C450.994 79.3026 456.74 72.2902 464.727 67.6153C472.908 62.9404 481.965 60.603 491.9 60.603V102.677C480.407 101.314 470.083 103.651 460.928 109.689C451.968 115.728 447.488 125.759 447.488 139.784V209.615H409.797V63.5248H447.488V88.6524Z" fill="url(#paint2_linear)" fill-opacity="0.04"/>
<path d="M670.552 99.7552H637.536V160.529C637.536 165.593 638.802 169.294 641.334 171.632C643.866 173.969 647.567 175.333 652.437 175.722C657.307 175.917 663.345 175.82 670.552 175.43V209.615C644.646 212.537 626.336 210.102 615.622 202.311C605.104 194.519 599.844 180.592 599.844 160.529V99.7552H574.425V63.5248H599.844V34.0145L637.536 22.6194V63.5248H670.552V99.7552Z" fill="url(#paint3_linear)" fill-opacity="0.04"/>
<path d="M724.409 152.056C729.474 170.366 743.206 179.521 765.607 179.521C780.021 179.521 790.929 174.651 798.331 164.912L828.718 182.443C814.304 203.285 793.072 213.706 765.023 213.706C740.869 213.706 721.488 206.401 706.879 191.792C692.27 177.183 684.965 158.776 684.965 136.57C684.965 114.559 692.172 96.2491 706.586 81.64C721.001 66.8362 739.505 59.4343 762.101 59.4343C783.527 59.4343 801.156 66.8362 814.986 81.64C829.01 96.4439 836.023 114.754 836.023 136.57C836.023 141.44 835.536 146.602 834.562 152.056H724.409ZM723.825 122.838H798.331C796.189 112.903 791.708 105.501 784.891 100.632C778.268 95.7621 770.671 93.3273 762.101 93.3273C751.972 93.3273 743.596 95.9569 736.973 101.216C730.35 106.281 725.968 113.488 723.825 122.838Z" fill="url(#paint4_linear)" fill-opacity="0.04"/>
<path d="M972.222 63.5248H1009.91V209.615H972.222V192.377C960.925 206.596 945.049 213.706 924.597 213.706C905.118 213.706 888.366 206.304 874.342 191.5C860.512 176.501 853.597 158.191 853.597 136.57C853.597 114.949 860.512 96.736 874.342 81.9322C888.366 66.9336 905.118 59.4343 924.597 59.4343C945.049 59.4343 960.925 66.544 972.222 80.7635V63.5248ZM902.683 166.373C910.28 173.969 919.922 177.768 931.609 177.768C943.296 177.768 952.938 173.969 960.535 166.373C968.327 158.581 972.222 148.647 972.222 136.57C972.222 124.493 968.327 114.656 960.535 107.06C952.938 99.2683 943.296 95.3725 931.609 95.3725C919.922 95.3725 910.28 99.2683 902.683 107.06C895.087 114.656 891.288 124.493 891.288 136.57C891.288 148.647 895.087 158.581 902.683 166.373Z" fill="url(#paint5_linear)" fill-opacity="0.04"/>
<path d="M1205.67 59.4343C1222.42 59.4343 1235.76 64.8883 1245.7 75.7964C1255.83 86.7045 1260.89 101.314 1260.89 119.624V209.615H1223.2V122.253C1223.2 113.488 1221.06 106.67 1216.77 101.801C1212.49 96.9308 1206.45 94.496 1198.66 94.496C1190.09 94.496 1183.36 97.3204 1178.5 102.969C1173.82 108.618 1171.48 116.799 1171.48 127.512V209.615H1133.79V122.253C1133.79 113.488 1131.65 106.67 1127.36 101.801C1123.08 96.9308 1117.04 94.496 1109.25 94.496C1100.87 94.496 1094.15 97.3204 1089.09 102.969C1084.22 108.618 1081.78 116.799 1081.78 127.512V209.615H1044.09V63.5248H1081.78V79.0104C1090.55 65.9596 1104.09 59.4343 1122.4 59.4343C1140.32 59.4343 1153.56 66.4466 1162.13 80.4713C1171.87 66.4466 1186.38 59.4343 1205.67 59.4343Z" fill="url(#paint6_linear)" fill-opacity="0.04"/>
<defs>
<linearGradient id="paint0_linear" x1="630.813" y1="0.998047" x2="630.813" y2="213.706" gradientUnits="userSpaceOnUse">
<stop/>
<stop offset="1" stop-color="#404040"/>
</linearGradient>
<linearGradient id="paint1_linear" x1="630.813" y1="0.998047" x2="630.813" y2="213.706" gradientUnits="userSpaceOnUse">
<stop/>
<stop offset="1" stop-color="#404040"/>
</linearGradient>
<linearGradient id="paint2_linear" x1="630.813" y1="0.998047" x2="630.813" y2="213.706" gradientUnits="userSpaceOnUse">
<stop/>
<stop offset="1" stop-color="#404040"/>
</linearGradient>
<linearGradient id="paint3_linear" x1="630.813" y1="0.998047" x2="630.813" y2="213.706" gradientUnits="userSpaceOnUse">
<stop/>
<stop offset="1" stop-color="#404040"/>
</linearGradient>
<linearGradient id="paint4_linear" x1="630.813" y1="0.998047" x2="630.813" y2="213.706" gradientUnits="userSpaceOnUse">
<stop/>
<stop offset="1" stop-color="#404040"/>
</linearGradient>
<linearGradient id="paint5_linear" x1="630.813" y1="0.998047" x2="630.813" y2="213.706" gradientUnits="userSpaceOnUse">
<stop/>
<stop offset="1" stop-color="#404040"/>
</linearGradient>
<linearGradient id="paint6_linear" x1="630.813" y1="0.998047" x2="630.813" y2="213.706" gradientUnits="userSpaceOnUse">
<stop/>
<stop offset="1" stop-color="#404040"/>
</linearGradient>
</defs>
</svg>
