<svg width="1260" height="296" viewBox="0 0 1260 296" fill="none" xmlns="http://www.w3.org/2000/svg">
<path d="M173.013 72.24C172.709 57.0635 167.549 41.5833 158.443 29.4421C149.641 16.9973 136.589 7.89133 122.02 3.33836C115.038 1.21364 107.45 -0.000488281 99.8619 -0.000488281H0V218.542H41.2803V144.177H99.8619C123.841 144.177 145.695 132.643 158.443 115.038C167.549 102.897 173.316 87.4166 173.013 72.24ZM124.448 92.2731C118.074 100.772 107.754 105.628 99.5583 105.628H41.2803V38.8516H99.5583C108.057 38.8516 117.467 44.0116 123.234 50.6893C128.394 56.4564 130.822 64.3482 131.126 72.24C131.429 79.5248 128.697 86.506 124.448 92.2731Z" fill="black" fill-opacity="0.04"/>
<path d="M282.986 50.3858C273.273 50.9928 263.257 53.4211 254.454 58.8846C246.866 63.4376 241.099 69.8118 236.849 77.0965V54.6352H200.426V218.542H242.009V131.125C242.009 118.984 245.348 108.057 252.633 100.165C258.4 94.0943 266.899 89.8448 278.737 88.9342C290.574 88.0237 301.805 89.8448 310.304 93.1837V54.9387C301.198 51.2963 291.789 49.7787 282.986 50.3858Z" fill="black" fill-opacity="0.04"/>
<path d="M408.212 223.095C432.798 223.095 455.563 213.989 471.043 195.777C485.005 178.476 491.38 159.961 491.38 136.589C491.38 114.431 485.612 94.7013 471.043 77.4C455.866 59.1882 432.494 50.0822 408.212 50.0822C384.233 50.0822 360.557 59.4917 345.381 77.4C332.329 93.1837 325.348 113.52 325.348 136.589C325.348 159.05 331.418 178.78 345.381 195.777C360.557 213.686 383.929 223.095 408.212 223.095ZM438.262 170.584C431.584 179.69 420.353 184.547 408.212 184.547C396.071 184.547 384.84 179.69 378.162 170.584C371.181 161.478 369.056 149.033 369.056 136.589C369.056 124.144 371.181 111.396 378.162 102.29C384.84 93.1837 396.071 88.6307 408.212 88.6307C420.353 88.6307 431.584 93.1837 438.262 102.29C445.243 111.396 447.671 124.144 447.671 136.589C447.671 149.033 445.243 161.478 438.262 170.584Z" fill="black" fill-opacity="0.04"/>
<path d="M532.413 -0.000488281V36.4233H573.693V-0.000488281H532.413ZM512.684 253.752C515.719 253.752 522.397 253.752 526.95 247.985C529.985 244.342 532.413 237.968 532.413 227.648V54.6352H573.693V227.648C573.693 245.86 569.141 261.037 560.945 272.571C550.322 287.444 533.627 295.943 512.684 295.943V253.752Z" fill="black" fill-opacity="0.04"/>
<path d="M654.812 147.819H775.314C775.618 144.177 775.921 140.231 775.921 136.589C775.921 114.734 769.547 93.7907 755.888 77.4C740.712 59.1882 717.34 50.0822 693.057 50.0822C668.775 50.0822 645.403 59.4917 630.226 77.4C616.567 93.7907 610.8 113.824 610.193 136.589C609.586 158.139 616.264 178.78 630.226 195.777C645.403 213.989 668.775 221.881 693.057 223.095C717.34 224.309 741.015 214.9 757.406 196.688C761.048 192.439 764.387 187.886 767.119 183.333L726.142 165.424C724.928 166.942 724.321 168.763 723.107 170.584C716.126 179.69 705.198 184.547 693.057 184.547C681.219 184.547 669.989 179.69 663.311 170.584C658.455 164.21 656.026 156.318 654.812 147.819ZM693.057 88.6307C705.198 88.6307 716.126 93.1837 723.107 102.593C725.839 106.539 727.963 111.092 729.481 115.949H656.633C658.151 111.092 660.276 106.539 663.311 102.593C669.989 93.1837 681.219 88.6307 693.057 88.6307Z" fill="black" fill-opacity="0.04"/>
<path d="M954.777 91.3625C952.349 86.506 949.314 81.953 945.671 77.4C930.495 59.4917 907.123 50.0822 882.84 50.0822C859.468 50.0822 836.096 58.5811 820.313 77.4C806.654 94.0943 800.28 114.431 800.28 136.589C800.28 158.746 806.654 179.083 820.313 195.474C835.489 213.686 858.861 223.399 882.84 222.792C906.819 223.399 930.495 213.382 945.671 195.474C949.314 191.224 952.045 186.671 954.777 182.118L915.925 165.424C915.015 167.245 914.104 168.763 912.89 170.584C906.212 179.69 894.981 184.243 882.84 184.243C871.003 184.243 859.772 179.69 853.094 170.584C846.113 161.478 843.988 149.033 843.685 136.589C843.988 124.144 846.113 111.699 853.094 102.593C859.772 93.4872 871.003 88.6307 882.84 88.6307C894.981 88.6307 906.212 93.4872 912.89 102.593C914.104 104.111 915.318 106.236 916.229 108.057L954.777 91.3625Z" fill="black" fill-opacity="0.04"/>
<path d="M1091.08 86.506V54.6352H1043.73V9.10546H1002.45V54.6352H968.455V86.506H1002.45V149.033C1002.45 166.942 1003.36 182.725 1010.34 195.777C1016.72 207.919 1028.25 215.203 1043.12 219.453C1055.27 222.792 1078.03 222.185 1091.08 218.542V183.029C1082.28 184.243 1072.26 184.547 1064.37 183.94C1058 183.333 1051.32 179.69 1047.68 173.923C1044.03 168.156 1043.73 158.746 1043.73 145.998V86.506H1091.08Z" fill="black" fill-opacity="0.04"/>
<path d="M1258.35 98.0402C1251.97 80.7389 1239.53 66.4729 1223.44 58.2776C1212.21 52.5105 1199.77 50.0822 1188.53 50.0822C1177.3 49.7787 1165.47 50.9928 1152.72 56.4564C1135.42 64.0447 1122.67 80.4354 1122.67 101.076C1122.67 112.61 1128.44 125.965 1139.67 134.464C1148.16 141.142 1157.27 145.088 1172.14 149.033C1181.25 151.462 1189.75 153.586 1198.55 156.015C1204.01 157.532 1211.6 159.961 1215.55 163.907C1217.67 166.031 1218.28 168.156 1218.28 171.191C1217.67 174.227 1217.07 176.048 1214.03 178.78C1209.17 182.725 1198.55 184.243 1190.96 184.243C1180.95 184.243 1170.93 182.725 1163.64 174.834C1159.09 170.281 1156.06 161.175 1156.06 156.318L1116.9 166.031C1117.51 174.53 1126.61 192.742 1134.2 201.241C1149.38 217.328 1168.5 223.095 1190.96 223.095C1207.66 223.095 1223.44 220.667 1236.49 212.472C1250.15 203.669 1258.65 190.314 1259.86 174.834C1261.08 158.139 1254.1 144.177 1240.74 133.857C1230.12 125.054 1222.23 123.233 1208.57 118.984C1200.37 116.859 1190.96 114.431 1182.77 112.003C1174.57 109.574 1167.89 106.843 1165.47 103.807C1165.16 102.897 1164.56 101.683 1164.56 100.165C1164.56 98.3437 1165.47 95.6119 1170.02 92.5766C1174.27 90.1484 1180.64 88.9342 1187.93 88.9342C1194.6 88.9342 1200.68 90.4519 1205.53 93.1837C1211 95.9155 1216.46 101.986 1218.28 107.753L1258.35 98.0402Z" fill="black" fill-opacity="0.04"/>
</svg>
