<svg width="6" height="8" viewBox="0 0 6 8" fill="none" xmlns="http://www.w3.org/2000/svg">
<path fill-rule="evenodd" clip-rule="evenodd" d="M5.09793 0.357352C4.70742 -0.0331809 4.07427 -0.0331807 3.68375 0.357352L0.855387 3.18584C0.464872 3.57638 0.464872 4.20956 0.855387 4.60009C0.860795 4.6055 0.866249 4.61083 0.871748 4.61609L3.68427 7.42849C4.0748 7.81901 4.70798 7.81901 5.09851 7.42849C5.48904 7.03797 5.48904 6.40482 5.09851 6.0143L2.97687 3.89275L5.09793 1.7716C5.48845 1.38106 5.48845 0.747885 5.09793 0.357352Z" fill="white"/>
</svg>
