<svg width="941" height="253" viewBox="0 0 941 253" fill="none" xmlns="http://www.w3.org/2000/svg">
<path d="M175.521 10.681V55.4646H111.399V248.17H64.5796V55.4646H0.796875V10.681H175.521Z" fill="black" fill-opacity="0.04"/>
<path d="M205.79 181.334C211.671 202.595 227.616 213.225 253.627 213.225C270.364 213.225 283.03 207.571 291.625 196.262L326.909 216.618C310.172 240.819 285.518 252.92 252.948 252.92C224.902 252.92 202.397 244.438 185.434 227.474C168.47 210.511 159.989 189.137 159.989 163.352C159.989 137.794 168.357 116.533 185.094 99.5697C201.832 82.38 223.319 73.7852 249.556 73.7852C274.436 73.7852 294.905 82.38 310.964 99.5697C327.248 116.759 335.391 138.02 335.391 163.352C335.391 169.007 334.826 175.001 333.695 181.334H205.79ZM205.111 147.407H291.625C289.137 135.872 283.935 127.277 276.019 121.622C268.329 115.968 259.508 113.14 249.556 113.14C237.794 113.14 228.069 116.194 220.379 122.301C212.688 128.181 207.599 136.55 205.111 147.407Z" fill="black" fill-opacity="0.04"/>
<path d="M365.944 248.17V0.50293H409.71V248.17H365.944Z" fill="black" fill-opacity="0.04"/>
<path d="M449.767 248.17V0.50293H493.533V248.17H449.767Z" fill="black" fill-opacity="0.04"/>
<path d="M730.367 78.535H774.133V248.17H730.367V229.171C719.737 245.003 702.886 252.92 679.816 252.92C661.269 252.92 645.889 246.7 633.675 234.26C621.688 221.82 615.694 204.63 615.694 182.691V78.535H659.46V177.262C659.46 188.571 662.513 197.279 668.62 203.386C674.727 209.267 682.869 212.207 693.047 212.207C704.356 212.207 713.404 208.701 720.189 201.69C726.974 194.678 730.367 184.161 730.367 170.138V78.535Z" fill="black" fill-opacity="0.04"/>
<path d="M853.265 126.711C853.265 131.235 856.205 134.967 862.086 137.907C868.193 140.621 875.544 143.109 884.138 145.371C892.733 147.407 901.328 150.121 909.923 153.514C918.518 156.68 925.755 162.108 931.636 169.798C937.743 177.489 940.796 187.101 940.796 198.636C940.796 216.052 934.237 229.51 921.119 239.01C908.227 248.283 892.055 252.92 872.603 252.92C837.772 252.92 814.023 239.462 801.357 212.546L839.355 191.172C844.331 205.874 855.414 213.225 872.603 213.225C888.21 213.225 896.013 208.362 896.013 198.636C896.013 194.113 892.959 190.494 886.852 187.78C880.972 184.839 873.734 182.238 865.139 179.977C856.544 177.715 847.95 174.888 839.355 171.495C830.76 168.102 823.409 162.787 817.302 155.549C811.422 148.085 808.481 138.812 808.481 127.729C808.481 110.992 814.588 97.8733 826.802 88.3738C839.242 78.648 854.622 73.7852 872.942 73.7852C886.739 73.7852 899.292 76.9517 910.601 83.2847C921.91 89.3916 930.844 98.2126 937.404 109.748L900.084 130.104C894.656 118.569 885.609 112.801 872.942 112.801C867.288 112.801 862.538 114.045 858.693 116.533C855.074 119.021 853.265 122.414 853.265 126.711Z" fill="black" fill-opacity="0.04"/>
</svg>
