<svg width="384" height="406" viewBox="0 0 384 406" fill="none" xmlns="http://www.w3.org/2000/svg">
<path d="M37.0824 363.513C80.497 363.513 530.725 363.513 547.366 363.513C564.007 363.513 534.258 371.167 524.497 379.809C514.736 388.45 515.293 391.989 491.03 398.573C438.876 412.647 416.565 385.158 333.733 395.94C298.406 400.549 253.412 409.355 217.899 404.664C187.964 400.713 180.713 382.689 158.123 381.208C123.447 378.986 106.155 381.208 74.4543 379.809C47.4015 378.657 -6.33216 363.513 37.0824 363.513Z" fill="#000F1B" fill-opacity="0.3"/>
<path d="M131.524 363.431C123.059 300.709 129.224 273.381 137.229 256.013C140.91 247.946 146.339 239.879 153.884 234.2C184.156 211.317 183.236 255.766 181.856 269.265C178.635 299.968 169.986 332.728 169.25 363.513" fill="url(#paint0_linear)"/>
<path d="M103.906 363.514C102.969 343.716 92.9458 324.413 80.1123 308.492C67.2788 292.407 49.5742 279.621 38.0521 262.793C31.8695 253.719 22.0336 239.531 36.5533 232.106C52.6654 223.857 76.2716 232.519 89.1988 241.923C103.25 252.152 112.524 266.587 120.205 280.858C133.788 306.1 136.598 335.549 136.786 363.514" fill="url(#paint1_linear)"/>
<path d="M106.734 363.513C106.827 343.268 95.2076 321.861 76.9879 306.097C65.0893 295.725 50.7739 286.101 34.5063 281.786C26.0471 279.546 2.43591 276.061 0.111966 288.59C-0.81761 293.319 4.01618 302.28 15.5429 310.411C31.5316 321.695 75.6865 339.286 80.9851 363.513" fill="url(#paint2_linear)"/>
<path d="M10.5706 289.395C39.6767 296.538 67.109 314.189 81.7085 337.669C86.4511 345.386 89.7987 353.678 91.6586 362.298C91.7515 362.627 92.3095 362.462 92.2165 362.134C86.7301 332.743 61.6225 309.263 32.2375 296.291C25.3561 293.254 18.1029 290.709 10.6636 288.903C10.3846 288.903 10.1986 289.313 10.5706 289.395Z" fill="white" fill-opacity="0.3"/>
<path d="M44.7319 240.604C59.5057 247.591 71.6613 258.77 81.3858 270.689C94.4764 286.636 103.827 304.884 109.718 323.872C113.738 336.696 115.889 349.848 117.105 363.082C117.198 363.657 118.133 363.657 118.133 363.082C117.011 340.723 110.933 318.447 100.554 298.062C92.2323 281.786 80.8247 266.25 66.1445 253.92C59.8797 248.66 52.8668 243.81 45.1059 240.275C44.6384 240.029 44.3579 240.44 44.7319 240.604Z" fill="white" fill-opacity="0.3"/>
<path d="M165.195 234.156C157.978 249.756 153.828 266.423 151.031 283.091C148.144 300.251 146.791 317.575 146.34 334.982C146.069 344.342 145.979 353.702 146.43 363.144C146.43 363.637 147.242 363.637 147.242 363.144C147.152 328.824 148.054 294.257 156.805 260.676C159.151 251.726 162.038 242.941 165.737 234.402C166.007 233.991 165.376 233.827 165.195 234.156Z" fill="white" fill-opacity="0.3"/>
<path d="M84.9742 363.513C82.3125 352.482 79.9263 341.034 72.6756 331.591C67.9948 325.407 58.3578 316.717 49.8222 316.884C43.4894 316.967 42.0209 322.566 42.7551 327.58C44.6825 340.7 52.6674 344.711 55.788 358.917C54.2277 353.569 44.6825 334.934 36.3305 342.037C27.1524 349.892 40.8277 363.513 40.8277 363.513" fill="url(#paint3_linear)"/>
<path d="M39.4275 345.243C44.3591 350.795 48.4837 356.516 51.2633 363.33C51.4427 363.667 51.891 363.498 51.8013 363.162C50.0977 356.179 44.7177 350.038 39.6964 344.907C39.6068 344.738 39.2481 345.075 39.4275 345.243Z" fill="white" fill-opacity="0.3"/>
<path d="M52.9027 325.544C64.2592 335.791 69.4213 350.219 75.0526 363.335C75.1465 363.662 75.8035 363.499 75.6158 363.171C73.6448 357.268 71.0168 351.53 68.2012 345.874C64.3531 338.496 59.848 330.955 53.2781 325.216C53.0904 325.052 52.715 325.38 52.9027 325.544Z" fill="white" fill-opacity="0.3"/>
<path fill-rule="evenodd" clip-rule="evenodd" d="M336.786 261.961H333.677V259.888H336.786V261.961Z" fill="black" fill-opacity="0.2"/>
<path fill-rule="evenodd" clip-rule="evenodd" d="M173.04 82.4017C174.45 81.9161 175.979 81.6514 177.569 81.6514H180.51V83.6999H177.569C176.206 83.6999 174.903 83.9267 173.707 84.3386L173.04 82.4017ZM186.392 81.6514H192.274V83.6999H186.392V81.6514ZM198.156 81.6514H204.038V83.6999H198.156V81.6514ZM209.92 81.6514H215.802V83.6999H209.92V81.6514ZM221.684 81.6514H227.566V83.6999H221.684V81.6514ZM233.448 81.6514H239.33V83.6999H233.448V81.6514ZM245.212 81.6514H248.153V83.6999H245.212V81.6514ZM164.998 92.862C164.998 91.2263 165.389 89.6773 166.087 88.2843L167.919 89.2023C167.357 90.3221 167.047 91.558 167.047 92.862C167.047 94.1572 167.357 95.3947 167.922 96.5205L166.091 97.4389C165.389 96.0409 164.998 94.4901 164.998 92.862ZM177.569 104.073C175.972 104.073 174.445 103.808 173.04 103.325L173.706 101.388C174.896 101.797 176.198 102.024 177.569 102.024H180.691V104.073H177.569ZM193.178 104.073H186.934V102.024H193.178V104.073ZM205.664 104.073H199.421V102.024H205.664V104.073ZM218.151 104.073H211.908V102.024H218.151V104.073ZM230.638 104.073H224.394V102.024H230.638V104.073ZM243.124 104.073H236.881V102.024H243.124V104.073ZM255.611 104.073H249.368V102.024H255.611V104.073ZM268.098 104.073H261.854V102.024H268.098V104.073ZM280.584 104.073H274.341V102.024H280.584V104.073ZM293.071 104.073H286.828V102.024H293.071V104.073ZM305.558 104.073H299.315V102.024H305.558V104.073ZM318.045 104.073H311.801V102.024H318.045V104.073ZM330.531 104.073H324.288V102.024H330.531V104.073ZM343.018 104.073H336.775V102.024H343.018V104.073ZM355.505 104.073H349.261V102.024H355.505V104.073ZM367.991 104.073H361.748V102.024H367.991V104.073ZM380.478 104.073H374.235V102.024H380.478V104.073ZM392.965 104.073H386.721V102.024H392.965V104.073ZM405.452 104.073H399.208V102.024H405.452V104.073ZM417.938 104.073H411.695V102.024H417.938V104.073ZM430.425 104.073H424.182V102.024H430.425V104.073ZM439.79 104.073H436.668V102.024H439.79C440.703 102.024 441.605 102.074 442.492 102.171L442.269 104.207C441.456 104.118 440.629 104.073 439.79 104.073ZM451.544 107.431C450.182 106.562 448.689 105.838 447.098 105.288L447.768 103.352C449.509 103.954 451.147 104.747 452.647 105.705L451.544 107.431ZM458.123 114.574C457.397 113.13 456.453 111.785 455.325 110.572L456.826 109.177C458.079 110.526 459.136 112.029 459.953 113.653L458.123 114.574ZM459.81 121.614C459.81 120.791 459.745 119.981 459.62 119.19L461.643 118.869C461.785 119.766 461.859 120.682 461.859 121.614C461.859 122.545 461.786 123.462 461.645 124.359L459.621 124.041C459.746 123.248 459.81 122.438 459.81 121.614ZM455.34 132.672C456.467 131.457 457.408 130.11 458.132 128.664L459.964 129.58C459.15 131.207 458.095 132.714 456.842 134.065L455.34 132.672ZM447.107 137.95C448.703 137.402 450.197 136.68 451.559 135.813L452.659 137.54C451.159 138.496 449.519 139.288 447.773 139.887L447.107 137.95ZM439.79 139.155C440.631 139.155 441.459 139.11 442.272 139.022L442.492 141.059C441.606 141.154 440.704 141.203 439.79 141.203H436.675V139.155H439.79ZM150.231 139.318C151.225 139.21 152.238 139.155 153.265 139.155H156.38V141.203H153.265C152.312 141.203 151.372 141.255 150.451 141.354L150.231 139.318ZM162.609 139.155H168.837V141.203H162.609V139.155ZM175.066 139.155H181.295V141.203H175.066V139.155ZM187.524 139.155H193.753V141.203H187.524V139.155ZM199.981 139.155H206.21V141.203H199.981V139.155ZM212.439 139.155H218.668V141.203H212.439V139.155ZM224.897 139.155H231.125V141.203H224.897V139.155ZM237.354 139.155H243.583V141.203H237.354V139.155ZM249.812 139.155H256.041V141.203H249.812V139.155ZM262.269 139.155H268.498V141.203H262.269V139.155ZM274.727 139.155H280.956V141.203H274.727V139.155ZM287.184 139.155H293.413V141.203H287.184V139.155ZM299.642 139.155H305.871V141.203H299.642V139.155ZM312.1 139.155H318.328V141.203H312.1V139.155ZM324.557 139.155H330.786V141.203H324.557V139.155ZM337.015 139.155H343.244V141.203H337.015V139.155ZM349.472 139.155H355.701V141.203H349.472V139.155ZM361.93 139.155H368.159V141.203H361.93V139.155ZM374.388 139.155H380.616V141.203H374.388V139.155ZM386.845 139.155H393.074V141.203H386.845V139.155ZM399.303 139.155H405.531V141.203H399.303V139.155ZM411.76 139.155H417.989V141.203H411.76V139.155ZM424.218 139.155H430.447V141.203H424.218V139.155ZM138.816 143.269C140.5 142.196 142.341 141.307 144.301 140.633L144.967 142.571C143.157 143.193 141.463 144.012 139.917 144.996L138.816 143.269ZM130.621 152.197C131.534 150.373 132.717 148.684 134.123 147.169L135.625 148.561C134.345 149.941 133.275 151.471 132.452 153.114L130.621 152.197ZM128.496 161.127C128.496 160.083 128.578 159.055 128.736 158.05L130.76 158.368C130.618 159.269 130.545 160.19 130.545 161.127C130.545 162.064 130.618 162.984 130.76 163.885L128.736 164.204C128.578 163.198 128.496 162.171 128.496 161.127ZM134.123 175.085C132.717 173.569 131.534 171.88 130.621 170.057L132.452 169.139C133.275 170.782 134.345 172.312 135.625 173.692L134.123 175.085ZM144.301 181.62C142.341 180.947 140.5 180.058 138.816 178.985L139.917 177.257C141.463 178.242 143.157 179.061 144.967 179.683L144.301 181.62ZM153.265 183.099C152.238 183.099 151.225 183.044 150.231 182.936L150.451 180.899C151.372 180.999 152.312 181.05 153.265 181.05H156.422V183.099H153.265ZM169.048 183.099H162.735V181.05H169.048V183.099ZM181.674 183.099H175.361V181.05H181.674V183.099ZM194.3 183.099H187.987V181.05H194.3V183.099ZM206.926 183.099H200.613V181.05H206.926V183.099ZM219.553 183.099H213.24V181.05H219.553V183.099ZM232.179 183.099H225.866V181.05H232.179V183.099ZM244.805 183.099H238.492V181.05H244.805V183.099ZM257.431 183.099H251.118V181.05H257.431V183.099ZM270.057 183.099H263.744V181.05H270.057V183.099ZM282.683 183.099H276.37V181.05H282.683V183.099ZM295.309 183.099H288.996V181.05H295.309V183.099ZM307.935 183.099H301.622V181.05H307.935V183.099ZM320.562 183.099H314.249V181.05H320.562V183.099ZM333.188 183.099H326.875V181.05H333.188V183.099ZM345.814 183.099H339.501V181.05H345.814V183.099ZM358.44 183.099H352.127V181.05H358.44V183.099ZM371.066 183.099H364.753V181.05H371.066V183.099ZM383.692 183.099H377.379V181.05H383.692V183.099ZM396.318 183.099H390.005V181.05H396.318V183.099ZM408.944 183.099H402.631V181.05H408.944V183.099ZM421.57 183.099H415.257V181.05H421.57V183.099ZM434.197 183.099H427.884V181.05H434.197V183.099ZM446.823 183.099H440.51V181.05H446.823V183.099ZM459.449 183.099H453.136V181.05H459.449V183.099ZM472.075 183.099H465.762V181.05H472.075V183.099ZM484.701 183.099H478.388V181.05H484.701V183.099ZM494.171 183.099H491.014V181.05H494.171C495.305 181.05 496.431 181.087 497.545 181.159L497.413 183.203C496.342 183.134 495.261 183.099 494.171 183.099ZM510.079 185.729C508.065 185.036 505.979 184.47 503.832 184.043L504.231 182.034C506.469 182.479 508.645 183.069 510.746 183.792L510.079 185.729ZM521.559 191.595C519.821 190.363 517.974 189.245 516.031 188.254L516.961 186.429C518.992 187.464 520.924 188.634 522.744 189.924L521.559 191.595ZM530.772 200.555C529.502 198.843 528.08 197.224 526.522 195.714L527.948 194.243C529.584 195.829 531.079 197.531 532.417 199.334L530.772 200.555ZM536.494 212C535.896 209.938 535.108 207.942 534.147 206.026L535.978 205.107C536.994 207.132 537.828 209.245 538.461 211.429L536.494 212ZM537.843 221.506C537.843 220.425 537.793 219.355 537.693 218.297L539.732 218.105C539.838 219.226 539.892 220.361 539.892 221.506C539.892 222.651 539.838 223.785 539.732 224.906L537.693 224.714C537.793 223.656 537.843 222.586 537.843 221.506ZM534.147 236.985C535.108 235.07 535.896 233.073 536.494 231.011L538.461 231.582C537.828 233.767 536.994 235.879 535.978 237.904L534.147 236.985ZM526.522 247.297C528.08 245.787 529.502 244.168 530.772 242.456L532.417 243.677C531.079 245.48 529.584 247.182 527.948 248.768L526.522 247.297ZM516.031 254.757C517.974 253.766 519.821 252.648 521.559 251.416L522.744 253.087C520.924 254.377 518.992 255.547 516.961 256.582L516.031 254.757ZM503.832 258.968C505.979 258.541 508.065 257.975 510.079 257.282L510.746 259.219C508.645 259.942 506.469 260.533 504.231 260.977L503.832 258.968ZM494.171 259.912C495.261 259.912 496.342 259.877 497.413 259.808L497.545 261.852C496.431 261.924 495.305 261.961 494.171 261.961H491.02V259.912H494.171ZM342.947 259.912H346.098V261.961H342.947V259.912ZM352.399 259.912H358.7V261.961H352.399V259.912ZM365 259.912H371.301V261.961H365V259.912ZM377.602 259.912H383.903V261.961H377.602V259.912ZM390.204 259.912H396.505V261.961H390.204V259.912ZM402.806 259.912H409.107V261.961H402.806V259.912ZM415.408 259.912H421.709V261.961H415.408V259.912ZM428.01 259.912H434.311V261.961H428.01V259.912ZM440.612 259.912H446.913V261.961H440.612V259.912ZM453.214 259.912H459.515V261.961H453.214V259.912ZM465.816 259.912H472.117V261.961H465.816V259.912ZM478.418 259.912H484.719V261.961H478.418V259.912Z" fill="black" fill-opacity="0.2"/>
<path fill-rule="evenodd" clip-rule="evenodd" d="M253.884 83.7238H250.775V82.6875H253.884V83.7238Z" fill="black" fill-opacity="0.2"/>
<path d="M271.969 49.8323C258.713 47.8326 246.11 55.8314 243.87 67.6629C242.469 74.9951 245.363 81.9941 250.871 86.8267L247.604 92.8257L254.886 89.7429C257.499 91.2427 260.487 92.2425 263.754 92.7424C277.011 94.7421 289.614 86.7433 291.854 74.9118C294.188 63.0803 285.226 51.832 271.969 49.8323Z" fill="black" fill-opacity="0.2"/>
<path d="M256.93 81.6432L254.49 78.9102C253.586 77.8853 253.676 76.2626 254.851 75.4086L257.653 73.1881C258.738 72.334 260.455 72.4194 261.359 73.5297C261.359 73.5297 262.624 75.4086 264.161 75.067C265.878 74.7253 269.674 72.0778 271.663 70.1135C273.109 68.6616 270.668 66.1848 270.668 66.1848C269.765 65.16 269.855 63.5373 271.03 62.6832L273.832 60.4627C274.916 59.6087 276.634 59.6941 277.537 60.8043L279.978 63.5373C285.581 69.601 261.72 87.1091 256.93 81.6432Z" fill="black" fill-opacity="0.2"/>
<path d="M377.198 82.2678C380.847 79.2523 382.344 76.1554 387.302 75.1774C388.332 75.0144 389.361 74.8514 390.296 74.3624C392.729 73.0584 392.261 70.043 392.729 67.6795C393.758 63.0341 400.775 60.0186 405.921 62.1376C408.073 63.0341 410.037 64.5825 412.376 64.4195C417.148 64.1751 416.587 59.0406 419.861 56.1067C422.949 53.3357 429.217 53.0097 433.24 54.7212C435.953 55.9437 438.386 57.5736 440.257 59.6926C442.222 61.8931 442.128 65.2345 443.532 67.6795C444.935 70.043 448.116 71.021 449.613 73.3029C450.829 75.2589 451.203 77.3779 450.174 79.4968C448.116 83.7348 442.128 86.8317 436.795 86.8317C428.094 86.8317 363.726 86.8317 363.726 86.8317C363.726 86.8317 373.175 85.6093 377.198 82.2678Z" fill="#000F1B" fill-opacity="0.2"/>
<path d="M203.255 51.9119C200.213 49.3847 199.014 46.6944 194.865 45.8792C194.035 45.7161 193.113 45.6346 192.376 45.227C190.347 44.0857 190.808 41.5585 190.347 39.6019C189.425 35.6073 183.616 33.1616 179.283 34.8736C177.531 35.6073 175.871 36.9117 173.843 36.8302C169.878 36.5856 170.339 32.2649 167.665 29.8192C165.084 27.455 159.92 27.2105 156.601 28.6779C154.296 29.6562 152.267 31.1236 150.792 32.8355C149.225 34.7106 149.225 37.5639 148.026 39.6019C146.92 41.5585 144.154 42.4552 142.955 44.3303C141.941 46.0422 141.572 47.8357 142.494 49.5477C144.154 53.1347 149.133 55.7435 153.65 55.7435C160.934 55.7435 214.504 55.7435 214.504 55.7435C214.504 55.7435 206.575 54.7652 203.255 51.9119Z" fill="#000F1B" fill-opacity="0.2"/>
<path d="M144.039 122.862L108.951 130.355L98.4434 109.869L140.661 100.303L144.039 122.862Z" fill="#202123"/>
<path d="M140.93 99.9858L98.4434 109.629L115.06 89.9404L140.93 99.9858Z" fill="#2E3237"/>
<path d="M135.848 99.0162L102.288 106.856L109.793 131.858L143.353 124.018L135.848 99.0162Z" fill="#25282C"/>
<path d="M98.4434 109.629L105.709 133.463L123.314 117.547L98.4434 109.629Z" fill="#40444A"/>
<path d="M140.752 100.303L148.185 124.137L123.314 117.955L140.752 100.303Z" fill="#40444A"/>
<path d="M148.185 123.945L105.698 133.464L121.371 110.666L148.185 123.945Z" fill="#2E3237"/>
<path d="M148.185 123.861L105.698 133.464L122.315 113.775L148.185 123.861Z" fill="#2E3237"/>
<path d="M275.646 81.0104L276.76 79.1667C276.76 79.1667 276.441 77.9096 276.441 76.2335C276.441 75.4793 276.68 73.5517 276.919 73.3841C277.157 73.2165 277.317 74.9764 277.476 74.9764C277.555 74.8926 278.51 71.3728 278.988 71.4566C279.227 71.4566 278.351 74.8926 278.351 74.8926C278.351 74.8926 279.227 71.2052 279.624 71.289C280.022 71.4566 279.067 74.9764 279.067 74.9764C279.067 74.9764 279.863 71.6242 280.261 71.708C280.579 71.7918 279.704 75.0602 279.704 75.0602C279.704 75.0602 280.5 72.1271 280.738 72.2947C280.977 72.5461 280.738 74.5574 279.943 77.4068C279.784 77.9096 279.147 79.5019 279.067 79.6695C279.067 79.8371 278.272 82.6865 278.272 82.6865" fill="#FC8975"/>
<path d="M277.717 75.5354C278.026 76.0694 278.335 76.6925 278.412 77.3156C278.567 78.0276 278.412 78.7397 278.258 79.4518C278.258 79.5408 278.335 79.6298 278.412 79.5408C279.108 78.0276 278.644 76.7815 277.871 75.5354C277.794 75.3574 277.717 75.4464 277.717 75.5354Z" fill="#CC6658"/>
<path d="M236.919 295.12C236.919 295.12 243.44 298.005 243.521 300.312C243.521 301.658 234.02 301.562 233.456 300.697C232.49 299.255 234.181 295.408 234.181 295.408L236.919 295.12Z" fill="#352E72"/>
<path d="M236.108 290.254L236.267 296.079C236.267 296.079 236.028 297.008 235.071 297.176C234.115 297.345 233.477 296.163 233.477 296.163L233.158 288.903" fill="#FC8975"/>
<path d="M241.205 164.416C241.205 164.416 244.824 186.364 243.014 228.459C241.781 257.205 237.833 292.011 236.435 292.011C235.037 292.011 233.721 291.847 233.721 291.847C233.721 291.847 224.592 250.162 224.017 226.739C223.03 190.623 213.49 182.351 217.602 163.515" fill="url(#paint4_linear)"/>
<path d="M237.303 289.939L236.996 291.944L233.312 292.011L233.158 290.006L237.303 289.939Z" fill="#75A1E9"/>
<path d="M216.195 296.156C216.195 296.156 222.717 298.56 222.797 300.483C222.797 301.605 213.296 301.525 212.733 300.804C211.767 299.602 213.457 296.397 213.457 296.397L216.195 296.156Z" fill="#352E72"/>
<path d="M215.384 290.254L215.543 296.079C215.543 296.079 215.304 297.008 214.348 297.176C213.391 297.345 212.753 296.163 212.753 296.163L212.435 288.903" fill="#FC8975"/>
<path d="M229.013 164.413C229.013 164.413 227.255 192.269 225.08 224.373C224.243 237.035 216.711 290.132 215.706 291.929C214.284 291.929 212.024 292.011 212.024 292.011C212.024 292.011 206.417 246.102 205.747 222.657C204.743 186.633 200.81 182.221 204.994 163.515" fill="url(#paint5_linear)"/>
<path d="M216.58 289.939L216.273 292.95L212.588 293.048L212.435 290.133L216.58 289.939Z" fill="#75A1E9"/>
<path fill-rule="evenodd" clip-rule="evenodd" d="M228.188 178.023C228.188 178.022 228.189 178.022 228.601 178.037C229.014 178.052 229.014 178.052 229.014 178.053L228.997 178.462C228.985 178.73 228.967 179.126 228.944 179.638C228.897 180.662 228.827 182.148 228.733 183.996C228.547 187.693 228.269 192.842 227.902 198.647C227.168 210.255 226.078 224.498 224.653 235.017L223.833 234.92C225.254 224.429 226.343 210.207 227.077 198.602C227.444 192.8 227.722 187.655 227.908 183.96C228.001 182.113 228.071 180.628 228.118 179.605C228.141 179.094 228.159 178.698 228.171 178.43L228.188 178.023Z" fill="#4A578E"/>
<path d="M233.212 89.7772C230.896 85.7996 224.694 86.449 221.137 88.2349C216.093 90.8325 214.935 98.1384 210.221 101.304C208.153 102.684 205.589 103.496 203.935 105.363C201.951 107.555 201.62 110.883 202.612 113.643C203.605 116.403 205.755 118.595 208.236 120.137C210.717 121.599 213.612 122.491 216.423 123.141C220.972 124.196 225.769 124.683 230.152 123.222C234.535 121.68 238.339 117.702 238.339 112.994C238.339 109.016 235.693 105.363 236.189 101.467" fill="#D2313B"/>
<path d="M276.56 79.5776C276.56 79.5776 264.548 96.7421 261.814 100.703C257.506 106.81 239.944 107.965 230.5 113.494L223.955 114.237C220.89 114.897 210.204 122.406 209.21 125.459C206.89 132.391 204.653 139.488 204.239 146.833C204.074 149.308 204.156 151.784 204.239 154.342C204.322 157.973 204.488 161.521 204.571 165.152C204.571 165.4 204.571 165.647 204.736 165.812C204.902 165.977 205.15 166.06 205.399 166.142C217.245 168.866 229.506 167.38 241.518 165.895C241.932 165.812 242.429 165.812 242.678 165.482C243.009 165.152 243.092 164.575 243.092 163.997C243.175 161.686 243.009 159.376 242.926 157.065C242.512 147.08 242.843 137.095 244.003 127.192C247.731 124.882 263.139 120.013 268.276 112.916C279.791 96.9071 279.791 80.4028 279.791 80.4028L276.56 79.5776Z" fill="url(#paint6_linear)"/>
<path d="M230.05 113.857L229.813 105.484L226.351 105.986L223.832 114.443C223.832 114.443 225.013 116.201 227.531 115.782C229.813 115.531 230.05 113.857 230.05 113.857Z" fill="#FC8975"/>
<path d="M222.814 102.129C222.656 99.0344 223.526 95.7017 225.188 93.8767C226.849 92.0517 229.856 91.8137 232.15 92.131C232.942 92.2104 233.654 92.5278 234.287 93.0039C236.502 94.8289 236.344 99.1137 236.186 101.732C236.027 103.954 235.394 106.176 234.049 107.921C233.575 108.477 233.1 108.953 232.467 109.191C230.331 110.064 227.324 109.588 225.504 108.16C223.685 106.652 222.973 104.351 222.814 102.129Z" fill="#FC8975"/>
<path d="M221.777 104.099C220.951 104.487 219.547 104.719 218.886 103.867C218.391 103.169 218.804 102.084 218.969 101.386C219.547 98.9838 220.29 96.5036 221.198 94.1785C221.694 92.9384 222.189 91.7758 222.933 90.6907C224.502 88.6756 228.961 87.6681 231.603 87.9006C234.493 87.7456 239.118 92.1633 236.558 97.2787C236.145 96.0386 235.649 96.1161 234.658 95.031C233.668 95.9611 232.346 96.4261 231.025 96.5036C229.291 96.6586 227.227 96.2711 225.988 97.4337C224.667 98.5962 224.914 100.689 224.006 102.161C223.676 103.169 222.767 103.712 221.777 104.099Z" fill="#D2313B"/>
<path d="M224.854 102.434C224.967 101.822 224.403 101.415 223.727 101.347C221.924 101.211 221.36 102.978 222.036 103.725C222.6 104.337 223.84 104.813 224.516 104.065" fill="#FC8975"/>
<path d="M226.856 107.52C226.51 107.52 226.165 107.437 225.819 107.354C225.042 107.188 223.919 106.69 223.229 105.693C222.97 105.361 222.797 104.946 222.797 104.614C222.797 104.531 222.883 104.448 222.97 104.448C223.056 104.448 223.142 104.531 223.142 104.614C223.142 104.863 223.229 105.195 223.488 105.527C224.179 106.441 225.215 106.856 225.906 107.022C226.856 107.271 227.892 107.188 228.842 107.188C228.928 107.188 229.014 107.271 229.014 107.354C229.014 107.437 228.928 107.52 228.842 107.52C228.237 107.52 227.546 107.603 226.856 107.52Z" fill="white"/>
<path d="M229.629 106.643C229.295 106.495 228.849 106.495 228.516 106.569C227.18 106.866 228.627 107.979 229.74 107.385C229.851 107.311 229.962 107.311 229.962 107.237C230.185 107.088 229.962 106.792 229.629 106.643Z" fill="white"/>
<path d="M220.725 97.5396C220.955 95.2943 221.646 92.7037 222.874 90.9766C224.409 88.7314 226.558 86.8315 228.554 86.8315C230.243 86.8315 231.087 87.2633 231.087 87.2633C229.015 87.8678 227.249 88.9904 225.56 90.8902C223.949 92.8764 222.951 95.5534 222.874 98.2304" fill="white"/>
<path d="M225.879 100.95C226.134 103.207 224.52 105.307 222.227 105.463C219.935 105.697 217.896 103.985 217.642 101.728C217.387 99.472 219 97.3713 221.293 97.2157C223.586 96.9822 225.624 98.694 225.879 100.95Z" fill="white"/>
<path d="M223.815 101.043C223.978 102.738 222.998 104.263 221.528 104.433C220.139 104.602 218.832 103.331 218.669 101.636C218.506 99.9412 219.486 98.4158 220.956 98.2463C222.345 98.0768 223.652 99.2632 223.815 101.043Z" fill="#BDBDBD"/>
<path d="M311.963 94.0854L160.622 211.054V371.803H463.21V211.054L311.963 94.0854Z" fill="url(#paint7_linear)" fill-opacity="0.5"/>
<path d="M448.702 135.536H176.165V355.223H448.702V135.536Z" fill="url(#paint8_linear)"/>
<path d="M433.158 173.878H191.709V192.531H433.158V173.878Z" fill="white"/>
<path d="M433.158 200.821H191.709V219.473H433.158V200.821Z" fill="white"/>
<path d="M433.158 228.8H191.709V340.716H433.158V228.8Z" fill="white"/>
<path d="M202.551 181.132C203.152 181.132 203.633 181.315 203.995 181.683C204.357 182.044 204.538 182.537 204.538 183.161V186.185H203.647V183.21C203.647 182.809 203.534 182.501 203.309 182.284C203.084 182.061 202.773 181.949 202.377 181.949C201.933 181.949 201.574 182.084 201.301 182.353C201.028 182.616 200.891 183.023 200.891 183.574V186.185H200V181.26H200.891V181.969C201.253 181.411 201.806 181.132 202.551 181.132Z" fill="#4F4F4F"/>
<path d="M210.023 181.26H210.915V186.185H210.023V185.338C209.58 185.988 208.934 186.313 208.087 186.313C207.37 186.313 206.759 186.063 206.254 185.564C205.748 185.059 205.496 184.445 205.496 183.722C205.496 183 205.748 182.389 206.254 181.89C206.759 181.384 207.37 181.132 208.087 181.132C208.934 181.132 209.58 181.457 210.023 182.107V181.26ZM208.2 185.485C208.719 185.485 209.153 185.318 209.501 184.983C209.849 184.642 210.023 184.221 210.023 183.722C210.023 183.223 209.849 182.806 209.501 182.471C209.153 182.13 208.719 181.959 208.2 181.959C207.688 181.959 207.258 182.13 206.909 182.471C206.561 182.806 206.387 183.223 206.387 183.722C206.387 184.221 206.561 184.642 206.909 184.983C207.258 185.318 207.688 185.485 208.2 185.485Z" fill="#4F4F4F"/>
<path d="M217.797 181.132C218.371 181.132 218.835 181.312 219.19 181.673C219.545 182.028 219.723 182.511 219.723 183.121V186.185H218.832V183.151C218.832 182.77 218.729 182.475 218.524 182.264C218.319 182.054 218.046 181.949 217.705 181.949C217.322 181.949 217.015 182.074 216.783 182.323C216.557 182.566 216.445 182.941 216.445 183.446V186.185H215.553V183.151C215.553 182.77 215.454 182.475 215.256 182.264C215.065 182.054 214.802 181.949 214.468 181.949C214.092 181.949 213.778 182.074 213.525 182.323C213.279 182.573 213.156 182.947 213.156 183.446V186.185H212.265V181.26H213.156V181.92C213.505 181.394 214.013 181.132 214.683 181.132C215.372 181.132 215.874 181.411 216.189 181.969C216.544 181.411 217.08 181.132 217.797 181.132Z" fill="#4F4F4F"/>
<path d="M221.583 184.116C221.672 184.556 221.881 184.898 222.208 185.141C222.543 185.384 222.953 185.505 223.438 185.505C224.114 185.505 224.606 185.265 224.913 184.786L225.671 185.2C225.172 185.942 224.421 186.313 223.417 186.313C222.604 186.313 221.942 186.07 221.43 185.584C220.924 185.091 220.672 184.471 220.672 183.722C220.672 182.98 220.921 182.363 221.42 181.87C221.918 181.378 222.564 181.132 223.356 181.132C224.107 181.132 224.718 181.388 225.189 181.9C225.667 182.406 225.907 183.016 225.907 183.732C225.907 183.857 225.896 183.985 225.876 184.116H221.583ZM223.356 181.939C222.878 181.939 222.482 182.071 222.167 182.333C221.853 182.589 221.659 182.934 221.583 183.368H225.005C224.93 182.901 224.739 182.547 224.431 182.304C224.124 182.061 223.765 181.939 223.356 181.939Z" fill="#4F4F4F"/>
<path d="M200.96 213.306H204.314V214.165H200V207.331H204.262V208.19H200.96V210.289H204.004V211.138H200.96V213.306Z" fill="#4F4F4F"/>
<path d="M210.953 209.157C211.531 209.157 211.998 209.336 212.356 209.694C212.714 210.045 212.893 210.523 212.893 211.129V214.165H211.995V211.158C211.995 210.781 211.892 210.488 211.685 210.279C211.479 210.071 211.204 209.967 210.86 209.967C210.474 209.967 210.165 210.091 209.931 210.338C209.704 210.579 209.59 210.95 209.59 211.451V214.165H208.692V211.158C208.692 210.781 208.593 210.488 208.393 210.279C208.201 210.071 207.936 209.967 207.599 209.967C207.22 209.967 206.904 210.091 206.649 210.338C206.401 210.585 206.278 210.956 206.278 211.451V214.165H205.38V209.284H206.278V209.938C206.628 209.417 207.141 209.157 207.815 209.157C208.51 209.157 209.016 209.433 209.332 209.986C209.69 209.433 210.23 209.157 210.953 209.157Z" fill="#4F4F4F"/>
<path d="M218.41 209.284H219.308V214.165H218.41V213.325C217.963 213.97 217.313 214.292 216.46 214.292C215.737 214.292 215.122 214.045 214.612 213.55C214.103 213.049 213.849 212.44 213.849 211.724C213.849 211.008 214.103 210.403 214.612 209.908C215.122 209.407 215.737 209.157 216.46 209.157C217.313 209.157 217.963 209.479 218.41 210.123V209.284ZM216.573 213.472C217.096 213.472 217.533 213.306 217.884 212.974C218.235 212.635 218.41 212.219 218.41 211.724C218.41 211.23 218.235 210.816 217.884 210.484C217.533 210.146 217.096 209.977 216.573 209.977C216.057 209.977 215.624 210.146 215.273 210.484C214.922 210.816 214.747 211.23 214.747 211.724C214.747 212.219 214.922 212.635 215.273 212.974C215.624 213.306 216.057 213.472 216.573 213.472Z" fill="#4F4F4F"/>
<path d="M221.123 208.395C220.951 208.395 220.806 208.34 220.689 208.229C220.572 208.119 220.514 207.985 220.514 207.829C220.514 207.673 220.572 207.539 220.689 207.429C220.806 207.311 220.951 207.253 221.123 207.253C221.288 207.253 221.429 207.311 221.546 207.429C221.663 207.539 221.721 207.673 221.721 207.829C221.721 207.985 221.663 208.119 221.546 208.229C221.429 208.34 221.288 208.395 221.123 208.395ZM220.669 214.165V209.284H221.566V214.165H220.669Z" fill="#4F4F4F"/>
<path d="M222.936 214.165V207.038H223.834V214.165H222.936Z" fill="#4F4F4F"/>
<path d="M205.588 240.199C206.167 240.199 206.637 240.382 206.995 240.748C207.354 241.108 207.533 241.598 207.533 242.217V245.324H206.633V242.247C206.633 241.861 206.53 241.561 206.323 241.348C206.116 241.135 205.84 241.028 205.495 241.028C205.108 241.028 204.798 241.155 204.563 241.408C204.336 241.654 204.222 242.034 204.222 242.547V245.324H203.322V242.247C203.322 241.861 203.222 241.561 203.022 241.348C202.828 241.135 202.563 241.028 202.225 241.028C201.845 241.028 201.528 241.155 201.273 241.408C201.024 241.661 200.9 242.04 200.9 242.547V245.324H200V240.329H200.9V240.998C201.252 240.465 201.766 240.199 202.442 240.199C203.139 240.199 203.646 240.482 203.963 241.048C204.322 240.482 204.864 240.199 205.588 240.199Z" fill="#4F4F4F"/>
<path d="M209.413 243.226C209.503 243.672 209.713 244.019 210.044 244.265C210.382 244.512 210.796 244.635 211.286 244.635C211.969 244.635 212.466 244.392 212.776 243.906L213.542 244.325C213.038 245.078 212.279 245.454 211.265 245.454C210.444 245.454 209.775 245.208 209.258 244.715C208.747 244.215 208.492 243.586 208.492 242.826C208.492 242.074 208.744 241.448 209.247 240.948C209.751 240.449 210.403 240.199 211.203 240.199C211.962 240.199 212.579 240.459 213.055 240.978C213.538 241.491 213.78 242.11 213.78 242.836C213.78 242.963 213.769 243.093 213.749 243.226H209.413ZM211.203 241.018C210.72 241.018 210.32 241.151 210.003 241.418C209.685 241.677 209.489 242.027 209.413 242.467H212.869C212.793 241.994 212.6 241.634 212.29 241.388C211.979 241.141 211.617 241.018 211.203 241.018Z" fill="#4F4F4F"/>
<path d="M215.389 241.677C215.389 241.871 215.489 242.027 215.689 242.147C215.889 242.26 216.13 242.354 216.413 242.427C216.696 242.493 216.979 242.573 217.262 242.667C217.545 242.753 217.786 242.906 217.986 243.126C218.186 243.339 218.286 243.616 218.286 243.956C218.286 244.408 218.103 244.772 217.738 245.045C217.379 245.318 216.917 245.454 216.351 245.454C215.847 245.454 215.416 245.348 215.058 245.135C214.699 244.921 214.444 244.638 214.292 244.285L215.068 243.856C215.151 244.095 215.306 244.285 215.534 244.425C215.761 244.565 216.034 244.635 216.351 244.635C216.648 244.635 216.893 244.582 217.086 244.475C217.279 244.362 217.375 244.189 217.375 243.956C217.375 243.762 217.275 243.609 217.075 243.496C216.875 243.376 216.634 243.283 216.351 243.216C216.068 243.143 215.785 243.06 215.502 242.966C215.22 242.873 214.978 242.72 214.778 242.507C214.578 242.294 214.478 242.021 214.478 241.687C214.478 241.254 214.65 240.898 214.995 240.618C215.347 240.339 215.785 240.199 216.31 240.199C216.73 240.199 217.103 240.292 217.427 240.478C217.758 240.658 218.007 240.911 218.172 241.238L217.417 241.647C217.231 241.221 216.862 241.008 216.31 241.008C216.054 241.008 215.837 241.068 215.658 241.188C215.478 241.301 215.389 241.464 215.389 241.677Z" fill="#4F4F4F"/>
<path d="M223.495 240.329H224.395V245.324H223.495V244.465C223.046 245.125 222.394 245.454 221.539 245.454C220.815 245.454 220.197 245.201 219.687 244.695C219.176 244.182 218.921 243.559 218.921 242.826C218.921 242.094 219.176 241.474 219.687 240.968C220.197 240.455 220.815 240.199 221.539 240.199C222.394 240.199 223.046 240.528 223.495 241.188V240.329ZM221.653 244.615C222.177 244.615 222.615 244.445 222.967 244.105C223.319 243.759 223.495 243.333 223.495 242.826C223.495 242.32 223.319 241.897 222.967 241.558C222.615 241.211 222.177 241.038 221.653 241.038C221.135 241.038 220.701 241.211 220.349 241.558C219.997 241.897 219.821 242.32 219.821 242.826C219.821 243.333 219.997 243.759 220.349 244.105C220.701 244.445 221.135 244.615 221.653 244.615Z" fill="#4F4F4F"/>
<path d="M230.053 240.329H230.943V245.115C230.943 245.854 230.685 246.427 230.167 246.833C229.65 247.246 229.029 247.453 228.305 247.453C227.725 247.453 227.225 247.346 226.804 247.133C226.383 246.926 226.066 246.627 225.852 246.234L226.639 245.804C226.921 246.363 227.484 246.643 228.325 246.643C228.863 246.643 229.284 246.507 229.588 246.234C229.898 245.96 230.053 245.587 230.053 245.115V244.405C229.598 245.071 228.95 245.404 228.108 245.404C227.37 245.404 226.745 245.151 226.235 244.645C225.724 244.139 225.469 243.523 225.469 242.797C225.469 242.07 225.724 241.458 226.235 240.958C226.745 240.452 227.37 240.199 228.108 240.199C228.956 240.199 229.605 240.528 230.053 241.188V240.329ZM226.897 244.065C227.249 244.405 227.687 244.575 228.211 244.575C228.736 244.575 229.174 244.405 229.526 244.065C229.877 243.726 230.053 243.303 230.053 242.797C230.053 242.297 229.877 241.877 229.526 241.538C229.174 241.198 228.736 241.028 228.211 241.028C227.687 241.028 227.249 241.198 226.897 241.538C226.545 241.877 226.369 242.297 226.369 242.797C226.369 243.303 226.545 243.726 226.897 244.065Z" fill="#4F4F4F"/>
<path d="M232.939 243.226C233.028 243.672 233.239 244.019 233.57 244.265C233.908 244.512 234.322 244.635 234.812 244.635C235.494 244.635 235.991 244.392 236.302 243.906L237.067 244.325C236.564 245.078 235.805 245.454 234.791 245.454C233.97 245.454 233.301 245.208 232.783 244.715C232.273 244.215 232.018 243.586 232.018 242.826C232.018 242.074 232.269 241.448 232.773 240.948C233.277 240.449 233.928 240.199 234.729 240.199C235.488 240.199 236.105 240.459 236.581 240.978C237.064 241.491 237.305 242.11 237.305 242.836C237.305 242.963 237.295 243.093 237.274 243.226H232.939ZM234.729 241.018C234.246 241.018 233.846 241.151 233.528 241.418C233.211 241.677 233.014 242.027 232.939 242.467H236.395C236.319 241.994 236.126 241.634 235.815 241.388C235.505 241.141 235.143 241.018 234.729 241.018Z" fill="#4F4F4F"/>
<path d="M269.066 160.407C267.691 160.407 266.541 159.925 265.616 158.962C264.703 157.998 264.247 156.807 264.247 155.387C264.247 153.967 264.703 152.776 265.616 151.812C266.541 150.849 267.691 150.367 269.066 150.367C269.954 150.367 270.763 150.589 271.493 151.033C272.223 151.476 272.777 152.072 273.154 152.82L271.128 154.056C270.946 153.663 270.666 153.352 270.289 153.124C269.923 152.896 269.51 152.782 269.047 152.782C268.342 152.782 267.758 153.029 267.295 153.524C266.833 154.005 266.602 154.626 266.602 155.387C266.602 156.135 266.833 156.756 267.295 157.25C267.758 157.732 268.342 157.973 269.047 157.973C269.522 157.973 269.942 157.865 270.307 157.65C270.684 157.421 270.964 157.111 271.146 156.718L273.191 157.935C272.789 158.683 272.223 159.285 271.493 159.741C270.763 160.185 269.954 160.407 269.066 160.407Z" fill="white"/>
<path d="M282.069 158.962C281.132 159.925 279.988 160.407 278.637 160.407C277.287 160.407 276.143 159.925 275.206 158.962C274.281 157.985 273.819 156.794 273.819 155.387C273.819 153.98 274.281 152.795 275.206 151.831C276.143 150.855 277.287 150.367 278.637 150.367C279.988 150.367 281.132 150.855 282.069 151.831C283.006 152.795 283.474 153.98 283.474 155.387C283.474 156.794 283.006 157.985 282.069 158.962ZM276.867 157.269C277.341 157.764 277.932 158.011 278.637 158.011C279.343 158.011 279.933 157.764 280.408 157.269C280.882 156.775 281.12 156.147 281.12 155.387C281.12 154.626 280.882 153.999 280.408 153.504C279.933 153.01 279.343 152.763 278.637 152.763C277.932 152.763 277.341 153.01 276.867 153.504C276.404 153.999 276.173 154.626 276.173 155.387C276.173 156.147 276.404 156.775 276.867 157.269Z" fill="white"/>
<path d="M290.205 150.367C291.202 150.367 292.024 150.716 292.669 151.413C293.326 152.11 293.654 153.074 293.654 154.303V160.14H291.3V154.607C291.3 153.974 291.135 153.492 290.807 153.162C290.478 152.82 290.04 152.649 289.493 152.649C288.884 152.649 288.398 152.845 288.033 153.238C287.668 153.631 287.485 154.221 287.485 155.007V160.14H285.131V150.633H287.485V151.698C288.057 150.811 288.963 150.367 290.205 150.367Z" fill="white"/>
<path d="M300.885 152.991H298.822V156.946C298.822 157.276 298.901 157.516 299.06 157.669C299.218 157.821 299.449 157.909 299.753 157.935C300.057 157.947 300.435 157.941 300.885 157.916V160.14C299.266 160.331 298.123 160.172 297.453 159.665C296.796 159.158 296.468 158.252 296.468 156.946V152.991H294.88V150.633H296.468V148.713L298.822 147.971V150.633H300.885V152.991Z" fill="white"/>
<path d="M309.196 150.633H311.55V160.14H309.196V159.019C308.49 159.944 307.498 160.407 306.22 160.407C305.004 160.407 303.957 159.925 303.081 158.962C302.217 157.985 301.785 156.794 301.785 155.387C301.785 153.98 302.217 152.795 303.081 151.831C303.957 150.855 305.004 150.367 306.22 150.367C307.498 150.367 308.49 150.83 309.196 151.755V150.633ZM304.852 157.326C305.326 157.821 305.928 158.068 306.659 158.068C307.389 158.068 307.991 157.821 308.465 157.326C308.952 156.819 309.196 156.173 309.196 155.387C309.196 154.601 308.952 153.961 308.465 153.466C307.991 152.959 307.389 152.706 306.659 152.706C305.928 152.706 305.326 152.959 304.852 153.466C304.377 153.961 304.14 154.601 304.14 155.387C304.14 156.173 304.377 156.819 304.852 157.326Z" fill="white"/>
<path d="M318.029 160.407C316.654 160.407 315.504 159.925 314.58 158.962C313.667 157.998 313.211 156.807 313.211 155.387C313.211 153.967 313.667 152.776 314.58 151.812C315.504 150.849 316.654 150.367 318.029 150.367C318.917 150.367 319.727 150.589 320.457 151.033C321.187 151.476 321.74 152.072 322.118 152.82L320.092 154.056C319.909 153.663 319.629 153.352 319.252 153.124C318.887 152.896 318.473 152.782 318.011 152.782C317.305 152.782 316.721 153.029 316.259 153.524C315.796 154.005 315.565 154.626 315.565 155.387C315.565 156.135 315.796 156.756 316.259 157.25C316.721 157.732 317.305 157.973 318.011 157.973C318.485 157.973 318.905 157.865 319.27 157.65C319.648 157.421 319.927 157.111 320.11 156.718L322.154 157.935C321.753 158.683 321.187 159.285 320.457 159.741C319.727 160.185 318.917 160.407 318.029 160.407Z" fill="white"/>
<path d="M328.62 152.991H326.557V156.946C326.557 157.276 326.636 157.516 326.794 157.669C326.953 157.821 327.184 157.909 327.488 157.935C327.792 157.947 328.169 157.941 328.62 157.916V160.14C327.001 160.331 325.857 160.172 325.188 159.665C324.531 159.158 324.203 158.252 324.203 156.946V152.991H322.615V150.633H324.203V148.713L326.557 147.971V150.633H328.62V152.991Z" fill="white"/>
<path d="M341.008 150.633H343.363V160.14H341.008V159.076C340.437 159.963 339.53 160.407 338.289 160.407C337.291 160.407 336.464 160.058 335.807 159.361C335.162 158.664 334.839 157.7 334.839 156.471V150.633H337.194V156.166C337.194 156.8 337.358 157.288 337.687 157.631C338.015 157.96 338.453 158.125 339.001 158.125C339.609 158.125 340.096 157.928 340.461 157.535C340.826 157.143 341.008 156.553 341.008 155.767V150.633Z" fill="white"/>
<path d="M347.62 153.333C347.62 153.587 347.778 153.796 348.095 153.961C348.423 154.113 348.819 154.252 349.281 154.379C349.744 154.493 350.206 154.645 350.668 154.835C351.131 155.013 351.52 155.317 351.836 155.748C352.165 156.179 352.329 156.718 352.329 157.364C352.329 158.34 351.976 159.095 351.271 159.627C350.577 160.147 349.707 160.407 348.661 160.407C346.787 160.407 345.509 159.652 344.828 158.144L346.872 156.946C347.14 157.77 347.736 158.182 348.661 158.182C349.5 158.182 349.92 157.909 349.92 157.364C349.92 157.111 349.756 156.908 349.427 156.756C349.111 156.591 348.721 156.445 348.259 156.319C347.797 156.192 347.334 156.033 346.872 155.843C346.409 155.653 346.014 155.355 345.685 154.95C345.369 154.531 345.211 154.012 345.211 153.39C345.211 152.452 345.539 151.717 346.197 151.185C346.866 150.64 347.693 150.367 348.679 150.367C349.421 150.367 350.096 150.545 350.705 150.9C351.313 151.242 351.794 151.736 352.147 152.383L350.139 153.524C349.847 152.877 349.36 152.554 348.679 152.554C348.375 152.554 348.119 152.624 347.912 152.763C347.718 152.902 347.62 153.093 347.62 153.333Z" fill="white"/>
<path opacity="0.55" d="M311.962 313.201L160.621 211.183V355.223H463.209V211.183L311.962 313.201Z" fill="black" fill-opacity="0.1"/>
<path d="M311.962 329.781L160.621 211.183V371.804H463.209V211.183L311.962 329.781Z" fill="url(#paint9_linear)"/>
<path opacity="0.35" d="M311.962 245.38L160.621 371.804H463.209L311.962 245.38Z" fill="black" fill-opacity="0.2"/>
<path d="M311.962 257.815L160.621 371.804H463.209L311.962 257.815Z" fill="url(#paint10_linear)"/>
<path d="M214.542 152.116C214.542 152.116 216.275 153.421 216.853 153.421C217.43 153.421 218.833 152.986 220.483 153.16C221.226 153.247 223.124 153.682 223.289 154.031C223.454 154.379 221.556 154.292 221.556 154.466C221.638 154.64 225.022 155.946 224.856 156.468C224.774 156.729 221.473 155.423 221.473 155.423C221.473 155.423 225.104 156.729 224.856 157.164C224.609 157.599 221.226 156.207 221.226 156.207C221.226 156.207 224.526 157.425 224.279 157.861C224.114 158.209 220.896 157.338 220.896 157.338C220.896 157.338 223.701 157.948 223.536 158.296C223.454 158.47 220.401 158.035 217.843 157.077C215.45 156.12 213.47 154.553 213.47 154.553" fill="#FC8975"/>
<path d="M215.322 128.213C212.375 132.806 205.418 138.055 201.654 141.253C203.863 144.206 216.222 153.473 216.222 153.473L215.076 156.261C215.076 156.261 191.423 151.997 190.687 140.351C190.277 133.38 199.035 123.047 205.91 118.208C212.375 113.697 219.823 112.959 223.833 114.518" fill="url(#paint11_linear)"/>
<path d="M91.0234 381.37C91.0234 381.37 83.9375 383.77 83.9375 385.61C83.9375 386.65 94.3874 386.41 95.0316 385.69C96.0336 384.57 94.2442 381.13 94.2442 381.13L91.0234 381.37Z" fill="white"/>
<path d="M91.1914 376.223V381.236C91.1914 381.236 91.4677 382.085 92.4349 382.162C93.4712 382.239 94.162 381.236 94.162 381.236L94.3002 374.912" fill="#FC8975"/>
<path d="M93.5631 228.693C88.6362 235.731 82.9004 255.7 82.9004 293.673C82.9004 320.434 90.6952 376.576 90.6952 376.576L95.1809 376.985C109.447 276.651 104.667 277.714 108.197 259.874C110.403 248.662 105.917 220.509 105.917 220.509" fill="white"/>
<path opacity="0.2" d="M104.662 292.156C104.662 292.156 102.31 273.065 102.31 269.214C101.302 276.998 101.302 287.076 102.31 294.205C103.038 299.367 103.822 304.447 103.822 304.447L104.662 292.156Z" fill="url(#paint12_linear)"/>
<path d="M90.1553 375.949V377.539C90.1553 377.539 95.1011 378.212 95.1011 377.968C95.1011 377.723 95.3366 376.132 95.3366 376.132L90.1553 375.949Z" fill="#BDBDBD"/>
<path d="M129.7 381.37C129.7 381.37 136.786 383.77 136.786 385.61C136.786 386.65 126.336 386.41 125.692 385.69C124.689 384.57 126.479 381.13 126.479 381.13L129.7 381.37Z" fill="white"/>
<path d="M128.718 376.224L129.532 381.237C129.532 381.237 129.236 382.085 128.199 382.162C127.089 382.239 126.349 381.237 126.349 381.237L125.387 374.913" fill="#FC8975"/>
<path d="M117.055 225.505C121.955 234.593 130.568 253.262 130.568 291.173C130.568 317.949 129.9 376.576 129.9 376.576L126.039 376.985C113.565 338.665 103.245 289.863 100.795 261.45C99.8296 250.069 101.686 220.51 101.686 220.51" fill="#F2F2F2"/>
<path opacity="0.35" d="M117.624 226.87C113.267 225.273 107.36 223.759 101.674 222.583C101.674 222.835 101.674 223.087 101.6 223.339L93.1818 229.055C92.148 230.568 91.1143 232.586 90.1543 235.192C92.665 236.369 96.2094 237.462 101.009 237.966C108.024 238.638 116.738 237.125 121.242 234.772C119.913 231.577 118.731 228.971 117.624 226.87Z" fill="url(#paint13_linear)"/>
<path d="M130.568 374.913V377.299C130.568 377.299 125.609 378.308 125.609 377.941C125.609 377.574 125.387 375.188 125.387 375.188L130.568 374.913Z" fill="#BDBDBD"/>
<path d="M155.439 205.627L156.769 204.709C156.769 204.709 157.023 203.561 157.529 202.337C157.782 201.802 158.606 200.425 158.796 200.425C158.986 200.425 158.542 201.802 158.606 201.802C158.732 201.802 160.505 199.507 160.822 199.813C161.012 199.966 159.239 202.184 159.239 202.184C159.239 202.184 161.075 199.736 161.265 200.042C161.518 200.348 159.682 202.567 159.682 202.567C159.682 202.567 161.392 200.348 161.582 200.578C161.772 200.807 160.062 202.873 160.062 202.873C160.062 202.873 161.582 201.037 161.645 201.266C161.772 201.572 160.885 202.949 159.365 204.785C159.112 205.091 158.099 206.009 158.036 206.086C157.972 206.162 156.453 208.075 156.453 208.075" fill="#FC8975"/>
<path d="M158.371 201.961C158.371 202.474 158.435 203.06 158.307 203.5C158.179 204.086 157.858 204.453 157.538 204.819C157.474 204.892 157.538 204.966 157.602 204.966C158.563 204.233 158.627 203.133 158.499 201.887C158.499 201.814 158.371 201.887 158.371 201.961Z" fill="#CC6658"/>
<path d="M52.8493 172.069L51.7203 170.508C51.7203 170.508 51.9461 169.275 51.7956 167.795C51.7203 167.138 51.4193 165.329 51.1183 165.247C50.8925 165.083 50.8925 166.809 50.7419 166.727C50.6667 166.644 49.613 163.521 49.1614 163.603C48.9357 163.685 49.9893 166.727 49.9893 166.727C49.9893 166.727 48.9357 163.357 48.6346 163.521C48.2583 163.685 49.3872 166.809 49.3872 166.809C49.3872 166.809 48.4088 163.768 48.1078 163.932C47.8067 164.096 48.8604 166.973 48.8604 166.973C48.8604 166.973 47.882 164.343 47.7315 164.507C47.5057 164.754 47.882 166.562 48.8604 169.11C49.0109 169.521 49.7635 171.001 49.7635 171.083C49.8388 171.165 50.6667 173.878 50.6667 173.878" fill="#FC8975"/>
<path d="M50.5776 166.695C49.7859 168.009 49.3461 169.323 50.2257 170.731C50.3137 170.825 50.4896 170.731 50.4016 170.637C50.1378 169.98 49.9618 169.417 50.0498 168.666C50.1378 168.009 50.4016 167.352 50.7535 166.695C50.8415 166.601 50.6655 166.601 50.5776 166.695Z" fill="#CC6658"/>
<path d="M155.916 205.114C155.916 205.114 140.167 211.712 136.539 211.712C133.563 211.712 128.556 202.639 121.589 196.453C117.234 192.577 112.299 190.515 112.299 190.515L99.1635 190.185C96.696 190.185 91.7611 190.598 87.189 191.257C80.6574 192.247 74.4887 191.917 71.6583 190.515C66.1427 187.711 52.2813 170.803 52.2813 170.803C52.2813 170.803 50.975 170.473 49.7412 171.875C49.7412 172.7 56.8534 195.794 66.2879 202.722C73.1823 207.835 83.27 208.66 89.5113 208.578C89.5113 210.31 89.5113 211.629 89.5113 213.361C89.5113 215.671 87.0438 227.3 89.9467 230.599C92.632 233.651 102.865 233.981 106.856 233.981C112.807 233.981 118.831 232.909 120.355 230.599C121.081 229.445 121.008 224.166 120.79 219.3C125.508 222.681 129.789 226.063 135.232 226.063C145.465 226.063 157.512 207.918 157.512 207.918L155.916 205.114Z" fill="url(#paint14_linear)"/>
<path opacity="0.75" d="M121.242 222.582L121.077 219.25L116.061 214.292L121.242 222.582Z" fill="black" fill-opacity="0.2"/>
<path opacity="0.75" d="M89.3437 208.075C89.3437 207.498 90.1547 201.728 90.1547 200.821C88.9382 204.036 87.0459 208.075 87.0459 208.075H89.3437Z" fill="black" fill-opacity="0.2"/>
<path d="M109.729 163.515C113.34 166.119 112.703 171.408 114.19 174.744C115.252 177.104 116.881 179.138 117.093 182.068C117.235 185.16 113.765 186.624 111.853 186.299C108.171 185.648 104.985 187.763 101.303 187.275C98.7538 186.95 99.7451 185.485 98.0457 183.207C97.0544 181.823 96.5588 180.115 96.4171 178.325C96.2755 176.534 96.488 174.826 96.7712 173.035" fill="#D2313B"/>
<path d="M103.329 181.57L102.642 189.324L99.4814 189.901C99.4814 189.901 101.68 194.603 105.115 194.603C108.619 194.603 111.917 190.149 111.917 190.149L108.55 188.911L107.245 178.023" fill="#FC8975"/>
<path d="M97.6483 169.021C97.4291 171.531 97.2099 174.122 97.7214 176.632C98.2328 179.142 99.548 181.571 101.667 182.542C102.617 183.028 103.713 183.19 104.736 183.19C106.489 183.271 108.389 183.028 109.777 181.894C111.385 180.518 112.042 178.089 111.896 175.822C111.75 173.555 110.946 171.45 110.216 169.345C109.485 167.402 108.754 165.458 108.024 163.515" fill="#FC8975"/>
<path d="M88.8228 179.114C88.0902 180.11 87.2111 181.189 87.0645 182.435C86.918 183.763 87.6506 185.009 88.7496 185.59C89.702 186.088 90.5812 185.922 91.5336 185.839C92.6326 185.756 93.6583 185.756 94.7572 186.005C95.6364 186.171 96.5155 186.586 97.3947 186.835C98.7135 187.25 100.032 187.499 101.424 187.25C101.644 187.167 101.937 187.084 102.01 186.918C102.157 186.669 102.01 186.337 101.864 186.088C101.058 184.095 101.058 181.854 101.204 179.695C101.278 178.615 101.424 177.453 101.644 176.374C101.864 175.46 102.23 174.63 102.523 173.717C103.183 172.056 103.988 170.562 104.648 168.901C105.234 167.241 105.6 164.75 107.652 165.082C108.97 165.331 109.483 167.656 110.362 169.15C111.681 167.49 113.073 166.493 110.362 162.508C108.97 160.515 106.626 160.681 104.575 161.096C103.402 161.013 103.476 160.515 102.303 160.432C98.4937 160.1 94.3909 163.089 92.7791 166.991C90.9475 171.226 91.3871 175.543 88.8228 179.114Z" fill="#D2313B"/>
<path d="M101.829 181.045C101.541 181.045 101.253 180.959 100.965 180.872C100.317 180.7 99.3818 180.268 98.8061 179.232C98.5902 178.886 98.4463 178.541 98.4463 178.195C98.4463 178.109 98.5182 178.023 98.5902 178.023C98.6622 178.023 98.7341 178.109 98.7341 178.195C98.7341 178.454 98.8061 178.8 99.022 179.059C99.5977 180.009 100.461 180.441 101.037 180.613C101.829 180.872 102.692 180.786 103.484 180.786C103.556 180.786 103.628 180.872 103.628 180.959C103.628 181.045 103.556 181.131 103.484 181.131C102.98 181.131 102.404 181.131 101.829 181.045Z" fill="white"/>
<path d="M104.442 180.221C104.277 180.069 104.057 180.069 103.892 180.145C103.232 180.45 103.947 181.517 104.497 180.984C104.552 180.907 104.607 180.907 104.607 180.831C104.717 180.603 104.662 180.374 104.442 180.221Z" fill="white"/>
<path d="M96.3721 171.098C96.6024 168.889 97.2932 166.327 98.5213 164.559C100.057 162.262 102.206 160.406 104.202 160.406C105.89 160.406 106.735 160.848 106.735 160.848C104.662 161.378 102.897 162.527 101.208 164.471C99.596 166.415 98.5981 169.066 98.5213 171.805" fill="white"/>
<path d="M101.531 173.949C101.754 176.536 100.343 178.766 98.3364 179.034C96.3301 179.301 94.5468 177.428 94.3239 174.841C94.101 172.255 95.5128 170.025 97.519 169.757C99.5252 169.49 101.309 171.452 101.531 173.949Z" fill="white"/>
<path d="M99.4678 174.61C99.5984 176.352 98.8143 177.833 97.6381 178.007C96.5273 178.181 95.4818 176.875 95.3511 175.219C95.2204 173.477 96.0045 171.996 97.1807 171.822C98.3569 171.647 99.3371 172.867 99.4678 174.61Z" fill="#BDBDBD"/>
<path d="M378.563 71.6762C379.051 72.0383 379.39 72.6651 379.228 73.3681L379.221 73.3968L377.286 79.4078C377.113 80.0428 376.586 80.4211 376.057 80.5542C375.523 80.6883 374.897 80.6032 374.398 80.2339L375.035 78.9258L375.034 78.9253L374.398 80.2333L369.569 76.6636C369.046 76.2752 368.829 75.6859 368.931 75.1188C369.031 74.5669 369.42 74.0936 369.977 73.8524L369.997 73.8438L376.7 71.402C377.38 71.1668 378.072 71.312 378.563 71.6762Z" fill="black" fill-opacity="0.2"/>
<path fill-rule="evenodd" clip-rule="evenodd" d="M73.8739 151.223L80.6516 153.833L80.6613 153.837C81.2607 154.089 81.7022 154.598 81.8277 155.23C81.9557 155.874 81.7283 156.534 81.2028 156.964L76.4675 161.013L76.4597 161.02C75.9523 161.43 75.3153 161.525 74.7717 161.376C74.2321 161.228 73.696 160.807 73.52 160.101L71.5513 153.343L71.5449 153.312C71.2302 151.827 72.6303 150.662 73.8739 151.223ZM72.9783 152.942L74.9382 159.671L74.9432 159.692C74.9523 159.73 74.9907 159.808 75.1373 159.848C75.2835 159.888 75.4474 159.858 75.5649 159.766L80.2974 155.72L80.3052 155.713C80.3597 155.669 80.3769 155.633 80.3827 155.617C80.3888 155.6 80.3909 155.581 80.3862 155.558C80.3778 155.515 80.3292 155.395 80.1314 155.309L73.3296 152.69L73.306 152.679C73.225 152.64 73.1361 152.653 73.0618 152.718C72.9966 152.774 72.9651 152.85 72.9783 152.942Z" fill="black" fill-opacity="0.2"/>
<path d="M160.556 167.85L156.48 169.251L158.069 172.847L162.145 171.445L160.556 167.85Z" fill="black" fill-opacity="0.2"/>
<path d="M204.213 74.8171L200.128 73.436L198.562 77.0395L202.647 78.4206L204.213 74.8171Z" fill="black" fill-opacity="0.2"/>
<path d="M31.4667 266.866L27.0967 267.038L27.2913 270.893L31.6613 270.721L31.4667 266.866Z" fill="black" fill-opacity="0.2"/>
<defs>
<linearGradient id="paint0_linear" x1="154.905" y1="363.533" x2="154.905" y2="227.793" gradientUnits="userSpaceOnUse">
<stop stop-color="#A92E35"/>
<stop offset="1" stop-color="#D2313B"/>
</linearGradient>
<linearGradient id="paint1_linear" x1="82.8667" y1="363.533" x2="82.8667" y2="228.829" gradientUnits="userSpaceOnUse">
<stop stop-color="#A92E35"/>
<stop offset="1" stop-color="#D2313B"/>
</linearGradient>
<linearGradient id="paint2_linear" x1="53.3342" y1="363.526" x2="53.3342" y2="279.595" gradientUnits="userSpaceOnUse">
<stop stop-color="#A92E35"/>
<stop offset="1" stop-color="#D2313B"/>
</linearGradient>
<linearGradient id="paint3_linear" x1="59.0515" y1="363.52" x2="59.0515" y2="316.892" gradientUnits="userSpaceOnUse">
<stop stop-color="#A92E35"/>
<stop offset="1" stop-color="#D2313B"/>
</linearGradient>
<linearGradient id="paint4_linear" x1="232.948" y1="292.155" x2="229.503" y2="163.253" gradientUnits="userSpaceOnUse">
<stop stop-color="#29225E"/>
<stop offset="1" stop-color="#3F368C"/>
</linearGradient>
<linearGradient id="paint5_linear" x1="219.388" y1="291.862" x2="216.02" y2="163.277" gradientUnits="userSpaceOnUse">
<stop stop-color="#29225E"/>
<stop offset="1" stop-color="#3F368C"/>
</linearGradient>
<linearGradient id="paint6_linear" x1="238.918" y1="132.435" x2="298.416" y2="103.919" gradientUnits="userSpaceOnUse">
<stop stop-color="#99A7AE"/>
<stop offset="1" stop-color="#42415F"/>
</linearGradient>
<linearGradient id="paint7_linear" x1="389.203" y1="409.57" x2="245.66" y2="127.849" gradientUnits="userSpaceOnUse">
<stop stop-color="#000F1B"/>
<stop offset="1" stop-color="#0E2232"/>
</linearGradient>
<linearGradient id="paint8_linear" x1="312.349" y1="228.056" x2="312.349" y2="135.585" gradientUnits="userSpaceOnUse">
<stop stop-color="#A92E35"/>
<stop offset="1" stop-color="#D2313B"/>
</linearGradient>
<linearGradient id="paint9_linear" x1="389.202" y1="409.54" x2="261.935" y2="159.563" gradientUnits="userSpaceOnUse">
<stop stop-color="#052743"/>
<stop offset="1" stop-color="#949EB7"/>
</linearGradient>
<linearGradient id="paint10_linear" x1="387.584" y1="438.846" x2="254.558" y2="288.624" gradientUnits="userSpaceOnUse">
<stop stop-color="#04223D"/>
<stop offset="1" stop-color="#BCC2D2"/>
</linearGradient>
<linearGradient id="paint11_linear" x1="221.13" y1="126.89" x2="186.769" y2="159.275" gradientUnits="userSpaceOnUse">
<stop offset="0.0001" stop-color="#99A7AE"/>
<stop offset="1" stop-color="#42415F"/>
</linearGradient>
<linearGradient id="paint12_linear" x1="103.108" y1="269.214" x2="103.108" y2="304.447" gradientUnits="userSpaceOnUse">
<stop stop-color="#42464D"/>
<stop offset="1" stop-color="#2D3238"/>
</linearGradient>
<linearGradient id="paint13_linear" x1="105.698" y1="222.583" x2="105.698" y2="238.126" gradientUnits="userSpaceOnUse">
<stop stop-color="#42464D"/>
<stop offset="1" stop-color="#2D3238"/>
</linearGradient>
<linearGradient id="paint14_linear" x1="99.283" y1="208.702" x2="153.993" y2="156.649" gradientUnits="userSpaceOnUse">
<stop stop-color="#99A7AE"/>
<stop offset="1" stop-color="#42415F"/>
</linearGradient>
</defs>
</svg>
