<svg width="30" height="31" viewBox="0 0 30 31" fill="none" xmlns="http://www.w3.org/2000/svg">
<path d="M0.555556 5.99778H2.22222V8.22C2.22222 8.52722 2.47056 8.77556 2.77778 8.77556H9.44444C9.75167 8.77556 10 8.52722 10 8.22V5.99778H29.4444C29.7517 5.99778 30 5.74944 30 5.44222C30 5.135 29.7517 4.88667 29.4444 4.88667H10V2.66444C10 2.35722 9.75167 2.10889 9.44444 2.10889H2.77778C2.47056 2.10889 2.22222 2.35722 2.22222 2.66444V4.88667H0.555556C0.248333 4.88667 0 5.135 0 5.44222C0 5.74944 0.248333 5.99778 0.555556 5.99778ZM3.33333 3.22H8.88889V7.66444H3.33333V3.22Z" fill="url(#paint0_linear)"/>
<path d="M29.4444 15.4423H18.8889V13.2201C18.8889 12.9129 18.6406 12.6646 18.3333 12.6646H11.6667C11.3594 12.6646 11.1111 12.9129 11.1111 13.2201V15.4423H0.555556C0.248333 15.4423 0 15.6907 0 15.9979C0 16.3051 0.248333 16.5534 0.555556 16.5534H11.1111V18.7757C11.1111 19.0829 11.3594 19.3312 11.6667 19.3312H18.3333C18.6406 19.3312 18.8889 19.0829 18.8889 18.7757V16.5534H29.4444C29.7517 16.5534 30 16.3051 30 15.9979C30 15.6907 29.7517 15.4423 29.4444 15.4423ZM17.7778 18.2201H12.2222V13.7757H17.7778V18.2201Z" fill="url(#paint1_linear)"/>
<path d="M29.4444 25.998H27.7778V23.7758C27.7778 23.4685 27.5294 23.2202 27.2222 23.2202H20.5556C20.2483 23.2202 20 23.4685 20 23.7758V25.998H0.555556C0.248333 25.998 0 26.2463 0 26.5535C0 26.8608 0.248333 27.1091 0.555556 27.1091H20V29.3313C20 29.6386 20.2483 29.8869 20.5556 29.8869H27.2222C27.5294 29.8869 27.7778 29.6386 27.7778 29.3313V27.1091H29.4444C29.7517 27.1091 30 26.8608 30 26.5535C30 26.2463 29.7517 25.998 29.4444 25.998ZM26.6667 28.7758H21.1111V24.3313H26.6667V28.7758Z" fill="url(#paint2_linear)"/>
<defs>
<linearGradient id="paint0_linear" x1="14.9907" y1="8.77653" x2="14.9907" y2="2.11036" gradientUnits="userSpaceOnUse">
<stop stop-color="#A92E35"/>
<stop offset="1" stop-color="#D2313B"/>
</linearGradient>
<linearGradient id="paint1_linear" x1="14.9907" y1="19.3322" x2="14.9907" y2="12.666" gradientUnits="userSpaceOnUse">
<stop stop-color="#A92E35"/>
<stop offset="1" stop-color="#D2313B"/>
</linearGradient>
<linearGradient id="paint2_linear" x1="14.9907" y1="29.8879" x2="14.9907" y2="23.2217" gradientUnits="userSpaceOnUse">
<stop stop-color="#A92E35"/>
<stop offset="1" stop-color="#D2313B"/>
</linearGradient>
</defs>
</svg>
