<svg width="30" height="30" viewBox="0 0 30 30" fill="none" xmlns="http://www.w3.org/2000/svg">
<path d="M27.6562 0.9375H2.34375C1.97079 0.9375 1.6131 1.08566 1.34938 1.34938C1.08566 1.6131 0.9375 1.97079 0.9375 2.34375V19.2188C0.9375 19.5917 1.08566 19.9494 1.34938 20.2131C1.6131 20.4768 1.97079 20.625 2.34375 20.625H11.9531L9.99984 25.3125H8.4375V26.25H18.75V26.7188C18.7507 27.3401 18.9979 27.9358 19.4373 28.3752C19.8767 28.8146 20.4724 29.0618 21.0938 29.0625H26.7188C27.3401 29.0618 27.9358 28.8146 28.3752 28.3752C28.8146 27.9358 29.0618 27.3401 29.0625 26.7188V2.34375C29.0625 1.97079 28.9143 1.6131 28.6506 1.34938C28.3869 1.08566 28.0292 0.9375 27.6562 0.9375ZM2.34375 19.6875C2.21943 19.6875 2.1002 19.6381 2.01229 19.5502C1.92439 19.4623 1.875 19.3431 1.875 19.2188V2.34375C1.875 2.21943 1.92439 2.1002 2.01229 2.01229C2.1002 1.92439 2.21943 1.875 2.34375 1.875H27.6562C27.7806 1.875 27.8998 1.92439 27.9877 2.01229C28.0756 2.1002 28.125 2.21943 28.125 2.34375V12.6562C28.05 12.6003 27.9718 12.549 27.8906 12.5025C27.8148 12.4594 27.7366 12.4207 27.6562 12.3867V2.34375H2.34375V16.875H18.75V19.6875H2.34375ZM21.0938 12.1875C20.4724 12.1882 19.8767 12.4354 19.4373 12.8748C18.9979 13.3142 18.7507 13.9099 18.75 14.5312V15.9375H3.28125V3.28125H26.7188V12.1875H21.0938ZM25.3125 13.125V13.5938H22.5V13.125H25.3125ZM18.75 22.3125L18.0469 20.625H18.75V22.3125ZM12.9689 20.625H17.0311L18.75 24.75V25.3125H11.0156L12.9689 20.625ZM28.125 26.7188C28.125 27.0917 27.9768 27.4494 27.7131 27.7131C27.4494 27.9768 27.0917 28.125 26.7188 28.125H21.0938C20.7208 28.125 20.3631 27.9768 20.0994 27.7131C19.8357 27.4494 19.6875 27.0917 19.6875 26.7188V14.5312C19.6875 14.1583 19.8357 13.8006 20.0994 13.5369C20.3631 13.2732 20.7208 13.125 21.0938 13.125H21.5625V13.5938C21.5625 13.8424 21.6613 14.0808 21.8371 14.2567C22.0129 14.4325 22.2514 14.5312 22.5 14.5312H25.3125C25.5611 14.5312 25.7996 14.4325 25.9754 14.2567C26.1512 14.0808 26.25 13.8424 26.25 13.5938V13.125H26.7188C26.8396 13.1329 26.9599 13.1485 27.0788 13.1719C27.1993 13.2025 27.3149 13.2499 27.4223 13.3125C27.6362 13.4361 27.8137 13.6138 27.937 13.8277C28.0604 14.0416 28.1252 14.2843 28.125 14.5312V26.7188Z" fill="url(#paint0_linear)"/>
<path d="M15.4688 14.5312H14.5312V15.4688H15.4688V14.5312Z" fill="url(#paint1_linear)"/>
<path d="M17.3438 14.5312H16.4062V15.4688H17.3438V14.5312Z" fill="url(#paint2_linear)"/>
<path d="M13.5938 14.5312H12.6562V15.4688H13.5938V14.5312Z" fill="url(#paint3_linear)"/>
<path d="M7.5 25.3125H6.5625V26.25H7.5V25.3125Z" fill="url(#paint4_linear)"/>
<path d="M24.375 25.7812H23.4375V26.7188H24.375V25.7812Z" fill="url(#paint5_linear)"/>
<path d="M26.25 25.7812H25.3125V26.7188H26.25V25.7812Z" fill="url(#paint6_linear)"/>
<path d="M22.5 25.7812H21.5625V26.7188H22.5V25.7812Z" fill="url(#paint7_linear)"/>
<defs>
<linearGradient id="paint0_linear" x1="14.9913" y1="29.0666" x2="14.9913" y2="0.943702" gradientUnits="userSpaceOnUse">
<stop stop-color="#A92E35"/>
<stop offset="1" stop-color="#D2313B"/>
</linearGradient>
<linearGradient id="paint1_linear" x1="14.9997" y1="15.4689" x2="14.9997" y2="14.5315" gradientUnits="userSpaceOnUse">
<stop stop-color="#A92E35"/>
<stop offset="1" stop-color="#D2313B"/>
</linearGradient>
<linearGradient id="paint2_linear" x1="16.8747" y1="15.4689" x2="16.8747" y2="14.5315" gradientUnits="userSpaceOnUse">
<stop stop-color="#A92E35"/>
<stop offset="1" stop-color="#D2313B"/>
</linearGradient>
<linearGradient id="paint3_linear" x1="13.1247" y1="15.4689" x2="13.1247" y2="14.5315" gradientUnits="userSpaceOnUse">
<stop stop-color="#A92E35"/>
<stop offset="1" stop-color="#D2313B"/>
</linearGradient>
<linearGradient id="paint4_linear" x1="7.03096" y1="26.2501" x2="7.03096" y2="25.3127" gradientUnits="userSpaceOnUse">
<stop stop-color="#A92E35"/>
<stop offset="1" stop-color="#D2313B"/>
</linearGradient>
<linearGradient id="paint5_linear" x1="23.906" y1="26.7189" x2="23.906" y2="25.7815" gradientUnits="userSpaceOnUse">
<stop stop-color="#A92E35"/>
<stop offset="1" stop-color="#D2313B"/>
</linearGradient>
<linearGradient id="paint6_linear" x1="25.781" y1="26.7189" x2="25.781" y2="25.7815" gradientUnits="userSpaceOnUse">
<stop stop-color="#A92E35"/>
<stop offset="1" stop-color="#D2313B"/>
</linearGradient>
<linearGradient id="paint7_linear" x1="22.031" y1="26.7189" x2="22.031" y2="25.7815" gradientUnits="userSpaceOnUse">
<stop stop-color="#A92E35"/>
<stop offset="1" stop-color="#D2313B"/>
</linearGradient>
</defs>
</svg>
